{
	"format_version": "1.12.0",
	"minecraft:geometry": [
		{
			"description": {
				"identifier": "geometry.slowking",
				"texture_width": 128,
				"texture_height": 128,
				"visible_bounds_width": 3,
				"visible_bounds_height": 3.5,
				"visible_bounds_offset": [0, 1.25, 0]
			},
			"bones": [
				{
					"name": "slowking",
					"pivot": [0, 0, 0]
				},
				{
					"name": "body",
					"parent": "slowking",
					"pivot": [0, 8.50571, -0.61927],
					"cubes": [
						{"origin": [-4.5, 3, -4.75], "size": [9, 11, 8], "pivot": [0, 10, -0.75], "rotation": [5, 0, 0], "uv": [0, 13]},
						{"origin": [-6.5, 14, -7.75], "size": [13, 0, 13], "pivot": [0, 13.75, -1.75], "rotation": [5, 0, 0], "uv": [0, 0]}
					]
				},
				{
					"name": "head",
					"parent": "body",
					"pivot": [0, 16.5, -1.25],
					"cubes": [
						{"origin": [-3.5, 13.5, -4.75], "size": [7, 7, 7], "uv": [0, 32]},
						{"origin": [-3, 14, -6.75], "size": [6, 3, 2], "uv": [50, 0]},
						{"origin": [-4, 20, -5.25], "size": [8, 3, 8], "uv": [26, 24]},
						{"origin": [0.5, 20.5, 1.775], "size": [3, 2, 1], "pivot": [2, 21.5, 2.275], "rotation": [0, 0, -10], "uv": [72, 0]},
						{"origin": [-3.5, 20.5, 1.775], "size": [3, 2, 1], "pivot": [-2, 21.5, 2.275], "rotation": [0, 0, 10], "uv": [72, 0], "mirror": true},
						{"origin": [-3.5, 22.5, -4.5], "size": [7, 3, 7], "pivot": [0, 26.5, -1], "rotation": [-5, 0, 0], "uv": [32, 6]},
						{"origin": [3.25, 21, -3], "size": [7, 4, 0], "pivot": [6.75, 23, -3], "rotation": [0, 15, -15], "uv": [18, 53]},
						{"origin": [-10.25, 21, -3], "size": [7, 4, 0], "pivot": [-6.75, 23, -3], "rotation": [0, -15, 15], "uv": [53, 6]},
						{"origin": [-1.5, 24.99524, -2.14106], "size": [3, 3, 3], "pivot": [0, 27.74524, -0.64105], "rotation": [-10, 0, 0], "uv": [0, 7]},
						{"origin": [-1, 25.17812, -3.32955], "size": [2, 2, 1], "pivot": [0, 26.17812, -2.82955], "rotation": [-20, 0, 0], "uv": [26, 13]},
						{"origin": [-0.34543, 26.01652, -0.15633], "size": [3, 1, 1], "pivot": [0, 27.74524, -0.64105], "rotation": [-6.2162, -23.0967, -52.9644], "uv": [0, 13]},
						{"origin": [-2.65457, 26.01652, -0.15633], "size": [3, 1, 1], "pivot": [0, 27.74524, -0.64105], "rotation": [-6.2162, 23.0967, 52.9644], "uv": [0, 15]},
						{"origin": [-0.5, 27.99524, -1.14106], "size": [1, 2, 1], "pivot": [0, 27.74524, -0.64105], "rotation": [-10, 0, 0], "uv": [0, 0]},
						{"origin": [-2.65457, 26.01652, -2.12578], "size": [3, 1, 1], "pivot": [0, 27.74524, -0.64105], "rotation": [-5.7562, -6.7472, 56.0896], "uv": [0, 19]},
						{"origin": [-0.34543, 26.01652, -2.12578], "size": [3, 1, 1], "pivot": [0, 27.74524, -0.64105], "rotation": [-5.7562, 6.7472, -56.0896], "uv": [0, 17]}
					]
				},
				{
					"name": "lefteye",
					"parent": "head",
					"pivot": [1.75, 18.25, -4.3],
					"cubes": [
						{"origin": [0.75, 16.75, -4.8], "size": [2, 3, 1], "pivot": [1.75, 18.25, -4.8], "rotation": [0, 0, 2.5], "uv": [66, 0], "mirror": true}
					]
				},
				{
					"name": "righteye",
					"parent": "head",
					"pivot": [-1.75, 18.25, -4.3],
					"cubes": [
						{"origin": [-2.75, 16.75, -4.8], "size": [2, 3, 1], "pivot": [-1.75, 18.25, -4.8], "rotation": [0, 0, -2.5], "uv": [66, 0]}
					]
				},
				{
					"name": "lefteyelid",
					"parent": "head",
					"pivot": [1.75, 18.25, -4.05],
					"cubes": [
						{"origin": [0.75, 16.75, -4.55], "size": [2, 3, 1], "pivot": [1.75, 18.25, -4.55], "rotation": [0, 0, 2.5], "uv": [68, 6], "mirror": true}
					]
				},
				{
					"name": "righteyelid",
					"parent": "head",
					"pivot": [-1.75, 18.25, -4.05],
					"cubes": [
						{"origin": [-2.75, 16.75, -4.55], "size": [2, 3, 1], "pivot": [-1.75, 18.25, -4.55], "rotation": [0, 0, -2.5], "uv": [68, 6]}
					]
				},
				{
					"name": "tail",
					"parent": "body",
					"pivot": [0, 5.5, 2.25],
					"cubes": [
						{"origin": [-2.5, 3, 1.25], "size": [5, 5, 6], "uv": [28, 35]}
					]
				},
				{
					"name": "tail2",
					"parent": "tail",
					"pivot": [0, 5.5, 7.25],
					"cubes": [
						{"origin": [-1.5, 3.5, 6.75], "size": [3, 4, 3], "uv": [50, 23]}
					]
				},
				{
					"name": "tail3",
					"parent": "tail2",
					"pivot": [0, 5.5, 9.75],
					"cubes": [
						{"origin": [-1, 4, 9.25], "size": [2, 3, 4], "uv": [0, 0]}
					]
				},
				{
					"name": "leftarm",
					"parent": "body",
					"pivot": [4.5, 11.78597, -0.67621],
					"cubes": [
						{"origin": [3.5, 9.78597, -2.17621], "size": [8, 4, 3], "uv": [34, 16]},
						{"origin": [11.25, 10.53597, -0.67621], "size": [1, 3, 0], "pivot": [11.75, 12.03597, -0.67621], "rotation": [0, 0, -2.5], "uv": [0, 7]},
						{"origin": [10.25, 13.53597, -0.67621], "size": [1, 1, 0], "pivot": [10.75, 14.03597, -0.67621], "rotation": [0, 0, 5], "uv": [0, 3]}
					]
				},
				{
					"name": "rightarm",
					"parent": "body",
					"pivot": [-4.5, 11.78597, -0.67621],
					"cubes": [
						{"origin": [-11.5, 9.78597, -2.17621], "size": [8, 4, 3], "uv": [18, 46]},
						{"origin": [-12.25, 10.53597, -0.67621], "size": [1, 3, 0], "pivot": [-11.75, 12.03597, -0.67621], "rotation": [0, 0, 2.5], "uv": [9, 7]},
						{"origin": [-11.25, 13.53597, -0.67621], "size": [1, 1, 0], "pivot": [-10.75, 14.03597, -0.67621], "rotation": [0, 0, -5], "uv": [2, 3]}
					]
				},
				{
					"name": "leftleg",
					"parent": "body",
					"pivot": [3.5, 6.75, -0.75],
					"cubes": [
						{"origin": [1.5, 1, -3.25], "size": [4, 7, 5], "uv": [45, 41]}
					]
				},
				{
					"name": "leftfoot",
					"parent": "leftleg",
					"pivot": [3.5, 1, -0.75],
					"cubes": [
						{"origin": [2, 0, -4], "size": [3, 1, 5], "uv": [39, 0]},
						{"origin": [2.5, 0.32805, -4.9445], "size": [2, 0, 1], "pivot": [4, 0.32805, -4.4445], "rotation": [25, 0, 0], "uv": [7, 0]}
					]
				},
				{
					"name": "rightleg",
					"parent": "body",
					"pivot": [-3.5, 6.75, -0.75],
					"cubes": [
						{"origin": [-5.5, 1, -3.25], "size": [4, 7, 5], "uv": [0, 46]}
					]
				},
				{
					"name": "rightfoot",
					"parent": "rightleg",
					"pivot": [-3.5, 1, -0.75],
					"cubes": [
						{"origin": [-5, 0, -4], "size": [3, 1, 5], "uv": [44, 35]},
						{"origin": [-4.5, 0.32805, -4.9445], "size": [2, 0, 1], "pivot": [-4, 0.32805, -4.4445], "rotation": [25, 0, 0], "uv": [7, 1]}
					]
				}
			]
		}
	]
}