{
  "name": "Croconaw",
  "nationalPokedexNumber": 159,
  "primaryType": "water",
  "abilities": [
    "torrent",
    "h:sheerforce"
  ],
  "baseStats": {
    "hp": 65,
    "attack": 80,
    "defence": 80,
    "special_attack": 59,
    "special_defence": 63,
    "speed": 58
  },
  "catchRate": 45,
  "maleRatio": 0.875,
  "shoulderMountable": false,
  "baseExperienceYield": 142,
  "experienceGroup": "medium_slow",
  "eggCycles": 20,
  "eggGroups": [
    "monster",
    "water_1"
  ],
  "moves": [
    "1:leer",
    "1:scratch",
    "1:watergun",
    "8:rage",
    "13:bite",
    "15:scaryface",
    "21:icefang",
    "24:flail",
    "30:crunch",
    "33:chipaway",
    "39:slash",
    "42:screech",
    "48:thrash",
    "51:aquatail",
    "57:superpower",
    "60:hydropump",
    "tm:aerialace",
    "tm:attract",
    "tm:blizzard",
    "tm:brickbreak",
    "tm:captivate",
    "tm:confide",
    "tm:dive",
    "tm:doubleteam",
    "tm:dragonclaw",
    "tm:facade",
    "tm:fling",
    "tm:frustration",
    "tm:hail",
    "tm:hiddenpower",
    "tm:honeclaws",
    "tm:icebeam",
    "tm:naturalgift",
    "tm:poweruppunch",
    "tm:protect",
    "tm:raindance",
    "tm:rest",
    "tm:return",
    "tm:roar",
    "tm:rockslide",
    "tm:rocktomb",
    "tm:round",
    "tm:scald",
    "tm:secretpower",
    "tm:shadowclaw",
    "tm:sleeptalk",
    "tm:substitute",
    "tm:surf",
    "tm:swagger",
    "tm:swordsdance",
    "tm:toxic",
    "tm:waterfall",
    "tm:workup",
    "tutor:ancientpower",
    "tutor:aquatail",
    "tutor:attract",
    "tutor:bite",
    "tutor:blizzard",
    "tutor:block",
    "tutor:bodyslam",
    "tutor:counter",
    "tutor:curse",
    "tutor:cut",
    "tutor:detect",
    "tutor:dig",
    "tutor:doubleedge",
    "tutor:doubleteam",
    "tutor:dynamicpunch",
    "tutor:endure",
    "tutor:focuspunch",
    "tutor:frustration",
    "tutor:furycutter",
    "tutor:headbutt",
    "tutor:hiddenpower",
    "tutor:hydropump",
    "tutor:icepunch",
    "tutor:icepunch",
    "tutor:icywind",
    "tutor:icywind",
    "tutor:irontail",
    "tutor:irontail",
    "tutor:leer",
    "tutor:lowkick",
    "tutor:megakick",
    "tutor:megapunch",
    "tutor:mimic",
    "tutor:mudslap",
    "tutor:protect",
    "tutor:rage",
    "tutor:raindance",
    "tutor:rest",
    "tutor:return",
    "tutor:roar",
    "tutor:rocksmash",
    "tutor:scaryface",
    "tutor:scratch",
    "tutor:screech",
    "tutor:seismictoss",
    "tutor:slash",
    "tutor:sleeptalk",
    "tutor:snore",
    "tutor:snore",
    "tutor:spite",
    "tutor:strength",
    "tutor:superpower",
    "tutor:surf",
    "tutor:swagger",
    "tutor:toxic",
    "tutor:uproar",
    "tutor:watergun",
    "tutor:waterpledge",
    "tutor:waterpulse",
    "tutor:whirlpool"
  ],
  "labels": [
    "gen2"
  ],
  "pokedex": [
    "cobblemon.species.croconaw.desc"
  ],
  "preEvolution": "totodile",
  "evolutions": [
    {
      "id": "croconaw_feraligatr",
      "variant": "level_up",
      "result": "feraligatr",
      "consumeHeldItem": false,
      "learnableMoves": [],
      "requirements": [
        {
          "variant": "level",
          "minLevel": 30
        }
      ]
    }
  ],
  "baseScale": 1,
  "hitbox": {
    "width": 1,
    "height": 1,
    "fixed": false
  },
  "baseFriendship": 70,
  "evYield": {
    "hp": 0,
    "attack": 1,
    "defence": 1,
    "special_attack": 0,
    "special_defence": 0,
    "speed": 0
  },
  "height": 11,
  "weight": 250,
  "aspects": [],
  "cannotDynamax": false
}