{
  "name": "Houndour",
  "nationalPokedexNumber": 228,
  "primaryType": "dark",
  "secondaryType": "fire",
  "abilities": [
    "earlybird",
    "flashfire",
    "h:unnerve"
  ],
  "baseStats": {
    "hp": 45,
    "attack": 60,
    "defence": 30,
    "special_attack": 80,
    "special_defence": 50,
    "speed": 65
  },
  "catchRate": 120,
  "maleRatio": 0.5,
  "shoulderMountable": false,
  "baseExperienceYield": 66,
  "experienceGroup": "slow",
  "eggCycles": 20,
  "eggGroups": [
    "field"
  ],
  "moves": [
    "1:ember",
    "1:leer",
    "4:howl",
    "8:smog",
    "13:roar",
    "16:bite",
    "20:incinerate",
    "20:odorsleuth",
    "25:beatup",
    "28:firefang",
    "32:feintattack",
    "32:torment",
    "37:comeuppance",
    "37:embargo",
    "40:foulplay",
    "44:flamethrower",
    "49:crunch",
    "52:nastyplot",
    "56:inferno",
    "egg:counter",
    "egg:destinybond",
    "egg:feint",
    "egg:firespin",
    "egg:punishment",
    "egg:pursuit",
    "egg:rage",
    "egg:reversal",
    "egg:spite",
    "egg:suckerpunch",
    "egg:thunderfang",
    "tm:attract",
    "tm:bodyslam",
    "tm:captivate",
    "tm:confide",
    "tm:crunch",
    "tm:darkpulse",
    "tm:doubleteam",
    "tm:dreameater",
    "tm:embargo",
    "tm:endure",
    "tm:facade",
    "tm:fireblast",
    "tm:firefang",
    "tm:firespin",
    "tm:flamecharge",
    "tm:flamethrower",
    "tm:flareblitz",
    "tm:foulplay",
    "tm:frustration",
    "tm:heatwave",
    "tm:helpinghand",
    "tm:hiddenpower",
    "tm:hypervoice",
    "tm:mudshot",
    "tm:mudslap",
    "tm:nastyplot",
    "tm:naturalgift",
    "tm:overheat",
    "tm:payback",
    "tm:protect",
    "tm:psychicfangs",
    "tm:raindance",
    "tm:rest",
    "tm:retaliate",
    "tm:return",
    "tm:reversal",
    "tm:round",
    "tm:scaryface",
    "tm:secretpower",
    "tm:shadowball",
    "tm:sleeptalk",
    "tm:sludgebomb",
    "tm:snarl",
    "tm:solarbeam",
    "tm:substitute",
    "tm:sunnyday",
    "tm:swagger",
    "tm:takedown",
    "tm:taunt",
    "tm:terablast",
    "tm:thief",
    "tm:thunderfang",
    "tm:toxic",
    "tm:trailblaze",
    "tm:willowisp",
    "tutor:attract",
    "tutor:charm",
    "tutor:curse",
    "tutor:detect",
    "tutor:doubleedge",
    "tutor:doubleteam",
    "tutor:dreameater",
    "tutor:feintattack",
    "tutor:frustration",
    "tutor:headbutt",
    "tutor:hiddenpower",
    "tutor:irontail",
    "tutor:irontail",
    "tutor:mimic",
    "tutor:nightmare",
    "tutor:pursuit",
    "tutor:rage",
    "tutor:return",
    "tutor:rocksmash",
    "tutor:roleplay",
    "tutor:snatch",
    "tutor:snore",
    "tutor:snore",
    "tutor:superfang",
    "tutor:swagger",
    "tutor:swift",
    "tutor:toxic",
    "tutor:uproar"
  ],
  "labels": [
    "gen2"
  ],
  "pokedex": [
    "cobblemon.species.houndour.desc"
  ],
  "evolutions": [
    {
      "id": "houndour_houndoom",
      "variant": "level_up",
      "result": "houndoom",
      "consumeHeldItem": false,
      "learnableMoves": [],
      "requirements": [
        {
          "variant": "level",
          "minLevel": 24
        }
      ]
    }
  ],
  "baseScale": 1,
  "hitbox": {
    "width": 1,
    "height": 1,
    "fixed": false
  },
  "baseFriendship": 35,
  "evYield": {
    "hp": 0,
    "attack": 0,
    "defence": 0,
    "special_attack": 1,
    "special_defence": 0,
    "speed": 0
  },
  "height": 6,
  "weight": 108,
  "aspects": [],
  "cannotDynamax": false
}