{
  "implemented": true,
  "name": "Magby",
  "nationalPokedexNumber": 240,
  "primaryType": "fire",
  "abilities": [
    "flamebody",
    "h:vitalspirit"
  ],
  "baseStats": {
    "hp": 45,
    "attack": 75,
    "defence": 37,
    "special_attack": 70,
    "special_defence": 55,
    "speed": 83
  },
  "catchRate": 45,
  "maleRatio": 0.75,
  "shoulderMountable": false,
  "baseExperienceYield": 73,
  "experienceGroup": "medium_fast",
  "eggCycles": 25,
  "eggGroups": [
    "undiscovered"
  ],
  "drops": {
    "amount": "2",
    "entries": [
      {
        "item": "minecraft:blaze_powder",
        "percentage": 5
      },
      {
        "item": "cobblemon:magmarizer",
        "percentage": 5
      }
    ]
  },
  "moves": [
    "1:leer",
    "1:smog",
    "4:ember",
    "8:smokescreen",
    "12:clearsmog",
    "12:feintattack",
    "16:flamewheel",
    "20:confuseray",
    "22:flameburst",
    "24:scaryface",
    "28:firepunch",
    "32:lavaplume",
    "36:lowkick",
    "40:flamethrower",
    "44:sunnyday",
    "48:fireblast",
    "egg:barrier",
    "egg:belch",
    "egg:bellydrum",
    "egg:crosschop",
    "egg:dynamicpunch",
    "egg:focuspunch",
    "egg:karatechop",
    "egg:machpunch",
    "tm:attract",
    "tm:bodyslam",
    "tm:brickbreak",
    "tm:captivate",
    "tm:confide",
    "tm:doubleteam",
    "tm:endure",
    "tm:facade",
    "tm:fireblast",
    "tm:firepunch",
    "tm:firespin",
    "tm:flamecharge",
    "tm:flamethrower",
    "tm:flareblitz",
    "tm:fling",
    "tm:focusenergy",
    "tm:frustration",
    "tm:heatwave",
    "tm:helpinghand",
    "tm:hiddenpower",
    "tm:incinerate",
    "tm:irontail",
    "tm:lowkick",
    "tm:megakick",
    "tm:megapunch",
    "tm:naturalgift",
    "tm:overheat",
    "tm:powerswap",
    "tm:poweruppunch",
    "tm:protect",
    "tm:psychic",
    "tm:rest",
    "tm:return",
    "tm:rocksmash",
    "tm:round",
    "tm:scaryface",
    "tm:screech",
    "tm:secretpower",
    "tm:sleeptalk",
    "tm:snore",
    "tm:substitute",
    "tm:sunnyday",
    "tm:swagger",
    "tm:thief",
    "tm:thunderpunch",
    "tm:toxic",
    "tm:uproar",
    "tm:willowisp",
    "tutor:barrier",
    "tutor:counter",
    "tutor:covet",
    "tutor:curse",
    "tutor:detect",
    "tutor:doubleedge",
    "tutor:doubleteam",
    "tutor:dualchop",
    "tutor:frustration",
    "tutor:headbutt",
    "tutor:hiddenpower",
    "tutor:karatechop",
    "tutor:mimic",
    "tutor:mudslap",
    "tutor:return",
    "tutor:seismictoss",
    "tutor:swagger",
    "tutor:toxic"
  ],
  "labels": [
    "gen2",
    "baby"
  ],
  "pokedex": [
    "cobblemon.species.magby.desc"
  ],
  "evolutions": [
    {
      "id": "magby_magmar",
      "variant": "level_up",
      "result": "magmar",
      "consumeHeldItem": false,
      "learnableMoves": [],
      "requirements": [
        {
          "variant": "level",
          "minLevel": 30
        }
      ]
    }
  ],
  "baseScale": 0.7,
  "hitbox": {
    "width": 0.6,
    "height": 1.2,
    "fixed": false
  },
  "baseFriendship": 50,
  "evYield": {
    "hp": 0,
    "attack": 0,
    "defence": 0,
    "special_attack": 0,
    "special_defence": 0,
    "speed": 1
  },
  "height": 7,
  "weight": 214,
  "aspects": [],
  "cannotDynamax": false
}