{
  "name": "Slugma",
  "nationalPokedexNumber": 218,
  "primaryType": "fire",
  "abilities": [
    "magmaarmor",
    "flamebody",
    "h:weakarmor"
  ],
  "baseStats": {
    "hp": 40,
    "attack": 40,
    "defence": 40,
    "special_attack": 70,
    "special_defence": 40,
    "speed": 20
  },
  "catchRate": 190,
  "maleRatio": 0.5,
  "shoulderMountable": false,
  "baseExperienceYield": 50,
  "experienceGroup": "medium_fast",
  "eggCycles": 20,
  "eggGroups": [
    "amorphous"
  ],
  "moves": [
    "1:smog",
    "1:yawn",
    "6:ember",
    "8:rockthrow",
    "13:harden",
    "15:incinerate",
    "20:clearsmog",
    "22:ancientpower",
    "27:flameburst",
    "29:rockslide",
    "34:lavaplume",
    "36:amnesia",
    "41:bodyslam",
    "43:recover",
    "48:flamethrower",
    "50:earthpower",
    "egg:acidarmor",
    "egg:curse",
    "egg:earthpower",
    "egg:guardswap",
    "egg:heatwave",
    "egg:inferno",
    "egg:memento",
    "egg:rollout",
    "egg:smokescreen",
    "egg:spitup",
    "egg:stockpile",
    "egg:swallow",
    "tm:attract",
    "tm:captivate",
    "tm:confide",
    "tm:doubleteam",
    "tm:facade",
    "tm:fireblast",
    "tm:flamecharge",
    "tm:flamethrower",
    "tm:frustration",
    "tm:hiddenpower",
    "tm:infestation",
    "tm:lightscreen",
    "tm:naturalgift",
    "tm:naturepower",
    "tm:overheat",
    "tm:protect",
    "tm:reflect",
    "tm:rest",
    "tm:return",
    "tm:rockslide",
    "tm:rocktomb",
    "tm:round",
    "tm:secretpower",
    "tm:sleeptalk",
    "tm:substitute",
    "tm:sunnyday",
    "tm:swagger",
    "tm:toxic",
    "tm:willowisp",
    "tutor:acidarmor",
    "tutor:afteryou",
    "tutor:amnesia",
    "tutor:attract",
    "tutor:bodyslam",
    "tutor:curse",
    "tutor:defensecurl",
    "tutor:doubleedge",
    "tutor:doubleteam",
    "tutor:earthpower",
    "tutor:ember",
    "tutor:endure",
    "tutor:fireblast",
    "tutor:flamethrower",
    "tutor:frustration",
    "tutor:harden",
    "tutor:heatwave",
    "tutor:hiddenpower",
    "tutor:irondefense",
    "tutor:mimic",
    "tutor:mudslap",
    "tutor:painsplit",
    "tutor:protect",
    "tutor:rest",
    "tutor:return",
    "tutor:rockslide",
    "tutor:rocksmash",
    "tutor:rockthrow",
    "tutor:rollout",
    "tutor:selfdestruct",
    "tutor:sleeptalk",
    "tutor:smog",
    "tutor:snore",
    "tutor:snore",
    "tutor:sunnyday",
    "tutor:swagger",
    "tutor:toxic"
  ],
  "labels": [
    "gen2"
  ],
  "pokedex": [
    "cobblemon.species.slugma.desc"
  ],
  "evolutions": [
    {
      "id": "slugma_magcargo",
      "variant": "level_up",
      "result": "magcargo",
      "consumeHeldItem": false,
      "learnableMoves": [],
      "requirements": [
        {
          "variant": "level",
          "minLevel": 38
        }
      ]
    }
  ],
  "baseScale": 1,
  "hitbox": {
    "width": 1,
    "height": 1,
    "fixed": false
  },
  "baseFriendship": 70,
  "evYield": {
    "hp": 0,
    "attack": 0,
    "defence": 0,
    "special_attack": 1,
    "special_defence": 0,
    "speed": 0
  },
  "height": 7,
  "weight": 350,
  "aspects": [],
  "cannotDynamax": false
}