{
  "implemented": true,
  "name": "Tyrogue",
  "nationalPokedexNumber": 236,
  "primaryType": "fighting",
  "abilities": [
    "guts",
    "steadfast",
    "h:vitalspirit"
  ],
  "baseStats": {
    "hp": 35,
    "attack": 35,
    "defence": 35,
    "special_attack": 35,
    "special_defence": 35,
    "speed": 35
  },
  "catchRate": 75,
  "maleRatio": 1,
  "shoulderMountable": false,
  "baseExperienceYield": 42,
  "experienceGroup": "medium_fast",
  "eggCycles": 25,
  "eggGroups": [
    "undiscovered"
  ],
  "moves": [
    "1:fakeout",
    "1:focusenergy",
    "1:foresight",
    "1:helpinghand",
    "1:tackle",
    "egg:bulletpunch",
    "egg:counter",
    "egg:feint",
    "egg:highjumpkick",
    "egg:machpunch",
    "egg:mindreader",
    "egg:pursuit",
    "egg:rapidspin",
    "egg:vacuumwave",
    "tm:attract",
    "tm:bodyslam",
    "tm:brickbreak",
    "tm:bulkup",
    "tm:bulldoze",
    "tm:captivate",
    "tm:confide",
    "tm:doubleteam",
    "tm:earthquake",
    "tm:endure",
    "tm:facade",
    "tm:focusenergy",
    "tm:frustration",
    "tm:helpinghand",
    "tm:hiddenpower",
    "tm:lowkick",
    "tm:lowsweep",
    "tm:megakick",
    "tm:megapunch",
    "tm:naturalgift",
    "tm:protect",
    "tm:raindance",
    "tm:rest",
    "tm:retaliate",
    "tm:return",
    "tm:rockslide",
    "tm:round",
    "tm:secretpower",
    "tm:sleeptalk",
    "tm:snore",
    "tm:substitute",
    "tm:sunnyday",
    "tm:swagger",
    "tm:swift",
    "tm:thief",
    "tm:toxic",
    "tm:uproar",
    "tm:workup",
    "tutor:covet",
    "tutor:curse",
    "tutor:detect",
    "tutor:doubleedge",
    "tutor:doubleteam",
    "tutor:frustration",
    "tutor:headbutt",
    "tutor:hiddenpower",
    "tutor:laserfocus",
    "tutor:mimic",
    "tutor:mudslap",
    "tutor:return",
    "tutor:rocksmash",
    "tutor:roleplay",
    "tutor:seismictoss",
    "tutor:strength",
    "tutor:swagger",
    "tutor:toxic"
  ],
  "labels": [
    "gen2",
    "baby"
  ],
  "pokedex": [
    "cobblemon.species.tyrogue.desc"
  ],
  "evolutions": [
    {
      "id": "tyrogue_hitmonlee",
      "variant": "level_up",
      "result": "hitmonlee",
      "consumeHeldItem": false,
      "learnableMoves": [],
      "requirements": [
        {
          "variant": "level",
          "minLevel": 20
        },
        {
          "variant": "attack_defence_ratio",
          "ratio": "ATTACK_HIGHER"
        }
      ]
    },
    {
      "id": "tyrogue_hitmonchan",
      "variant": "level_up",
      "result": "hitmonchan",
      "consumeHeldItem": false,
      "learnableMoves": [],
      "requirements": [
        {
          "variant": "level",
          "minLevel": 20
        },
        {
          "variant": "attack_defence_ratio",
          "ratio": "DEFENCE_HIGHER"
        }
      ]
    },
    {
      "id": "tyrogue_hitmontop",
      "variant": "level_up",
      "result": "hitmontop",
      "consumeHeldItem": false,
      "learnableMoves": [
        "triplekick"
      ],
      "requirements": [
        {
          "variant": "level",
          "minLevel": 20
        },
        {
          "variant": "attack_defence_ratio",
          "ratio": "EQUAL"
        }
      ]
    }
  ],
  "baseScale": 0.6,
  "hitbox": {
    "width": 0.5,
    "height": 1.3,
    "fixed": false
  },
  "baseFriendship": 50,
  "evYield": {
    "hp": 0,
    "attack": 1,
    "defence": 0,
    "special_attack": 0,
    "special_defence": 0,
    "speed": 0
  },
  "height": 7,
  "weight": 210,
  "aspects": [],
  "cannotDynamax": false
}