{
	"format_version": "1.12.0",
	"minecraft:geometry": [
		{
			"description": {
				"identifier": "geometry.prinplup",
				"texture_width": 64,
				"texture_height": 64,
				"visible_bounds_width": 3,
				"visible_bounds_height": 2.5,
				"visible_bounds_offset": [0, 0.75, 0]
			},
			"bones": [
				{
					"name": "prinplup",
					"pivot": [0, 0, 0]
				},
				{
					"name": "body",
					"parent": "prinplup",
					"pivot": [0, 12, -0.25]
				},
				{
					"name": "torso",
					"parent": "body",
					"pivot": [0, 4, 0.5],
					"cubes": [
						{"origin": [-4.5, 4, -4.25], "size": [9, 6, 8], "uv": [0, 0]},
						{"origin": [-3, 5, -4.275], "size": [6, 5, 0], "uv": [0, 48]},
						{"origin": [-4, 10, -3.75], "size": [8, 4, 7], "inflate": 0.01, "uv": [0, 29]}
					]
				},
				{
					"name": "head",
					"parent": "torso",
					"pivot": [0, 15.5, -0.25],
					"cubes": [
						{"origin": [-3.5, 13.5, -3.75], "size": [7, 7, 7], "uv": [19, 15]},
						{"origin": [-1, 15.75, -4.75], "size": [2, 2, 1], "uv": [0, 0]},
						{"origin": [-2.92831, 15.87874, -4.74433], "size": [0, 8, 10], "pivot": [-2.92831, 20.87874, 0.25567], "rotation": [0, 2.5, -25], "uv": [30, 19]},
						{"origin": [2.9102, 15.88718, -4.7452], "size": [0, 8, 10], "pivot": [2.9102, 20.88718, 0.2548], "rotation": [0, -2.5, 25], "uv": [0, 30]}
					]
				},
				{
					"name": "jaw",
					"parent": "head",
					"pivot": [0, 15.75, -3.75],
					"cubes": [
						{"origin": [-1, 14.75, -4.75], "size": [2, 1, 1], "uv": [0, 26]}
					]
				},
				{
					"name": "eyes",
					"parent": "head",
					"pivot": [0, 17.25, -3.3],
					"cubes": [
						{"origin": [-3.525, 16.25, -3.8], "size": [2, 2, 1], "inflate": 0.01, "uv": [38, 0]},
						{"origin": [1.525, 16.25, -3.8], "size": [2, 2, 1], "inflate": 0.01, "uv": [38, 0], "mirror": true}
					]
				},
				{
					"name": "eyelid_right",
					"parent": "eyes",
					"pivot": [-2.425, 17.25, -3.2],
					"cubes": [
						{"origin": [-3.425, 16.25, -3.7], "size": [2, 2, 1], "inflate": 0.02, "uv": [0, 31]}
					]
				},
				{
					"name": "eyelid_left",
					"parent": "eyes",
					"pivot": [2.425, 17.25, -3.2],
					"cubes": [
						{"origin": [1.425, 16.25, -3.7], "size": [2, 2, 1], "inflate": 0.02, "uv": [0, 31], "mirror": true}
					]
				},
				{
					"name": "wing_right1",
					"parent": "torso",
					"pivot": [-4, 13.25, -0.5],
					"cubes": [
						{"origin": [-10, 13.25, -3], "size": [6, 0, 5], "uv": [29, 10]}
					]
				},
				{
					"name": "wing_right2",
					"parent": "wing_right1",
					"pivot": [-10, 13.25, 2],
					"cubes": [
						{"origin": [-16, 13.25, -3], "size": [6, 0, 5], "uv": [29, 5]}
					]
				},
				{
					"name": "wing_left1",
					"parent": "torso",
					"pivot": [4, 13.25, -0.5],
					"cubes": [
						{"origin": [4, 13.25, -3], "size": [6, 0, 5], "uv": [0, 22]}
					]
				},
				{
					"name": "wing_left2",
					"parent": "wing_left1",
					"pivot": [10, 13.25, 2],
					"cubes": [
						{"origin": [10, 13.25, -3], "size": [6, 0, 5], "uv": [21, 0]}
					]
				},
				{
					"name": "tail",
					"parent": "torso",
					"pivot": [0, 8.25, 3.75],
					"rotation": [-55, 0, 0],
					"cubes": [
						{"origin": [-4.5, 8.25, 3.75], "size": [9, 0, 8], "uv": [0, 14]}
					]
				},
				{
					"name": "leg_right",
					"parent": "body",
					"pivot": [-2.5, 4, 0.5],
					"cubes": [
						{"origin": [-4, 1, -1], "size": [3, 4, 3], "uv": [20, 43]}
					]
				},
				{
					"name": "foot_right",
					"parent": "leg_right",
					"pivot": [-2.5, 2, 0.75],
					"cubes": [
						{"origin": [-4, 0, -1.75], "size": [3, 2, 4], "inflate": 0.01, "uv": [36, 39]}
					]
				},
				{
					"name": "toe_right1",
					"parent": "foot_right",
					"pivot": [-2.5, 1, -1.75],
					"cubes": [
						{"origin": [-2.5, 0, -4.75], "size": [0, 2, 3], "uv": [0, 17]}
					]
				},
				{
					"name": "toe_right2",
					"parent": "foot_right",
					"pivot": [-3.5, 1, -1.75],
					"rotation": [0, 10, 0],
					"cubes": [
						{"origin": [-3.5, 0, -4.75], "size": [0, 2, 3], "uv": [0, 15]}
					]
				},
				{
					"name": "toe_right3",
					"parent": "foot_right",
					"pivot": [-1.5, 1, -1.75],
					"rotation": [0, -10, 0],
					"cubes": [
						{"origin": [-1.5, 0, -4.75], "size": [0, 2, 3], "uv": [0, 13]}
					]
				},
				{
					"name": "leg_left",
					"parent": "body",
					"pivot": [2.5, 4, 0.5],
					"cubes": [
						{"origin": [1, 1, -1], "size": [3, 4, 3], "uv": [40, 15]}
					]
				},
				{
					"name": "foot_left",
					"parent": "leg_left",
					"pivot": [2.5, 2, 0.75],
					"cubes": [
						{"origin": [1, 0, -1.75], "size": [3, 2, 4], "inflate": 0.01, "uv": [26, 37]}
					]
				},
				{
					"name": "toe_left1",
					"parent": "foot_left",
					"pivot": [2.5, 1, -1.75],
					"cubes": [
						{"origin": [2.5, 0, -4.75], "size": [0, 2, 3], "uv": [0, 11]}
					]
				},
				{
					"name": "toe_left2",
					"parent": "foot_left",
					"pivot": [3.5, 1, -1.75],
					"rotation": [0, -10, 0],
					"cubes": [
						{"origin": [3.5, 0, -4.75], "size": [0, 2, 3], "uv": [0, 2]}
					]
				},
				{
					"name": "toe_left3",
					"parent": "foot_left",
					"pivot": [1.5, 1, -1.75],
					"rotation": [0, 10, 0],
					"cubes": [
						{"origin": [1.5, 0, -4.75], "size": [0, 2, 3], "uv": [0, 0]}
					]
				}
			]
		}
	]
}