{
	"format_version": "1.12.0",
	"minecraft:geometry": [
		{
			"description": {
				"identifier": "geometry.torchic",
				"texture_width": 64,
				"texture_height": 64,
				"visible_bounds_width": 2,
				"visible_bounds_height": 3.5,
				"visible_bounds_offset": [0, 1.25, 0]
			},
			"bones": [
				{
					"name": "torchic",
					"pivot": [0, 0, 0]
				},
				{
					"name": "body",
					"parent": "torchic",
					"pivot": [0, 6.5, 1],
					"cubes": [
						{"origin": [-3.5, 4, -3], "size": [7, 5, 8], "uv": [0, 17]}
					]
				},
				{
					"name": "head",
					"parent": "body",
					"pivot": [0, 9, -0.75],
					"cubes": [
						{"origin": [-5, 9, -5.25], "size": [10, 8, 9], "uv": [0, 0]},
						{"origin": [-2, 11.25, -7.25], "size": [4, 1, 2], "uv": [28, 28]}
					]
				},
				{
					"name": "eyes",
					"parent": "head",
					"pivot": [0, 13, -5.3],
					"cubes": [
						{"origin": [2.5, 12, -5.3], "size": [2, 2, 0], "inflate": 0.02, "uv": [0, 40]},
						{"origin": [-4.5, 12, -5.3], "size": [2, 2, 0], "inflate": 0.02, "uv": [0, 40], "mirror": true}
					]
				},
				{
					"name": "eyelids",
					"parent": "head",
					"pivot": [0, 13, -4.7],
					"cubes": [
						{"origin": [2.5, 12, -5.2], "size": [2, 2, 1], "inflate": 0.04, "uv": [0, 43]},
						{"origin": [-4.5, 12, -5.2], "size": [2, 2, 1], "inflate": 0.04, "uv": [0, 43], "mirror": true}
					]
				},
				{
					"name": "jaw",
					"parent": "head",
					"pivot": [0, 11.25, -5.25],
					"cubes": [
						{"origin": [-1.5, 10.25, -7.25], "size": [3, 1, 2], "uv": [30, 31]}
					]
				},
				{
					"name": "comb_right1",
					"parent": "head",
					"pivot": [-2.75, 16.5, 0.25],
					"rotation": [-20, -5, -25],
					"cubes": [
						{"origin": [-4.75, 16.5, 0.25], "size": [4, 4, 0], "inflate": 0.02, "uv": [0, 21]}
					]
				},
				{
					"name": "comb_right2",
					"parent": "comb_right1",
					"pivot": [-2.75, 20.5, 0.25],
					"rotation": [-5, 0, 0],
					"cubes": [
						{"origin": [-4.75, 20.5, 0.25], "size": [4, 3, 0], "inflate": 0.02, "uv": [38, 7]}
					]
				},
				{
					"name": "comb_middle1",
					"parent": "head",
					"pivot": [0, 17, 0.25],
					"rotation": [-15, 0, 0],
					"cubes": [
						{"origin": [-2.5, 17, 0.25], "size": [5, 5, 0], "inflate": 0.02, "uv": [0, 30]}
					]
				},
				{
					"name": "comb_middle2",
					"parent": "comb_middle1",
					"pivot": [0, 22, 0.25],
					"rotation": [-5, 0, 0],
					"cubes": [
						{"origin": [-2.5, 22, 0.25], "size": [5, 5, 0], "inflate": 0.02, "uv": [29, 2]}
					]
				},
				{
					"name": "comb_left1",
					"parent": "head",
					"pivot": [2.75, 16.5, 0.25],
					"rotation": [-20, 5, 30],
					"cubes": [
						{"origin": [0.75, 16.5, 0.25], "size": [4, 4, 0], "inflate": 0.02, "uv": [0, 17]}
					]
				},
				{
					"name": "comb_left2",
					"parent": "comb_left1",
					"pivot": [2.75, 20.5, 0.25],
					"rotation": [-5, 0, 0],
					"cubes": [
						{"origin": [0.75, 20.5, 0.25], "size": [4, 3, 0], "inflate": 0.02, "uv": [0, 6]}
					]
				},
				{
					"name": "fluff_front_right",
					"parent": "body",
					"pivot": [-2.5, 9, -3],
					"rotation": [75, 0, 0],
					"cubes": [
						{"origin": [-4, 9, -6], "size": [3, 0, 3], "uv": [0, 3]}
					]
				},
				{
					"name": "fluff_front_left",
					"parent": "body",
					"pivot": [2.5, 9, -3],
					"rotation": [70, 0, 0],
					"cubes": [
						{"origin": [1, 9, -6], "size": [3, 0, 3], "uv": [0, 0]}
					]
				},
				{
					"name": "fluff_right",
					"parent": "body",
					"pivot": [-3.5, 9, 1],
					"rotation": [0, 0, -75],
					"cubes": [
						{"origin": [-6.5, 9, -3.5], "size": [3, 0, 8], "uv": [20, 17]}
					]
				},
				{
					"name": "fluff_left",
					"parent": "body",
					"pivot": [3.5, 9, 0.5],
					"rotation": [0, 0, 75],
					"cubes": [
						{"origin": [3.5, 9, -3.5], "size": [3, 0, 8], "uv": [14, 17]}
					]
				},
				{
					"name": "fluff_back",
					"parent": "body",
					"pivot": [0, 9.25, 3.75],
					"rotation": [-10, 0, 0],
					"cubes": [
						{"origin": [-3.5, 9.25, 3.75], "size": [7, 0, 2], "uv": [27, 0]}
					]
				},
				{
					"name": "tail",
					"parent": "body",
					"pivot": [0, 7, 4.5],
					"rotation": [10, 0, 0],
					"cubes": [
						{"origin": [-1.5, 5.5, 4.5], "size": [3, 3, 2], "uv": [10, 30]}
					]
				},
				{
					"name": "leg_right",
					"parent": "body",
					"pivot": [1.5, 4, 1.75],
					"rotation": [0, 0, -5],
					"cubes": [
						{"origin": [1, 1, 1.25], "size": [1, 4, 1], "uv": [15, 38]}
					]
				},
				{
					"name": "foot_right",
					"parent": "leg_right",
					"pivot": [1.5, 1, 1.75],
					"rotation": [0, -10, 5],
					"cubes": [
						{"origin": [0.5, 0, -0.5], "size": [2, 1, 3], "inflate": 0.02, "uv": [31, 22]}
					]
				},
				{
					"name": "toe_left1",
					"parent": "foot_right",
					"pivot": [1, 0.5, 0.25],
					"rotation": [0, 30, 0],
					"cubes": [
						{"origin": [0.5, 0, -2.75], "size": [1, 1, 3], "uv": [0, 35]}
					]
				},
				{
					"name": "toe_left2",
					"parent": "foot_right",
					"pivot": [1.5, 0.5, -0.5],
					"cubes": [
						{"origin": [1, 0, -3.5], "size": [1, 1, 3], "uv": [8, 35]}
					]
				},
				{
					"name": "toe_left3",
					"parent": "foot_right",
					"pivot": [2, 0.5, 0.25],
					"rotation": [0, -30, 0],
					"cubes": [
						{"origin": [1.5, 0, -2.75], "size": [1, 1, 3], "uv": [33, 34]}
					]
				},
				{
					"name": "toe_back_left",
					"parent": "foot_right",
					"pivot": [1.5, 0.5, 2.5],
					"cubes": [
						{"origin": [1, 0, 2.5], "size": [1, 1, 2], "uv": [30, 34]}
					]
				},
				{
					"name": "leg_left",
					"parent": "body",
					"pivot": [-1.5, 4, 1.75],
					"rotation": [0, 0, 5],
					"cubes": [
						{"origin": [-2, 1, 1.25], "size": [1, 4, 1], "uv": [38, 10]}
					]
				},
				{
					"name": "foot_left",
					"parent": "leg_left",
					"pivot": [-1.5, 1, 1.75],
					"rotation": [0, 10, -5],
					"cubes": [
						{"origin": [-2.5, 0, -0.5], "size": [2, 1, 3], "inflate": 0.02, "uv": [20, 30]}
					]
				},
				{
					"name": "toe_right1",
					"parent": "foot_left",
					"pivot": [-1, 0.5, 0.25],
					"rotation": [0, -30, 0],
					"cubes": [
						{"origin": [-1.5, 0, -2.75], "size": [1, 1, 3], "uv": [25, 34]}
					]
				},
				{
					"name": "toe_right2",
					"parent": "foot_left",
					"pivot": [-1.5, 0.5, -0.5],
					"cubes": [
						{"origin": [-2, 0, -3.5], "size": [1, 1, 3], "uv": [34, 17]}
					]
				},
				{
					"name": "toe_right3",
					"parent": "foot_left",
					"pivot": [-2, 0.5, 0.25],
					"rotation": [0, 30, 0],
					"cubes": [
						{"origin": [-2.5, 0, -2.75], "size": [1, 1, 3], "uv": [17, 34]}
					]
				},
				{
					"name": "toe_back_right",
					"parent": "foot_left",
					"pivot": [-1.5, 0.5, 2.5],
					"cubes": [
						{"origin": [-2, 0, 2.5], "size": [1, 1, 2], "uv": [22, 34]}
					]
				}
			]
		}
	]
}