{
  "name": "Spewpa",
  "nationalPokedexNumber": 665,
  "primaryType": "bug",
  "abilities": [
    "shedskin",
    "h:friendguard"
  ],
  "baseStats": {
    "hp": 45,
    "attack": 22,
    "defence": 60,
    "special_attack": 27,
    "special_defence": 30,
    "speed": 29
  },
  "catchRate": 120,
  "maleRatio": 0.5,
  "shoulderMountable": false,
  "baseExperienceYield": 75,
  "experienceGroup": "medium_fast",
  "eggCycles": 15,
  "eggGroups": [
    "bug"
  ],
  "moves": [
    "1:harden",
    "tm:irondefense",
    "tm:pounce",
    "tm:protect",
    "tm:strugglebug",
    "tm:terablast",
    "tutor:bugbite",
    "tutor:electroweb"
  ],
  "labels": [
    "gen6"
  ],
  "pokedex": [
    "cobblemon.species.spewpa.desc"
  ],
  "preEvolution": "scatterbug",
  "evolutions": [
    {
      "id": "spewpa_vivillon",
      "variant": "level_up",
      "result": "vivillon",
      "consumeHeldItem": false,
      "learnableMoves": [
        "gust"
      ],
      "requirements": [
        {
          "variant": "level",
          "minLevel": 12
        }
      ]
    },
    {
      "id": "spewpa_vivillon",
      "variant": "level_up",
      "result": "vivillon form=fancy",
      "consumeHeldItem": false,
      "learnableMoves": [
        "gust"
      ],
      "requirements": [
        {
          "variant": "level",
          "minLevel": 12
        }
      ]
    }
  ],
  "baseScale": 1,
  "hitbox": {
    "width": 1,
    "height": 1,
    "fixed": false
  },
  "baseFriendship": 70,
  "evYield": {
    "hp": 0,
    "attack": 0,
    "defence": 2,
    "special_attack": 0,
    "special_defence": 0,
    "speed": 0
  },
  "height": 3,
  "weight": 84,
  "aspects": [],
  "cannotDynamax": false
}