{
	"format_version": "1.12.0",
	"minecraft:geometry": [
		{
			"description": {
				"identifier": "geometry.nidorina",
				"texture_width": 64,
				"texture_height": 64,
				"visible_bounds_width": 4,
				"visible_bounds_height": 2.5,
				"visible_bounds_offset": [0, 0.75, 0]
			},
			"bones": [
				{
					"name": "nidorina",
					"pivot": [0, 0, 0]
				},
				{
					"name": "body",
					"parent": "nidorina",
					"pivot": [0, 6, -0.5],
					"cubes": [
						{"origin": [-4, 2.5, -6], "size": [8, 7, 12], "uv": [1, 0]},
						{"origin": [-3.25, 8.5, -3], "size": [0, 6, 9], "pivot": [-3.25, 11.75, 1.5], "rotation": [-10, 5, -20], "uv": [24, 11]},
						{"origin": [3.25, 8.5, -3], "size": [0, 6, 9], "pivot": [3.25, 11.75, 1.5], "rotation": [-10, -5, 20], "uv": [2, 26]}
					]
				},
				{
					"name": "head",
					"parent": "body",
					"pivot": [0, 7.25, -5.25],
					"cubes": [
						{"origin": [-3.5, 5, -12], "size": [7, 7, 8], "uv": [0, 20]},
						{"origin": [-2, 5, -14], "size": [4, 4, 2], "uv": [30, 27]}
					]
				},
				{
					"name": "eyes",
					"parent": "head",
					"pivot": [0, 9.4962, -9.29341],
					"rotation": [5, 0, 0],
					"cubes": [
						{"origin": [3.5, 8.5, -10.75], "size": [0, 2, 3], "inflate": 0.02, "pivot": [3.5, 9.25, -9.25], "rotation": [10, 0, 0], "uv": [58, -3]},
						{"origin": [-3.5, 8.5, -10.75], "size": [0, 2, 3], "inflate": 0.02, "pivot": [-3.5, 9.25, -9.25], "rotation": [10, 0, 0], "uv": [58, -3], "mirror": true}
					]
				},
				{
					"name": "eyelid_right",
					"parent": "eyes",
					"pivot": [-3.5, 9.25, -9.25],
					"cubes": [
						{"origin": [-3.4, 8.5, -10.75], "size": [1, 2, 3], "inflate": 0.04, "pivot": [-3.5, 9.25, -9.25], "rotation": [10, 0, 0], "uv": [51, 6], "mirror": true}
					]
				},
				{
					"name": "eyelid_left",
					"parent": "eyes",
					"pivot": [3.5, 9.25, -9.25],
					"cubes": [
						{"origin": [2.4, 8.5, -10.75], "size": [1, 2, 3], "inflate": 0.04, "pivot": [3.5, 9.25, -9.25], "rotation": [10, 0, 0], "uv": [51, 6]}
					]
				},
				{
					"name": "ear_right",
					"parent": "head",
					"pivot": [-3.5, 10.5, -7],
					"rotation": [-30, -25, -25],
					"cubes": [
						{"origin": [-3.25, 10.5, -10.5], "size": [0, 8, 7], "uv": [22, 28], "mirror": true}
					]
				},
				{
					"name": "ear_left",
					"parent": "head",
					"pivot": [3.5, 10.5, -7],
					"rotation": [-30, 25, 25],
					"cubes": [
						{"origin": [3.25, 10.5, -10.5], "size": [0, 8, 7], "uv": [22, 28]}
					]
				},
				{
					"name": "leg_front_right",
					"parent": "body",
					"pivot": [-3, 6, -4],
					"cubes": [
						{"origin": [-4.5, 0, -5.25], "size": [3, 7, 3], "uv": [0, 0]}
					]
				},
				{
					"name": "leg_front_left",
					"parent": "body",
					"pivot": [3, 6, -4],
					"cubes": [
						{"origin": [1.5, 0, -5.25], "size": [3, 7, 3], "uv": [16, 43]}
					]
				},
				{
					"name": "leg_back_right",
					"parent": "body",
					"pivot": [-3.25, 7, 3],
					"cubes": [
						{"origin": [-4.75, 0, 0.5], "size": [3, 8, 5], "uv": [36, 34]},
						{"origin": [-1.75, 0, -0.475], "size": [0, 1, 1], "inflate": 0.02, "pivot": [-1.75, 0.5, 0.025], "rotation": [0, -10, 0], "uv": [0, 9]},
						{"origin": [-3, 0, -0.5], "size": [0, 1, 1], "inflate": 0.02, "uv": [0, 1]},
						{"origin": [-4.25, 0, -0.475], "size": [0, 1, 1], "inflate": 0.02, "pivot": [-4.25, 0.5, 0.025], "rotation": [0, 10, 0], "uv": [0, 0]}
					]
				},
				{
					"name": "leg_back_left",
					"parent": "body",
					"pivot": [3.25, 7, 3],
					"cubes": [
						{"origin": [1.75, 0, 0.5], "size": [3, 8, 5], "uv": [0, 41]},
						{"origin": [4.25, 0, -0.475], "size": [0, 1, 1], "inflate": 0.02, "pivot": [4.25, 0.5, 0.025], "rotation": [0, -10, 0], "uv": [2, 9]},
						{"origin": [3, 0, -0.5], "size": [0, 1, 1], "inflate": 0.02, "uv": [9, 1]},
						{"origin": [1.75, 0, -0.475], "size": [0, 1, 1], "inflate": 0.02, "pivot": [1.75, 0.5, 0.025], "rotation": [0, 10, 0], "uv": [9, 0]}
					]
				},
				{
					"name": "tail",
					"parent": "body",
					"pivot": [0.5, 6.5, 6],
					"cubes": [
						{"origin": [-2, 4.5, 4], "size": [4, 4, 6], "uv": [29, 0]}
					]
				},
				{
					"name": "tail2",
					"parent": "tail",
					"pivot": [0.5, 6.5, 10],
					"cubes": [
						{"origin": [-1, 5, 9], "size": [2, 3, 4], "uv": [43, 12]}
					]
				}
			]
		}
	]
}