{
	"format_version": "1.8.0",
	"animations": {
		"animation.slowpoke.ground_idle": {
			"loop": true,
			"bones": {
				"tail": {
					"rotation": [37.5, 0, 0]
				},
				"tail2": {
					"rotation": [45, 0, 0]
				},
				"tail3": {
					"rotation": [50, 0, 0]
				}
			}
		},
		"animation.slowpoke.water_idle": {
			"loop": true,
			"bones": {
				"tail2": {
					"rotation": [10, 0, 0]
				},
				"tail3": {
					"rotation": [10, 0, 0]
				},
				"leftfrontleg": {
					"rotation": [-15, 0, -60]
				},
				"rightfrontleg": {
					"rotation": [-15, 0, 60]
				},
				"leftbackleg": {
					"rotation": [15, 0, -60]
				},
				"rightbackleg": {
					"rotation": [15, 0, 60]
				}
			}
		},
		"animation.slowpoke.water_swim": {
			"loop": true,
			"bones": {
				"tail2": {
					"rotation": [10, 0, 0]
				},
				"tail3": {
					"rotation": [10, 0, 0]
				},
				"leftfrontleg": {
					"rotation": [30, 0, -60]
				},
				"rightfrontleg": {
					"rotation": [30, 0, 60]
				},
				"leftbackleg": {
					"rotation": [45, 0, -60]
				},
				"rightbackleg": {
					"rotation": [45, 0, 60]
				}
			}
		}
	}
}