{
  "name": "Klawf",
  "nationalPokedexNumber": 950,
  "primaryType": "rock",
  "abilities": [
    "angershell",
    "shellarmor",
    "h:regenerator"
  ],
  "baseStats": {
    "hp": 70,
    "attack": 100,
    "defence": 115,
    "special_attack": 35,
    "special_defence": 55,
    "speed": 75
  },
  "catchRate": 120,
  "maleRatio": 0.5,
  "baseExperienceYield": 0,
  "baseFriendship": 50,
  "evYield": {
    "hp": 0,
    "attack": 0,
    "defence": 2,
    "special_attack": 0,
    "special_defence": 0,
    "speed": 0
  },
  "experienceGroup": "medium_fast",
  "eggCycles": 35,
  "eggGroups": [
    "water_3"
  ],
  "moves": [
    "1:rockthrow",
    "1:visegrip",
    "6:harden",
    "9:rocksmash",
    "13:rocktomb",
    "17:metalclaw",
    "21:protect",
    "24:rockblast",
    "29:xscissor",
    "33:swordsdance",
    "37:flail",
    "42:rockslide",
    "47:highhorsepower",
    "51:irondefense",
    "56:guillotine",
    "egg:ancientpower",
    "egg:crabhammer",
    "egg:endeavor",
    "egg:knockoff",
    "tm:bodyslam",
    "tm:brickbreak",
    "tm:bulldoze",
    "tm:dig",
    "tm:earthpower",
    "tm:endure",
    "tm:facade",
    "tm:fling",
    "tm:gigaimpact",
    "tm:helpinghand",
    "tm:hyperbeam",
    "tm:irondefense",
    "tm:metalclaw",
    "tm:mudshot",
    "tm:mudslap",
    "tm:powergem",
    "tm:protect",
    "tm:raindance",
    "tm:rest",
    "tm:reversal",
    "tm:rockblast",
    "tm:rockslide",
    "tm:rocktomb",
    "tm:sandstorm",
    "tm:scaryface",
    "tm:shadowclaw",
    "tm:sleeptalk",
    "tm:stealthrock",
    "tm:stompingtantrum",
    "tm:stoneedge",
    "tm:substitute",
    "tm:sunnyday",
    "tm:swordsdance",
    "tm:takedown",
    "tm:terablast",
    "tm:thief",
    "tm:trailblaze",
    "tm:xscissor",
    "tutor:block",
    "tutor:rocksmash",
    "tutor:rocktomb",
    "tutor:visegrip"
  ],
  "labels": [
    "gen9"
  ],
  "aspects": [],
  "height": 13,
  "weight": 790,
  "evolutions": [],
  "cannotDynamax": false,
  "pokedex": [
    "cobblemon.species.klawf.desc"
  ]
}