{
  "name": "Tandemaus",
  "nationalPokedexNumber": 924,
  "primaryType": "normal",
  "abilities": [
    "runaway",
    "pickup",
    "h:owntempo"
  ],
  "baseStats": {
    "hp": 50,
    "attack": 50,
    "defence": 45,
    "special_attack": 40,
    "special_defence": 45,
    "speed": 75
  },
  "catchRate": 150,
  "maleRatio": -1,
  "baseExperienceYield": 0,
  "baseFriendship": 50,
  "evYield": {
    "hp": 0,
    "attack": 0,
    "defence": 0,
    "special_attack": 0,
    "special_defence": 0,
    "speed": 1
  },
  "experienceGroup": "fast",
  "eggCycles": 10,
  "eggGroups": [
    "field",
    "fairy"
  ],
  "moves": [
    "1:babydolleyes",
    "1:pound",
    "5:echoedvoice",
    "8:helpinghand",
    "11:superfang",
    "14:doublehit",
    "18:bulletseed",
    "22:encore",
    "26:playrough",
    "30:hypervoice",
    "33:charm",
    "37:beatup",
    "41:copycat",
    "46:populationbomb",
    "egg:afteryou",
    "egg:batonpass",
    "egg:bite",
    "egg:feint",
    "egg:switcheroo",
    "egg:tickle",
    "tm:aerialace",
    "tm:agility",
    "tm:batonpass",
    "tm:bulletseed",
    "tm:charm",
    "tm:crunch",
    "tm:dig",
    "tm:encore",
    "tm:endure",
    "tm:facade",
    "tm:faketears",
    "tm:grassknot",
    "tm:helpinghand",
    "tm:hypervoice",
    "tm:lowkick",
    "tm:lowsweep",
    "tm:mudshot",
    "tm:mudslap",
    "tm:playrough",
    "tm:protect",
    "tm:raindance",
    "tm:rest",
    "tm:seedbomb",
    "tm:shadowclaw",
    "tm:sleeptalk",
    "tm:substitute",
    "tm:sunnyday",
    "tm:swift",
    "tm:takedown",
    "tm:taunt",
    "tm:terablast",
    "tm:thief",
    "tm:thunderwave",
    "tm:uturn",
    "tm:waterpulse"
  ],
  "labels": [
    "gen9"
  ],
  "aspects": [],
  "height": 3,
  "weight": 18,
  "evolutions": [
    {
      "id": "tandemaus_maushold",
      "variant": "level_up",
      "result": "maushold",
      "consumeHeldItem": false,
      "learnableMoves": [],
      "requirements": [
        {
          "variant": "level",
          "minLevel": 25
        }
      ]
    },
    {
      "id": "tandemaus_maushold",
      "variant": "level_up",
      "result": "maushold form=four",
      "consumeHeldItem": false,
      "learnableMoves": [],
      "requirements": [
        {
          "variant": "level",
          "minLevel": 25
        }
      ]
    }
  ],
  "cannotDynamax": false,
  "pokedex": [
    "cobblemon.species.tandemaus.desc"
  ]
}