{
  "name": "Beheeyem",
  "nationalPokedexNumber": 606,
  "primaryType": "psychic",
  "abilities": [
    "telepathy",
    "synchronize",
    "h:analytic"
  ],
  "baseStats": {
    "hp": 75,
    "attack": 75,
    "defence": 75,
    "special_attack": 125,
    "special_defence": 95,
    "speed": 40
  },
  "catchRate": 90,
  "maleRatio": 0.5,
  "shoulderMountable": false,
  "baseExperienceYield": 170,
  "experienceGroup": "medium_fast",
  "eggCycles": 20,
  "eggGroups": [
    "human_like"
  ],
  "moves": [
    "1:confusion",
    "1:growl",
    "1:healblock",
    "1:imprison",
    "1:miracleeye",
    "1:psychicterrain",
    "1:synchronoise",
    "1:teleport",
    "18:psybeam",
    "22:hiddenpower",
    "24:guardsplit",
    "24:powersplit",
    "29:simplebeam",
    "30:headbutt",
    "36:psychup",
    "36:zenheadbutt",
    "45:recover",
    "52:calmmind",
    "60:wonderroom",
    "68:psychic",
    "tm:agility",
    "tm:allyswitch",
    "tm:attract",
    "tm:calmmind",
    "tm:chargebeam",
    "tm:confide",
    "tm:cosmicpower",
    "tm:darkpulse",
    "tm:doubleteam",
    "tm:dreameater",
    "tm:echoedvoice",
    "tm:embargo",
    "tm:endure",
    "tm:energyball",
    "tm:facade",
    "tm:flash",
    "tm:flashcannon",
    "tm:frustration",
    "tm:futuresight",
    "tm:gigaimpact",
    "tm:guardswap",
    "tm:hiddenpower",
    "tm:hyperbeam",
    "tm:imprison",
    "tm:lightscreen",
    "tm:nastyplot",
    "tm:powerswap",
    "tm:protect",
    "tm:psychic",
    "tm:psychicterrain",
    "tm:psychup",
    "tm:psyshock",
    "tm:raindance",
    "tm:reflect",
    "tm:rest",
    "tm:return",
    "tm:rockslide",
    "tm:rocktomb",
    "tm:round",
    "tm:safeguard",
    "tm:screech",
    "tm:secretpower",
    "tm:shadowball",
    "tm:skillswap",
    "tm:sleeptalk",
    "tm:snore",
    "tm:steelwing",
    "tm:storedpower",
    "tm:substitute",
    "tm:swagger",
    "tm:thief",
    "tm:thunderbolt",
    "tm:thunderwave",
    "tm:toxic",
    "tm:triattack",
    "tm:trick",
    "tm:trickroom",
    "tm:uproar",
    "tm:wonderroom",
    "tm:zenheadbutt",
    "tutor:afteryou",
    "tutor:expandingforce",
    "tutor:gravity",
    "tutor:magiccoat",
    "tutor:meteorbeam",
    "tutor:painsplit",
    "tutor:recycle",
    "tutor:roleplay",
    "tutor:shockwave",
    "tutor:signalbeam",
    "tutor:snatch",
    "tutor:telekinesis"
  ],
  "labels": [
    "gen5"
  ],
  "pokedex": [
    "cobblemon.species.beheeyem.desc"
  ],
  "preEvolution": "elgyem",
  "evolutions": [],
  "baseScale": 1,
  "hitbox": {
    "width": 1,
    "height": 1,
    "fixed": false
  },
  "baseFriendship": 50,
  "evYield": {
    "hp": 0,
    "attack": 0,
    "defence": 0,
    "special_attack": 2,
    "special_defence": 0,
    "speed": 0
  },
  "height": 10,
  "weight": 345,
  "aspects": [],
  "cannotDynamax": false
}