{
  "name": "Cinccino",
  "nationalPokedexNumber": 573,
  "primaryType": "normal",
  "abilities": [
    "cutecharm",
    "technician",
    "h:skilllink"
  ],
  "baseStats": {
    "hp": 75,
    "attack": 95,
    "defence": 60,
    "special_attack": 65,
    "special_defence": 60,
    "speed": 115
  },
  "catchRate": 60,
  "maleRatio": 0.25,
  "shoulderMountable": false,
  "baseExperienceYield": 165,
  "experienceGroup": "fast",
  "eggCycles": 15,
  "eggGroups": [
    "field"
  ],
  "moves": [
    "1:afteryou",
    "1:babydolleyes",
    "1:bulletseed",
    "1:charm",
    "1:echoedvoice",
    "1:encore",
    "1:helpinghand",
    "1:hypervoice",
    "1:lastresort",
    "1:pound",
    "1:rockblast",
    "1:sing",
    "1:slam",
    "1:swift",
    "1:tailslap",
    "1:tickle",
    "tm:attract",
    "tm:bulletseed",
    "tm:calmmind",
    "tm:charm",
    "tm:confide",
    "tm:dazzlinggleam",
    "tm:dig",
    "tm:doubleteam",
    "tm:encore",
    "tm:endure",
    "tm:facade",
    "tm:faketears",
    "tm:fling",
    "tm:focusblast",
    "tm:frustration",
    "tm:gigaimpact",
    "tm:grassknot",
    "tm:gunkshot",
    "tm:helpinghand",
    "tm:hiddenpower",
    "tm:hyperbeam",
    "tm:hypervoice",
    "tm:irontail",
    "tm:lightscreen",
    "tm:playrough",
    "tm:protect",
    "tm:raindance",
    "tm:rest",
    "tm:retaliate",
    "tm:return",
    "tm:rockblast",
    "tm:round",
    "tm:safeguard",
    "tm:secretpower",
    "tm:seedbomb",
    "tm:sleeptalk",
    "tm:snore",
    "tm:substitute",
    "tm:sunnyday",
    "tm:swagger",
    "tm:swift",
    "tm:tailslap",
    "tm:thief",
    "tm:thunder",
    "tm:thunderbolt",
    "tm:thunderwave",
    "tm:toxic",
    "tm:uproar",
    "tm:uturn",
    "tm:workup",
    "tutor:aquatail",
    "tutor:covet",
    "tutor:knockoff",
    "tutor:laserfocus",
    "tutor:shockwave",
    "tutor:tripleaxel"
  ],
  "labels": [
    "gen5"
  ],
  "pokedex": [
    "cobblemon.species.cinccino.desc"
  ],
  "preEvolution": "minccino",
  "evolutions": [],
  "baseScale": 1,
  "hitbox": {
    "width": 1,
    "height": 1,
    "fixed": false
  },
  "baseFriendship": 50,
  "evYield": {
    "hp": 0,
    "attack": 0,
    "defence": 0,
    "special_attack": 0,
    "special_defence": 0,
    "speed": 2
  },
  "height": 5,
  "weight": 75,
  "aspects": [],
  "cannotDynamax": false
}