{
  "name": "Escavalier",
  "nationalPokedexNumber": 589,
  "primaryType": "bug",
  "secondaryType": "steel",
  "abilities": [
    "swarm",
    "shellarmor",
    "h:overcoat"
  ],
  "baseStats": {
    "hp": 70,
    "attack": 135,
    "defence": 105,
    "special_attack": 60,
    "special_defence": 105,
    "speed": 20
  },
  "catchRate": 75,
  "maleRatio": 0.5,
  "shoulderMountable": false,
  "baseExperienceYield": 173,
  "experienceGroup": "medium_fast",
  "eggCycles": 15,
  "eggGroups": [
    "bug"
  ],
  "moves": [
    "1:doubleedge",
    "1:endure",
    "1:fellstinger",
    "1:flail",
    "1:furycutter",
    "1:leer",
    "1:peck",
    "1:quickguard",
    "1:scaryface",
    "1:takedown",
    "1:twineedle",
    "12:falseswipe",
    "16:acidspray",
    "16:furyattack",
    "20:headbutt",
    "24:reversal",
    "28:irondefense",
    "32:slash",
    "32:xscissor",
    "36:swordsdance",
    "40:ironhead",
    "44:bugbuzz",
    "48:gigaimpact",
    "52:metalburst",
    "tm:aerialace",
    "tm:agility",
    "tm:attract",
    "tm:brutalswing",
    "tm:bugbuzz",
    "tm:closecombat",
    "tm:confide",
    "tm:cut",
    "tm:doubleteam",
    "tm:drillrun",
    "tm:encore",
    "tm:endure",
    "tm:energyball",
    "tm:facade",
    "tm:falseswipe",
    "tm:focusblast",
    "tm:frustration",
    "tm:gigadrain",
    "tm:gigaimpact",
    "tm:hiddenpower",
    "tm:hyperbeam",
    "tm:infestation",
    "tm:irondefense",
    "tm:ironhead",
    "tm:megahorn",
    "tm:poisonjab",
    "tm:protect",
    "tm:raindance",
    "tm:razorshell",
    "tm:rest",
    "tm:return",
    "tm:revenge",
    "tm:reversal",
    "tm:rocksmash",
    "tm:round",
    "tm:scaryface",
    "tm:screech",
    "tm:secretpower",
    "tm:sleeptalk",
    "tm:smartstrike",
    "tm:snore",
    "tm:strugglebug",
    "tm:substitute",
    "tm:swagger",
    "tm:swordsdance",
    "tm:taunt",
    "tm:toxic",
    "tm:xscissor",
    "tutor:bugbite",
    "tutor:knockoff",
    "tutor:laserfocus",
    "tutor:signalbeam",
    "tutor:steelbeam"
  ],
  "labels": [
    "gen5"
  ],
  "pokedex": [
    "cobblemon.species.escavalier.desc"
  ],
  "preEvolution": "karrablast",
  "evolutions": [],
  "baseScale": 1,
  "hitbox": {
    "width": 1,
    "height": 1,
    "fixed": false
  },
  "baseFriendship": 50,
  "evYield": {
    "hp": 0,
    "attack": 2,
    "defence": 0,
    "special_attack": 0,
    "special_defence": 0,
    "speed": 0
  },
  "height": 10,
  "weight": 330,
  "aspects": [],
  "cannotDynamax": false
}