{
  "name": "Herdier",
  "nationalPokedexNumber": 507,
  "primaryType": "normal",
  "abilities": [
    "intimidate",
    "sandrush",
    "h:scrappy"
  ],
  "baseStats": {
    "hp": 65,
    "attack": 80,
    "defence": 65,
    "special_attack": 35,
    "special_defence": 65,
    "speed": 60
  },
  "catchRate": 120,
  "maleRatio": 0.5,
  "shoulderMountable": false,
  "baseExperienceYield": 130,
  "experienceGroup": "medium_slow",
  "eggCycles": 15,
  "eggGroups": [
    "field"
  ],
  "moves": [
    "1:bite",
    "1:leer",
    "1:odorsleuth",
    "1:tackle",
    "1:workup",
    "12:retaliate",
    "19:babydolleyes",
    "24:playrough",
    "30:crunch",
    "36:takedown",
    "42:helpinghand",
    "48:reversal",
    "54:roar",
    "60:lastresort",
    "66:gigaimpact",
    "tm:aerialace",
    "tm:attract",
    "tm:charm",
    "tm:confide",
    "tm:crunch",
    "tm:dig",
    "tm:doubleteam",
    "tm:endure",
    "tm:facade",
    "tm:firefang",
    "tm:frustration",
    "tm:gigaimpact",
    "tm:helpinghand",
    "tm:hiddenpower",
    "tm:hypervoice",
    "tm:icefang",
    "tm:payback",
    "tm:playrough",
    "tm:protect",
    "tm:psychicfangs",
    "tm:raindance",
    "tm:rest",
    "tm:retaliate",
    "tm:return",
    "tm:reversal",
    "tm:rocksmash",
    "tm:rocktomb",
    "tm:round",
    "tm:secretpower",
    "tm:shadowball",
    "tm:sleeptalk",
    "tm:snarl",
    "tm:snore",
    "tm:strength",
    "tm:substitute",
    "tm:sunnyday",
    "tm:surf",
    "tm:swagger",
    "tm:thunderbolt",
    "tm:thunderfang",
    "tm:thunderwave",
    "tm:toxic",
    "tm:uproar",
    "tm:wildcharge",
    "tm:workup",
    "tutor:afteryou",
    "tutor:covet",
    "tutor:shockwave"
  ],
  "labels": [
    "gen5"
  ],
  "pokedex": [
    "cobblemon.species.herdier.desc"
  ],
  "preEvolution": "lillipup",
  "evolutions": [
    {
      "id": "herdier_stoutland",
      "variant": "level_up",
      "result": "stoutland",
      "consumeHeldItem": false,
      "learnableMoves": [],
      "requirements": [
        {
          "variant": "level",
          "minLevel": 32
        }
      ]
    }
  ],
  "baseScale": 1,
  "hitbox": {
    "width": 1,
    "height": 1,
    "fixed": false
  },
  "baseFriendship": 50,
  "evYield": {
    "hp": 0,
    "attack": 2,
    "defence": 0,
    "special_attack": 0,
    "special_defence": 0,
    "speed": 0
  },
  "height": 9,
  "weight": 147,
  "aspects": [],
  "cannotDynamax": false
}