{
  "name": "Servine",
  "nationalPokedexNumber": 496,
  "primaryType": "grass",
  "abilities": [
    "overgrow",
    "h:contrary"
  ],
  "baseStats": {
    "hp": 60,
    "attack": 60,
    "defence": 75,
    "special_attack": 60,
    "special_defence": 75,
    "speed": 83
  },
  "catchRate": 45,
  "maleRatio": 0.875,
  "shoulderMountable": false,
  "baseExperienceYield": 145,
  "experienceGroup": "medium_slow",
  "eggCycles": 20,
  "eggGroups": [
    "field",
    "grass"
  ],
  "moves": [
    "1:leer",
    "1:tackle",
    "1:vinewhip",
    "1:wrap",
    "13:growth",
    "16:leaftornado",
    "20:leechseed",
    "24:megadrain",
    "28:slam",
    "32:leafblade",
    "36:coil",
    "40:gigadrain",
    "44:wringout",
    "48:gastroacid",
    "52:leafstorm",
    "tm:aerialace",
    "tm:attract",
    "tm:calmmind",
    "tm:confide",
    "tm:cut",
    "tm:doubleteam",
    "tm:energyball",
    "tm:facade",
    "tm:flash",
    "tm:frustration",
    "tm:grassknot",
    "tm:hiddenpower",
    "tm:lightscreen",
    "tm:naturepower",
    "tm:protect",
    "tm:reflect",
    "tm:rest",
    "tm:return",
    "tm:round",
    "tm:safeguard",
    "tm:secretpower",
    "tm:sleeptalk",
    "tm:solarbeam",
    "tm:substitute",
    "tm:sunnyday",
    "tm:swagger",
    "tm:swordsdance",
    "tm:taunt",
    "tm:torment",
    "tm:toxic",
    "tm:workup",
    "tutor:aquatail",
    "tutor:bind",
    "tutor:defog",
    "tutor:gastroacid",
    "tutor:gigadrain",
    "tutor:grasspledge",
    "tutor:irontail",
    "tutor:knockoff",
    "tutor:seedbomb",
    "tutor:snatch",
    "tutor:snore",
    "tutor:synthesis",
    "tutor:worryseed"
  ],
  "labels": [
    "gen5"
  ],
  "pokedex": [
    "cobblemon.species.servine.desc"
  ],
  "preEvolution": "snivy",
  "evolutions": [
    {
      "id": "servine_serperior",
      "variant": "level_up",
      "result": "serperior",
      "consumeHeldItem": false,
      "learnableMoves": [],
      "requirements": [
        {
          "variant": "level",
          "minLevel": 36
        }
      ]
    }
  ],
  "baseScale": 1,
  "hitbox": {
    "width": 1,
    "height": 1,
    "fixed": false
  },
  "baseFriendship": 70,
  "evYield": {
    "hp": 0,
    "attack": 0,
    "defence": 0,
    "special_attack": 0,
    "special_defence": 0,
    "speed": 2
  },
  "height": 8,
  "weight": 160,
  "aspects": [],
  "cannotDynamax": false
}