{
  "name": "Tirtouga",
  "nationalPokedexNumber": 564,
  "primaryType": "water",
  "secondaryType": "rock",
  "abilities": [
    "solidrock",
    "sturdy",
    "h:swiftswim"
  ],
  "baseStats": {
    "hp": 54,
    "attack": 78,
    "defence": 103,
    "special_attack": 53,
    "special_defence": 45,
    "speed": 22
  },
  "catchRate": 45,
  "maleRatio": 0.875,
  "shoulderMountable": false,
  "baseExperienceYield": 71,
  "experienceGroup": "medium_fast",
  "eggCycles": 30,
  "eggGroups": [
    "water_1",
    "water_3"
  ],
  "moves": [
    "1:bide",
    "1:watergun",
    "1:withdraw",
    "3:protect",
    "6:aquajet",
    "9:smackdown",
    "12:ancientpower",
    "15:bite",
    "18:wideguard",
    "21:brine",
    "24:rockslide",
    "27:crunch",
    "30:curse",
    "33:irondefense",
    "36:aquatail",
    "39:raindance",
    "42:hydropump",
    "45:shellsmash",
    "egg:bide",
    "egg:block",
    "egg:flail",
    "egg:knockoff",
    "egg:rockthrow",
    "egg:rollout",
    "egg:slam",
    "egg:waterpulse",
    "tm:attract",
    "tm:blizzard",
    "tm:bodyslam",
    "tm:brine",
    "tm:bulldoze",
    "tm:confide",
    "tm:crunch",
    "tm:dig",
    "tm:dive",
    "tm:doubleteam",
    "tm:earthpower",
    "tm:earthquake",
    "tm:endure",
    "tm:facade",
    "tm:frustration",
    "tm:guardswap",
    "tm:hiddenpower",
    "tm:hydropump",
    "tm:icebeam",
    "tm:icywind",
    "tm:irondefense",
    "tm:irontail",
    "tm:liquidation",
    "tm:muddywater",
    "tm:mudshot",
    "tm:protect",
    "tm:raindance",
    "tm:rest",
    "tm:return",
    "tm:rockblast",
    "tm:rockpolish",
    "tm:rockslide",
    "tm:rocksmash",
    "tm:rocktomb",
    "tm:round",
    "tm:sandstorm",
    "tm:scald",
    "tm:secretpower",
    "tm:sleeptalk",
    "tm:snore",
    "tm:stealthrock",
    "tm:stoneedge",
    "tm:strength",
    "tm:substitute",
    "tm:surf",
    "tm:swagger",
    "tm:toxic",
    "tm:waterfall",
    "tm:whirlpool",
    "tm:zenheadbutt",
    "tutor:meteorbeam"
  ],
  "labels": [
    "gen5"
  ],
  "pokedex": [
    "cobblemon.species.tirtouga.desc"
  ],
  "evolutions": [
    {
      "id": "tirtouga_carracosta",
      "variant": "level_up",
      "result": "carracosta",
      "consumeHeldItem": false,
      "learnableMoves": [],
      "requirements": [
        {
          "variant": "level",
          "minLevel": 37
        }
      ]
    }
  ],
  "baseScale": 1,
  "hitbox": {
    "width": 1,
    "height": 1,
    "fixed": false
  },
  "baseFriendship": 50,
  "evYield": {
    "hp": 0,
    "attack": 0,
    "defence": 1,
    "special_attack": 0,
    "special_defence": 0,
    "speed": 0
  },
  "height": 7,
  "weight": 165,
  "aspects": [],
  "cannotDynamax": false
}