{
  "name": "Vanilluxe",
  "nationalPokedexNumber": 584,
  "primaryType": "ice",
  "abilities": [
    "icebody",
    "snowwarning",
    "h:weakarmor"
  ],
  "baseStats": {
    "hp": 71,
    "attack": 95,
    "defence": 85,
    "special_attack": 110,
    "special_defence": 95,
    "speed": 79
  },
  "catchRate": 45,
  "maleRatio": 0.5,
  "shoulderMountable": false,
  "baseExperienceYield": 268,
  "experienceGroup": "slow",
  "eggCycles": 20,
  "eggGroups": [
    "mineral"
  ],
  "moves": [
    "1:astonish",
    "1:freezedry",
    "1:harden",
    "1:iciclecrash",
    "1:mist",
    "1:taunt",
    "1:weatherball",
    "12:icywind",
    "16:avalanche",
    "20:hail",
    "24:iciclespear",
    "26:mirrorshot",
    "28:uproar",
    "32:acidarmor",
    "38:mirrorcoat",
    "44:icebeam",
    "52:blizzard",
    "60:sheercold",
    "tm:allyswitch",
    "tm:attract",
    "tm:avalanche",
    "tm:beatup",
    "tm:blizzard",
    "tm:confide",
    "tm:doubleteam",
    "tm:endure",
    "tm:explosion",
    "tm:facade",
    "tm:flashcannon",
    "tm:frostbreath",
    "tm:frustration",
    "tm:gigaimpact",
    "tm:hail",
    "tm:hiddenpower",
    "tm:hyperbeam",
    "tm:hypervoice",
    "tm:icebeam",
    "tm:iciclespear",
    "tm:icywind",
    "tm:imprison",
    "tm:irondefense",
    "tm:lightscreen",
    "tm:protect",
    "tm:raindance",
    "tm:rest",
    "tm:return",
    "tm:round",
    "tm:secretpower",
    "tm:selfdestruct",
    "tm:sleeptalk",
    "tm:snore",
    "tm:substitute",
    "tm:swagger",
    "tm:taunt",
    "tm:toxic",
    "tm:uproar",
    "tm:weatherball",
    "tutor:magiccoat",
    "tutor:magnetrise",
    "tutor:signalbeam",
    "tutor:waterpulse"
  ],
  "labels": [
    "gen5"
  ],
  "pokedex": [
    "cobblemon.species.vanilluxe.desc"
  ],
  "preEvolution": "vanillish",
  "evolutions": [],
  "baseScale": 1,
  "hitbox": {
    "width": 1,
    "height": 1,
    "fixed": false
  },
  "baseFriendship": 50,
  "evYield": {
    "hp": 0,
    "attack": 0,
    "defence": 0,
    "special_attack": 3,
    "special_defence": 0,
    "speed": 0
  },
  "height": 13,
  "weight": 575,
  "aspects": [],
  "cannotDynamax": false
}