{
  "implemented": true,
  "name": "Buneary",
  "nationalPokedexNumber": 427,
  "primaryType": "normal",
  "abilities": [
    "runaway",
    "klutz",
    "h:limber"
  ],
  "baseStats": {
    "hp": 55,
    "attack": 66,
    "defence": 44,
    "special_attack": 44,
    "special_defence": 56,
    "speed": 85
  },
  "catchRate": 190,
  "maleRatio": 0.5,
  "shoulderMountable": false,
  "baseExperienceYield": 70,
  "experienceGroup": "medium_fast",
  "eggCycles": 20,
  "eggGroups": [
    "field",
    "human_like"
  ],
  "drops": {
    "amount": "3",
    "entries": [
      {
        "item": "minecraft:carrot",
        "percentage": 50
      },
      {
        "item": "minecraft:rabbit_hide",
        "percentage": 50
      },
      {
        "item": "minecraft:rabbit_foot",
        "percentage": 5
      }
    ]
  },
  "moves": [
    "1:foresight",
    "1:frustration",
    "1:pound",
    "1:splash",
    "4:defensecurl",
    "8:babydolleyes",
    "12:afteryou",
    "16:quickattack",
    "20:doublekick",
    "23:jumpkick",
    "24:charm",
    "28:batonpass",
    "32:headbutt",
    "36:agility",
    "36:dizzypunch",
    "40:entrainment",
    "44:flatter",
    "48:bounce",
    "52:healingwish",
    "egg:circlethrow",
    "egg:copycat",
    "egg:doublehit",
    "egg:fakeout",
    "egg:flail",
    "egg:focuspunch",
    "egg:mudsport",
    "egg:poweruppunch",
    "egg:skyuppercut",
    "egg:sweetkiss",
    "egg:switcheroo",
    "egg:teeterdance",
    "tm:agility",
    "tm:assurance",
    "tm:attract",
    "tm:batonpass",
    "tm:bounce",
    "tm:captivate",
    "tm:chargebeam",
    "tm:charm",
    "tm:confide",
    "tm:cosmicpower",
    "tm:cut",
    "tm:dig",
    "tm:doubleteam",
    "tm:drainpunch",
    "tm:encore",
    "tm:endure",
    "tm:facade",
    "tm:faketears",
    "tm:firepunch",
    "tm:fling",
    "tm:frustration",
    "tm:grassknot",
    "tm:helpinghand",
    "tm:hiddenpower",
    "tm:hypervoice",
    "tm:icebeam",
    "tm:icepunch",
    "tm:irontail",
    "tm:lowkick",
    "tm:lowsweep",
    "tm:megakick",
    "tm:megapunch",
    "tm:naturalgift",
    "tm:payback",
    "tm:playrough",
    "tm:protect",
    "tm:raindance",
    "tm:rest",
    "tm:retaliate",
    "tm:return",
    "tm:rocksmash",
    "tm:round",
    "tm:secretpower",
    "tm:shadowball",
    "tm:sleeptalk",
    "tm:snore",
    "tm:solarbeam",
    "tm:substitute",
    "tm:sunnyday",
    "tm:swagger",
    "tm:swift",
    "tm:thunderbolt",
    "tm:thunderpunch",
    "tm:thunderwave",
    "tm:toxic",
    "tm:uproar",
    "tm:workup",
    "tutor:covet",
    "tutor:endeavor",
    "tutor:healbell",
    "tutor:lastresort",
    "tutor:magiccoat",
    "tutor:mudslap",
    "tutor:shockwave",
    "tutor:tripleaxel",
    "tutor:waterpulse"
  ],
  "labels": [
    "gen4"
  ],
  "pokedex": [
    "cobblemon.species.buneary.desc"
  ],
  "evolutions": [
    {
      "id": "buneary_lopunny",
      "variant": "level_up",
      "result": "lopunny",
      "consumeHeldItem": false,
      "learnableMoves": [],
      "requirements": [
        {
          "variant": "friendship",
          "amount": 160
        }
      ]
    }
  ],
  "baseScale": 0.5,
  "hitbox": {
    "width": 0.8,
    "height": 1.5,
    "fixed": false
  },
  "baseFriendship": 0,
  "evYield": {
    "hp": 0,
    "attack": 0,
    "defence": 0,
    "special_attack": 0,
    "special_defence": 0,
    "speed": 1
  },
  "height": 4,
  "weight": 55,
  "aspects": [],
  "cannotDynamax": false
}