{
  "name": "Cherubi",
  "nationalPokedexNumber": 420,
  "primaryType": "grass",
  "abilities": [
    "chlorophyll"
  ],
  "baseStats": {
    "hp": 45,
    "attack": 35,
    "defence": 45,
    "special_attack": 62,
    "special_defence": 53,
    "speed": 35
  },
  "catchRate": 190,
  "maleRatio": 0.5,
  "shoulderMountable": false,
  "baseExperienceYield": 55,
  "experienceGroup": "medium_fast",
  "eggCycles": 20,
  "eggGroups": [
    "fairy",
    "grass"
  ],
  "moves": [
    "1:morningsun",
    "1:tackle",
    "5:leafage",
    "10:growth",
    "15:helpinghand",
    "20:magicalleaf",
    "26:leechseed",
    "30:takedown",
    "35:petalblizzard",
    "40:luckychant",
    "40:worryseed",
    "45:solarbeam",
    "egg:aromatherapy",
    "egg:defensecurl",
    "egg:flowershield",
    "egg:grasswhistle",
    "egg:healingwish",
    "egg:healpulse",
    "egg:naturalgift",
    "egg:naturepower",
    "egg:razorleaf",
    "egg:rollout",
    "egg:sweetscent",
    "egg:tickle",
    "tm:attract",
    "tm:bulletseed",
    "tm:captivate",
    "tm:confide",
    "tm:dazzlinggleam",
    "tm:doubleteam",
    "tm:drainingkiss",
    "tm:endure",
    "tm:energyball",
    "tm:facade",
    "tm:flash",
    "tm:frustration",
    "tm:gigadrain",
    "tm:grassknot",
    "tm:grassyterrain",
    "tm:helpinghand",
    "tm:hiddenpower",
    "tm:magicalleaf",
    "tm:pollenpuff",
    "tm:protect",
    "tm:rest",
    "tm:return",
    "tm:round",
    "tm:safeguard",
    "tm:secretpower",
    "tm:seedbomb",
    "tm:sleeptalk",
    "tm:snore",
    "tm:solarbeam",
    "tm:substitute",
    "tm:sunnyday",
    "tm:swagger",
    "tm:swordsdance",
    "tm:toxic",
    "tm:weatherball",
    "tutor:grassyglide",
    "tutor:synthesis"
  ],
  "labels": [
    "gen4"
  ],
  "pokedex": [
    "cobblemon.species.cherubi.desc"
  ],
  "evolutions": [
    {
      "id": "cherubi_cherrim",
      "variant": "level_up",
      "result": "cherrim",
      "consumeHeldItem": false,
      "learnableMoves": [
        "sunnyday"
      ],
      "requirements": [
        {
          "variant": "level",
          "minLevel": 25
        }
      ]
    }
  ],
  "baseScale": 1,
  "hitbox": {
    "width": 1,
    "height": 1,
    "fixed": false
  },
  "baseFriendship": 50,
  "evYield": {
    "hp": 0,
    "attack": 0,
    "defence": 0,
    "special_attack": 1,
    "special_defence": 0,
    "speed": 0
  },
  "height": 4,
  "weight": 33,
  "aspects": [],
  "cannotDynamax": false
}