{
  "name": "Cranidos",
  "nationalPokedexNumber": 408,
  "primaryType": "rock",
  "abilities": [
    "moldbreaker",
    "h:sheerforce"
  ],
  "baseStats": {
    "hp": 67,
    "attack": 125,
    "defence": 40,
    "special_attack": 30,
    "special_defence": 30,
    "speed": 58
  },
  "catchRate": 45,
  "maleRatio": 0.875,
  "shoulderMountable": false,
  "baseExperienceYield": 70,
  "experienceGroup": "erratic",
  "eggCycles": 30,
  "eggGroups": [
    "monster"
  ],
  "moves": [
    "1:headbutt",
    "1:leer",
    "6:focusenergy",
    "10:pursuit",
    "15:takedown",
    "19:scaryface",
    "24:assurance",
    "28:chipaway",
    "33:ancientpower",
    "37:zenheadbutt",
    "42:screech",
    "46:headsmash",
    "egg:crunch",
    "egg:curse",
    "egg:doubleedge",
    "egg:hammerarm",
    "egg:ironhead",
    "egg:irontail",
    "egg:leer",
    "egg:slam",
    "egg:stomp",
    "egg:thrash",
    "egg:whirlwind",
    "tm:attract",
    "tm:blizzard",
    "tm:bulldoze",
    "tm:captivate",
    "tm:confide",
    "tm:dig",
    "tm:doubleteam",
    "tm:earthquake",
    "tm:endure",
    "tm:facade",
    "tm:fireblast",
    "tm:flamethrower",
    "tm:fling",
    "tm:frustration",
    "tm:hiddenpower",
    "tm:icebeam",
    "tm:incinerate",
    "tm:naturalgift",
    "tm:payback",
    "tm:poweruppunch",
    "tm:protect",
    "tm:raindance",
    "tm:rest",
    "tm:return",
    "tm:roar",
    "tm:rockclimb",
    "tm:rockpolish",
    "tm:rockslide",
    "tm:rocksmash",
    "tm:rocktomb",
    "tm:round",
    "tm:sandstorm",
    "tm:secretpower",
    "tm:sleeptalk",
    "tm:smackdown",
    "tm:stoneedge",
    "tm:strength",
    "tm:substitute",
    "tm:sunnyday",
    "tm:swagger",
    "tm:swordsdance",
    "tm:thief",
    "tm:thunder",
    "tm:thunderbolt",
    "tm:toxic",
    "tutor:dragonpulse",
    "tutor:earthpower",
    "tutor:endeavor",
    "tutor:firepunch",
    "tutor:ironhead",
    "tutor:irontail",
    "tutor:mudslap",
    "tutor:shockwave",
    "tutor:snore",
    "tutor:spite",
    "tutor:stealthrock",
    "tutor:superpower",
    "tutor:thunderpunch",
    "tutor:uproar",
    "tutor:zenheadbutt"
  ],
  "labels": [
    "gen4"
  ],
  "pokedex": [
    "cobblemon.species.cranidos.desc"
  ],
  "evolutions": [
    {
      "id": "cranidos_rampardos",
      "variant": "level_up",
      "result": "rampardos",
      "consumeHeldItem": false,
      "learnableMoves": [],
      "requirements": [
        {
          "variant": "level",
          "minLevel": 30
        }
      ]
    }
  ],
  "baseScale": 1,
  "hitbox": {
    "width": 1,
    "height": 1,
    "fixed": false
  },
  "baseFriendship": 70,
  "evYield": {
    "hp": 0,
    "attack": 1,
    "defence": 0,
    "special_attack": 0,
    "special_defence": 0,
    "speed": 0
  },
  "height": 9,
  "weight": 315,
  "aspects": [],
  "cannotDynamax": false
}