{
  "name": "Grotle",
  "nationalPokedexNumber": 388,
  "primaryType": "grass",
  "abilities": [
    "overgrow",
    "h:shellarmor"
  ],
  "baseStats": {
    "hp": 75,
    "attack": 89,
    "defence": 85,
    "special_attack": 55,
    "special_defence": 65,
    "speed": 36
  },
  "catchRate": 45,
  "maleRatio": 0.875,
  "shoulderMountable": false,
  "baseExperienceYield": 142,
  "experienceGroup": "medium_slow",
  "eggCycles": 20,
  "eggGroups": [
    "monster",
    "grass"
  ],
  "moves": [
    "1:absorb",
    "1:tackle",
    "1:withdraw",
    "13:razorleaf",
    "17:curse",
    "22:bite",
    "27:megadrain",
    "32:leechseed",
    "37:synthesis",
    "42:crunch",
    "47:gigadrain",
    "52:leafstorm",
    "tm:attract",
    "tm:bulletseed",
    "tm:captivate",
    "tm:confide",
    "tm:cut",
    "tm:doubleteam",
    "tm:endure",
    "tm:energyball",
    "tm:facade",
    "tm:flash",
    "tm:frustration",
    "tm:grassknot",
    "tm:hiddenpower",
    "tm:lightscreen",
    "tm:naturalgift",
    "tm:naturepower",
    "tm:protect",
    "tm:reflect",
    "tm:rest",
    "tm:return",
    "tm:rockclimb",
    "tm:rocksmash",
    "tm:round",
    "tm:safeguard",
    "tm:secretpower",
    "tm:sleeptalk",
    "tm:solarbeam",
    "tm:strength",
    "tm:substitute",
    "tm:sunnyday",
    "tm:swagger",
    "tm:swordsdance",
    "tm:toxic",
    "tm:workup",
    "tutor:earthpower",
    "tutor:gigadrain",
    "tutor:grasspledge",
    "tutor:headbutt",
    "tutor:irontail",
    "tutor:mudslap",
    "tutor:seedbomb",
    "tutor:snore",
    "tutor:stealthrock",
    "tutor:superpower",
    "tutor:synthesis",
    "tutor:worryseed"
  ],
  "labels": [
    "gen4"
  ],
  "pokedex": [
    "cobblemon.species.grotle.desc"
  ],
  "preEvolution": "turtwig",
  "evolutions": [
    {
      "id": "grotle_torterra",
      "variant": "level_up",
      "result": "torterra",
      "consumeHeldItem": false,
      "learnableMoves": [],
      "requirements": [
        {
          "variant": "level",
          "minLevel": 32
        }
      ]
    }
  ],
  "baseScale": 1,
  "hitbox": {
    "width": 1,
    "height": 1,
    "fixed": false
  },
  "baseFriendship": 70,
  "evYield": {
    "hp": 0,
    "attack": 1,
    "defence": 1,
    "special_attack": 0,
    "special_defence": 0,
    "speed": 0
  },
  "height": 11,
  "weight": 970,
  "aspects": [],
  "cannotDynamax": false
}