{
  "implemented": true,
  "name": "Lickilicky",
  "nationalPokedexNumber": 463,
  "primaryType": "normal",
  "abilities": [
    "owntempo",
    "oblivious",
    "h:cloudnine"
  ],
  "baseStats": {
    "hp": 110,
    "attack": 85,
    "defence": 95,
    "special_attack": 80,
    "special_defence": 95,
    "speed": 50
  },
  "catchRate": 30,
  "maleRatio": 0.5,
  "shoulderMountable": false,
  "baseExperienceYield": 180,
  "experienceGroup": "medium_fast",
  "eggCycles": 20,
  "eggGroups": [
    "monster"
  ],
  "moves": [
    "1:defensecurl",
    "1:lick",
    "1:rollout",
    "1:supersonic",
    "1:wringout",
    "18:wrap",
    "24:disable",
    "30:stomp",
    "36:knockoff",
    "37:chipaway",
    "41:mefirst",
    "42:screech",
    "45:refresh",
    "48:slam",
    "54:powerwhip",
    "60:bellydrum",
    "tm:amnesia",
    "tm:attract",
    "tm:blizzard",
    "tm:bodypress",
    "tm:bodyslam",
    "tm:brickbreak",
    "tm:brutalswing",
    "tm:bulldoze",
    "tm:captivate",
    "tm:confide",
    "tm:cut",
    "tm:dig",
    "tm:doubleteam",
    "tm:dragontail",
    "tm:dreameater",
    "tm:earthquake",
    "tm:endure",
    "tm:explosion",
    "tm:facade",
    "tm:fireblast",
    "tm:firepunch",
    "tm:flamethrower",
    "tm:fling",
    "tm:focusblast",
    "tm:frustration",
    "tm:gigaimpact",
    "tm:gyroball",
    "tm:helpinghand",
    "tm:hiddenpower",
    "tm:hydropump",
    "tm:hyperbeam",
    "tm:icebeam",
    "tm:icepunch",
    "tm:icywind",
    "tm:incinerate",
    "tm:irontail",
    "tm:megakick",
    "tm:megapunch",
    "tm:muddywater",
    "tm:naturalgift",
    "tm:poweruppunch",
    "tm:powerwhip",
    "tm:protect",
    "tm:psychup",
    "tm:raindance",
    "tm:rest",
    "tm:retaliate",
    "tm:return",
    "tm:rockclimb",
    "tm:rockslide",
    "tm:rocksmash",
    "tm:rocktomb",
    "tm:round",
    "tm:sandstorm",
    "tm:screech",
    "tm:secretpower",
    "tm:selfdestruct",
    "tm:shadowball",
    "tm:sleeptalk",
    "tm:snore",
    "tm:solarbeam",
    "tm:stompingtantrum",
    "tm:strength",
    "tm:substitute",
    "tm:sunnyday",
    "tm:surf",
    "tm:swagger",
    "tm:swordsdance",
    "tm:thief",
    "tm:thunder",
    "tm:thunderbolt",
    "tm:thunderpunch",
    "tm:toxic",
    "tm:whirlpool",
    "tm:workup",
    "tm:zenheadbutt",
    "tutor:aquatail",
    "tutor:bind",
    "tutor:block",
    "tutor:focuspunch",
    "tutor:headbutt",
    "tutor:mudslap",
    "tutor:shockwave",
    "tutor:steelroller",
    "tutor:terrainpulse",
    "tutor:waterpulse"
  ],
  "labels": [
    "gen4"
  ],
  "pokedex": [
    "cobblemon.species.lickilicky.desc"
  ],
  "preEvolution": "lickitung",
  "evolutions": [],
  "baseScale": 1.1,
  "hitbox": {
    "width": 0.9,
    "height": 1.7,
    "fixed": false
  },
  "baseFriendship": 50,
  "evYield": {
    "hp": 3,
    "attack": 0,
    "defence": 0,
    "special_attack": 0,
    "special_defence": 0,
    "speed": 0
  },
  "height": 17,
  "weight": 1400,
  "aspects": [],
  "cannotDynamax": false
}