{
  "name": "Rotom",
  "nationalPokedexNumber": 479,
  "primaryType": "electric",
  "secondaryType": "ghost",
  "abilities": [
    "levitate"
  ],
  "baseStats": {
    "hp": 50,
    "attack": 50,
    "defence": 77,
    "special_attack": 95,
    "special_defence": 77,
    "speed": 91
  },
  "catchRate": 45,
  "maleRatio": -1,
  "shoulderMountable": false,
  "forms": [
    {
      "name": "Heat",
      "primaryType": "electric",
      "secondaryType": "fire",
      "abilities": [
        "levitate"
      ],
      "baseStats": {
        "hp": 50,
        "attack": 65,
        "defence": 107,
        "special_attack": 105,
        "special_defence": 107,
        "speed": 86
      },
      "catchRate": 45,
      "maleRatio": -1,
      "baseExperienceYield": 182,
      "baseFriendship": 50,
      "evYield": {
        "hp": 0,
        "attack": 0,
        "defence": 0,
        "special_attack": 1,
        "special_defence": 0,
        "speed": 1
      },
      "experienceGroup": "medium_fast",
      "eggCycles": 20,
      "eggGroups": [
        "amorphous"
      ],
      "moves": [
        "1:overheat"
      ],
      "labels": [
        "gen4"
      ],
      "aspects": [
        "heat"
      ],
      "height": 3,
      "weight": 3,
      "evolutions": [],
      "cannotDynamax": false,
      "battleOnly": false
    },
    {
      "name": "Wash",
      "primaryType": "electric",
      "secondaryType": "water",
      "abilities": [
        "levitate"
      ],
      "baseStats": {
        "hp": 50,
        "attack": 65,
        "defence": 107,
        "special_attack": 105,
        "special_defence": 107,
        "speed": 86
      },
      "catchRate": 45,
      "maleRatio": -1,
      "baseExperienceYield": 182,
      "baseFriendship": 50,
      "evYield": {
        "hp": 0,
        "attack": 0,
        "defence": 0,
        "special_attack": 1,
        "special_defence": 0,
        "speed": 1
      },
      "experienceGroup": "medium_fast",
      "eggCycles": 20,
      "eggGroups": [
        "amorphous"
      ],
      "moves": [
        "1:hydropump"
      ],
      "labels": [
        "gen4"
      ],
      "aspects": [
        "wash"
      ],
      "height": 3,
      "weight": 3,
      "evolutions": [],
      "cannotDynamax": false,
      "battleOnly": false
    },
    {
      "name": "Frost",
      "primaryType": "electric",
      "secondaryType": "ice",
      "abilities": [
        "levitate"
      ],
      "baseStats": {
        "hp": 50,
        "attack": 65,
        "defence": 107,
        "special_attack": 105,
        "special_defence": 107,
        "speed": 86
      },
      "catchRate": 45,
      "maleRatio": -1,
      "baseExperienceYield": 182,
      "baseFriendship": 50,
      "evYield": {
        "hp": 0,
        "attack": 0,
        "defence": 0,
        "special_attack": 1,
        "special_defence": 0,
        "speed": 1
      },
      "experienceGroup": "medium_fast",
      "eggCycles": 20,
      "eggGroups": [
        "amorphous"
      ],
      "moves": [
        "1:blizzard"
      ],
      "labels": [
        "gen4"
      ],
      "aspects": [
        "frost"
      ],
      "height": 3,
      "weight": 3,
      "evolutions": [],
      "cannotDynamax": false,
      "battleOnly": false
    },
    {
      "name": "Fan",
      "primaryType": "electric",
      "secondaryType": "flying",
      "abilities": [
        "levitate"
      ],
      "baseStats": {
        "hp": 50,
        "attack": 65,
        "defence": 107,
        "special_attack": 105,
        "special_defence": 107,
        "speed": 86
      },
      "catchRate": 45,
      "maleRatio": -1,
      "baseExperienceYield": 182,
      "baseFriendship": 50,
      "evYield": {
        "hp": 0,
        "attack": 0,
        "defence": 0,
        "special_attack": 1,
        "special_defence": 0,
        "speed": 1
      },
      "experienceGroup": "medium_fast",
      "eggCycles": 20,
      "eggGroups": [
        "amorphous"
      ],
      "moves": [
        "1:airslash"
      ],
      "labels": [
        "gen4"
      ],
      "aspects": [
        "fan"
      ],
      "height": 3,
      "weight": 3,
      "evolutions": [],
      "cannotDynamax": false,
      "battleOnly": false
    },
    {
      "name": "Mow",
      "primaryType": "electric",
      "secondaryType": "grass",
      "abilities": [
        "levitate"
      ],
      "baseStats": {
        "hp": 50,
        "attack": 65,
        "defence": 107,
        "special_attack": 105,
        "special_defence": 107,
        "speed": 86
      },
      "catchRate": 45,
      "maleRatio": -1,
      "baseExperienceYield": 182,
      "baseFriendship": 50,
      "evYield": {
        "hp": 0,
        "attack": 0,
        "defence": 0,
        "special_attack": 1,
        "special_defence": 0,
        "speed": 1
      },
      "experienceGroup": "medium_fast",
      "eggCycles": 20,
      "eggGroups": [
        "amorphous"
      ],
      "moves": [
        "1:leafstorm"
      ],
      "labels": [
        "gen4"
      ],
      "aspects": [
        "mow"
      ],
      "height": 3,
      "weight": 3,
      "evolutions": [],
      "cannotDynamax": false,
      "battleOnly": false
    }
  ],
  "baseExperienceYield": 154,
  "experienceGroup": "medium_fast",
  "eggCycles": 20,
  "eggGroups": [
    "amorphous"
  ],
  "moves": [
    "1:astonish",
    "1:doubleteam",
    "5:thundershock",
    "10:confuseray",
    "15:charge",
    "20:electroball",
    "25:thunderwave",
    "29:ominouswind",
    "30:shockwave",
    "35:hex",
    "40:substitute",
    "45:trick",
    "50:discharge",
    "55:uproar",
    "tm:allyswitch",
    "tm:chargebeam",
    "tm:confide",
    "tm:confuseray",
    "tm:darkpulse",
    "tm:dreameater",
    "tm:eerieimpulse",
    "tm:electricterrain",
    "tm:electroball",
    "tm:electroweb",
    "tm:endure",
    "tm:facade",
    "tm:flash",
    "tm:foulplay",
    "tm:frustration",
    "tm:helpinghand",
    "tm:hex",
    "tm:hiddenpower",
    "tm:hypervoice",
    "tm:lightscreen",
    "tm:nastyplot",
    "tm:naturalgift",
    "tm:nightshade",
    "tm:protect",
    "tm:psychup",
    "tm:raindance",
    "tm:reflect",
    "tm:rest",
    "tm:return",
    "tm:round",
    "tm:secretpower",
    "tm:shadowball",
    "tm:sleeptalk",
    "tm:snore",
    "tm:storedpower",
    "tm:substitute",
    "tm:sunnyday",
    "tm:swagger",
    "tm:swift",
    "tm:terablast",
    "tm:thief",
    "tm:thunder",
    "tm:thunderbolt",
    "tm:thunderwave",
    "tm:toxic",
    "tm:trick",
    "tm:voltswitch",
    "tm:willowisp",
    "tutor:confide",
    "tutor:defog",
    "tutor:disarmingvoice",
    "tutor:mudslap",
    "tutor:painsplit",
    "tutor:poltergeist",
    "tutor:risingvoltage",
    "tutor:signalbeam",
    "tutor:snatch",
    "tutor:spite",
    "tutor:suckerpunch",
    "tutor:telekinesis"
  ],
  "labels": [
    "gen4"
  ],
  "pokedex": [
    "cobblemon.species.rotom.desc"
  ],
  "evolutions": [],
  "baseScale": 1,
  "hitbox": {
    "width": 1,
    "height": 1,
    "fixed": false
  },
  "baseFriendship": 50,
  "evYield": {
    "hp": 0,
    "attack": 0,
    "defence": 0,
    "special_attack": 1,
    "special_defence": 0,
    "speed": 1
  },
  "height": 3,
  "weight": 3,
  "aspects": [],
  "cannotDynamax": false
}