{
  "species": "cobblemon:dodrio",
  "order": 0,
  "variations": [
    {
      "aspects": [],
      "poser": "cobblemon:dodrio",
      "model": "cobblemon:dodrio.geo",
      "texture": "cobblemon:textures/pokemon/0085_dodrio/dodrio_male.png",
      "layers": []
    },
    {
      "aspects": [
        "shiny"
      ],
      "texture": "cobblemon:textures/pokemon/0085_dodrio/dodrio_shiny.png"
    }
  ]
}