{
  "species": "cobblemon:dodrio",
  "order": 1,
  "variations": [
    {
      "aspects": [
        "female"
      ],
      "texture": "cobblemon:textures/pokemon/0085_dodrio/dodrio_female.png"
    }
  ]
}