{
	"format_version": "1.8.0",
	"animations": {
		"animation.meowth.ground_idle": {
			"loop": true,
			"bones": {
				"arm_right": {
					"rotation": [0, 0, -57.5]
				},
				"arm_left": {
					"rotation": [0, 0, 57.5]
				},
				"foot_right": {
					"rotation": [0, 12.5, 0]
				},
				"foot_left": {
					"rotation": [0, -12.5, 0]
				},
				"foot_left_end": {
					"rotation": [0, 0, 0]
				},
				"tail1": {
					"rotation": [-12.5, 0, 0]
				},
				"tail2": {
					"rotation": [22.5, 0, 0]
				},
				"tail3": {
					"rotation": [22.5, 0, 0]
				},
				"forearm_right": {
					"rotation": [0, -20, 0]
				},
				"forearm_left": {
					"rotation": [0, 20, 0]
				}
			}
		}
	}
}