{
	"format_version": "1.12.0",
	"minecraft:geometry": [
		{
			"description": {
				"identifier": "geometry.rapidash",
				"texture_width": 64,
				"texture_height": 64,
				"visible_bounds_width": 4,
				"visible_bounds_height": 4.5,
				"visible_bounds_offset": [0, 1.75, 0]
			},
			"bones": [
				{
					"name": "rapidash",
					"pivot": [0, 0, 0]
				},
				{
					"name": "body",
					"parent": "rapidash",
					"pivot": [0, 11.5, 0],
					"cubes": [
						{"origin": [-3.5, 8, -8], "size": [7, 7, 16], "uv": [0, 0]},
						{"origin": [0, 15, -1.5], "size": [0, 3, 9], "uv": [0, 33]}
					]
				},
				{
					"name": "neck",
					"parent": "body",
					"pivot": [0, 10, -5.75],
					"cubes": [
						{"origin": [-2.5, 10, -8.25], "size": [5, 10, 5], "uv": [30, 0]},
						{"origin": [0, 15, -3.25], "size": [0, 4, 2], "uv": [12, 0]}
					]
				},
				{
					"name": "head",
					"parent": "neck",
					"pivot": [0, 19, -5.75],
					"cubes": [
						{"origin": [-2, 23.75, -7], "size": [4, 3, 4], "pivot": [0, 25.25, -5], "rotation": [15, 0, 0], "uv": [46, 21]},
						{"origin": [-3, 19, -9], "size": [6, 6, 6], "uv": [28, 23]},
						{"origin": [-2.5, 19, -13.25], "size": [5, 4, 5], "pivot": [0, 21, -10.75], "rotation": [12.5, 0, 0], "uv": [41, 40]},
						{"origin": [0, 24.75, -9], "size": [0, 5, 1], "pivot": [0, 27.25, -8.5], "rotation": [15, 0, 0], "uv": [12, 8]},
						{"origin": [0, 19, -3], "size": [0, 3, 2], "uv": [12, 4]}
					]
				},
				{
					"name": "eyes",
					"parent": "head",
					"pivot": [0, 22.5, -7.25],
					"cubes": [
						{"origin": [3.05, 21.5, -8.75], "size": [0, 2, 3], "pivot": [3.05, 22.5, -7.25], "rotation": [10, 0, 0], "uv": [58, 0], "mirror": true},
						{"origin": [-3.05, 21.5, -8.75], "size": [0, 2, 3], "pivot": [-3.05, 22.5, -7.25], "rotation": [10, 0, 0], "uv": [58, 0]}
					]
				},
				{
					"name": "leftear",
					"parent": "head",
					"pivot": [2, 24.5, -5.75],
					"rotation": [0, 0, 15],
					"cubes": [
						{"origin": [0.5, 24.5, -5.75], "size": [3, 5, 0], "uv": [28, 23]}
					]
				},
				{
					"name": "rightear",
					"parent": "head",
					"pivot": [-2, 24.5, -6],
					"rotation": [0, 0, -15],
					"cubes": [
						{"origin": [-3.5, 24.5, -6], "size": [3, 5, 0], "uv": [45, 0]}
					]
				},
				{
					"name": "headfire",
					"parent": "head",
					"pivot": [0, 26, -4],
					"cubes": [
						{"origin": [0, 21.25, -4], "size": [0, 10, 14], "inflate": 0.02, "uv": [0, 9]}
					]
				},
				{
					"name": "tail",
					"parent": "body",
					"pivot": [0, 13.5, 8],
					"cubes": [
						{"origin": [0, 9, 8], "size": [0, 9, 14], "inflate": 0.02, "uv": [0, 19]}
					]
				},
				{
					"name": "leftfrontleg",
					"parent": "body",
					"pivot": [2.5, 11, -5.5],
					"cubes": [
						{"origin": [1, 0, -7], "size": [3, 12, 3], "uv": [0, 0]}
					]
				},
				{
					"name": "leftfrontfire",
					"parent": "leftfrontleg",
					"pivot": [4, 4, -5.25],
					"cubes": [
						{"origin": [4.78043, 2, -5.31819], "size": [0, 4, 7], "pivot": [4.78043, 3.5, -0.81819], "rotation": [0, 10, 0], "uv": [27, 38]}
					]
				},
				{
					"name": "rightfrontleg",
					"parent": "body",
					"pivot": [-2.5, 11, -5.5],
					"cubes": [
						{"origin": [-4, 0, -7], "size": [3, 12, 3], "uv": [15, 42]}
					]
				},
				{
					"name": "rightfrontfire",
					"parent": "rightfrontleg",
					"pivot": [-4, 4, -5.25],
					"cubes": [
						{"origin": [-4.78043, 2, -5.31819], "size": [0, 4, 7], "pivot": [-4.78043, 3.5, -0.81819], "rotation": [0, -10, 0], "uv": [27, 38], "mirror": true}
					]
				},
				{
					"name": "leftbackleg",
					"parent": "body",
					"pivot": [2.5, 11, 5.75],
					"cubes": [
						{"origin": [1, 6, 3.75], "size": [3, 6, 4], "uv": [46, 11]},
						{"origin": [1, 0, 4.75], "size": [3, 6, 3], "uv": [27, 49]}
					]
				},
				{
					"name": "leftbackfire",
					"parent": "leftbackleg",
					"pivot": [4, 4, 6],
					"cubes": [
						{"origin": [4.78043, 1.5, 5.93181], "size": [0, 5, 9], "pivot": [4.78043, 4, 10.43181], "rotation": [0, 10, 0], "uv": [28, 31], "mirror": true}
					]
				},
				{
					"name": "rightbackleg",
					"parent": "body",
					"pivot": [-2.5, 11, 5.75],
					"cubes": [
						{"origin": [-4, 6, 3.75], "size": [3, 6, 4], "uv": [0, 49]},
						{"origin": [-4, 0, 4.75], "size": [3, 6, 3], "uv": [39, 49]}
					]
				},
				{
					"name": "rightbackfire",
					"parent": "rightbackleg",
					"pivot": [-4, 4, 6],
					"cubes": [
						{"origin": [-4.78043, 1.5, 5.93181], "size": [0, 5, 9], "pivot": [-4.78043, 4, 10.43181], "rotation": [0, -10, 0], "uv": [28, 31]}
					]
				}
			]
		}
	]
}