{
  "species": "cobblemon:espeon",
  "order": 0,
  "variations": [
    {
      "aspects": [],
      "poser": "cobblemon:espeon",
      "model": "cobblemon:espeon.geo",
      "texture": "cobblemon:textures/pokemon/0196_espeon/espeon.png",
      "layers": []
    },
    {
      "aspects": [
        "shiny"
      ],
      "texture": "cobblemon:textures/pokemon/0196_espeon/espeon_shiny.png"
    }
  ]
}