{
	"format_version": "1.12.0",
	"minecraft:geometry": [
		{
			"description": {
				"identifier": "geometry.porygon",
				"texture_width": 64,
				"texture_height": 64,
				"visible_bounds_width": 3,
				"visible_bounds_height": 2.5,
				"visible_bounds_offset": [0, 0.75, 0]
			},
			"bones": [
				{
					"name": "porygon",
					"pivot": [0, 0, 0]
				},
				{
					"name": "body",
					"parent": "porygon",
					"pivot": [0, 4.5, 0.5],
					"cubes": [
						{"origin": [-3.5, 1, -5], "size": [7, 7, 11], "uv": [0, 0]}
					]
				},
				{
					"name": "leftleg",
					"parent": "body",
					"pivot": [3.5, 4, 0.5],
					"cubes": [
						{"origin": [3.5, 3, -2.5], "size": [3, 2, 6], "uv": [36, 21]},
						{"origin": [3.5, 0, -4], "size": [3, 3, 9], "uv": [27, 9]}
					]
				},
				{
					"name": "rightleg",
					"parent": "body",
					"pivot": [-3.5, 4, 0.5],
					"cubes": [
						{"origin": [-6.5, 3, -2.5], "size": [3, 2, 6], "uv": [18, 35]},
						{"origin": [-6.5, 0, -4], "size": [3, 3, 9], "uv": [21, 23]}
					]
				},
				{
					"name": "head",
					"parent": "body",
					"pivot": [0, 7.5, -3.25],
					"rotation": [15, 0, 0],
					"cubes": [
						{"origin": [-3.5, 7.5, -6.75], "size": [7, 6, 8], "inflate": 0.02, "uv": [0, 18]},
						{"origin": [3.55, 9.96299, -3.80709], "size": [0, 3, 3], "pivot": [3.55, 11.5, -2], "rotation": [7.5, 0, 0], "uv": [0, 18]},
						{"origin": [-3.55, 9.96299, -3.80709], "size": [0, 3, 3], "pivot": [-3.55, 11.5, -2], "rotation": [7.5, 0, 0], "uv": [0, 18], "mirror": true},
						{"origin": [-2.5, 7.5, -10.75], "size": [5, 4, 4], "uv": [25, 0]}
					]
				},
				{
					"name": "tail",
					"parent": "body",
					"pivot": [0, 5.5, 6],
					"rotation": [45, 0, 0],
					"cubes": [
						{"origin": [-1, 4, 5], "size": [2, 3, 7], "uv": [0, 32]},
						{"origin": [-0.5, 5, 12], "size": [1, 2, 5], "uv": [11, 32]}
					]
				}
			]
		}
	]
}