{
	"format_version": "1.8.0",
	"animations": {
		"animation.psyduck.ground_idle": {
			"loop": true,
			"bones": {
				"arm_left": {
					"rotation": [180, 10, "-80-math.sin(q.anim_time*90*3-90-45+180)*0.5"]
				},
				"forearm_left": {
					"rotation": [0, 0, "20-math.sin(q.anim_time*90*3-90-45+180)*1"]
				},
				"arm_right": {
					"rotation": [180, -10, "80-math.sin(q.anim_time*90*3-90-45)*0.5"]
				},
				"forearm_right": {
					"rotation": [0, 0, "-20-math.sin(q.anim_time*90*3-90-45)*1"]
				},
				"tail": {
					"rotation": [30, "math.sin(query.anim_time*90*3-90+45)*2", 0]
				},
				"tail2": {
					"rotation": [15, "-math.sin(query.anim_time*90*3-33+45)*1", 0]
				},
				"head": {
					"position": [0, "-math.sin(q.anim_time*90*3-90-45)*0.02", 0]
				},
				"hair2": {
					"rotation": [0, 0, "-math.clamp(-0.15*(math.sin(q.anim_time*90*3-90)*0.1+1),-0.2,-0.1)+math.sin(q.anim_time*90*3-90+60)*1"]
				},
				"hair3": {
					"rotation": [0, 0, "math.clamp(-0.15*(math.sin(q.anim_time*90*3-90)*0.1+1),-0.2,-0.1)-math.sin(q.anim_time*90*3-90+60)*1"]
				},
				"torso": {
					"position": [0, "math.clamp(-0.15*(math.sin(q.anim_time*90*3-90)*0.1+1),-0.2,-0.1)-math.sin(q.anim_time*90*3-90)*0.05", 0]
				}
			}
		},
		"animation.psyduck.ground_walk": {
			"loop": true,
			"bones": {
				"arm_left": {
					"rotation": [180, "10-math.sin(query.anim_time*90*4+30)*4", "-80-math.sin(query.anim_time*90*4+30+180)*4"],
					"position": [0, "-math.sin(query.anim_time*90*4+30)*0.2", 0]
				},
				"forearm_left": {
					"rotation": [0, 0, 20]
				},
				"arm_right": {
					"rotation": [180, "-10-math.sin(query.anim_time*90*4+30)*4", "80+math.sin(query.anim_time*90*4+30)*4"],
					"position": [0, "math.sin(query.anim_time*90*4+30)*0.2", 0]
				},
				"forearm_right": {
					"rotation": [0, 0, -20]
				},
				"body": {
					"rotation": [
						"math.clamp(math.sin(query.anim_time*180*4/2+20)*2,0.5,2)+math.clamp(-math.sin(query.anim_time*180*4/2+20)*2,0.5,2)+0.8",
						"math.sin(query.anim_time*90*4+20)*10",
						"-math.sin(query.anim_time*90*4+90)*10"
					],
					"position": [
						0,
						"-math.clamp(math.sin(-query.anim_time*90*4+45/2)*0.6,0.1,1)-math.clamp(math.sin(-query.anim_time*90*4+45/2+180)*0.6,0.1,1)+1",
						"-math.clamp(math.sin(query.anim_time*90*4)*0.7,0.1,0.6)-math.clamp(math.sin(-query.anim_time*90*4)*0.7,0.1,0.6)+0.2"
					]
				},
				"tail": {
					"rotation": [30, "math.sin(query.anim_time*90*4-90)*10", 0]
				},
				"foot_right": {
					"rotation": [
						"-math.clamp(-math.sin(query.anim_time*90*4+40+180*0)*20,4,20)+math.clamp(-math.sin(query.anim_time*90*4+130+180*0)*5,0,5)+3",
						"math.sin(query.anim_time*90*4+20+180)*10",
						"(math.sin(query.anim_time*90*4+90+180*0)*10)"
					],
					"position": [
						0,
						"-math.clamp(-math.sin(query.anim_time*90*4+40+180*1)*0.4,0.3,3)+math.clamp(-math.sin(query.anim_time*90*4-30+180*0)*0.8,0.5,1)+math.clamp(-math.sin(query.anim_time*90*4-35+180*1)*2,1,2)-1.5",
						"-math.clamp(math.sin(query.anim_time*90*4+180*1)*0.4,-0.5,1)-math.clamp(math.sin(query.anim_time*90*4+180*1)*0.4,-0.8,0)-0.1"
					]
				},
				"foot_left": {
					"rotation": [
						"-math.clamp(-math.sin(query.anim_time*90*4+40+180*1)*20,4,20)+math.clamp(-math.sin(query.anim_time*90*4+130+180*1)*5,0,5)+3",
						"-math.sin(query.anim_time*90*4+20)*10",
						"-1*(math.sin(query.anim_time*90*4+90+180*1)*10)"
					],
					"position": [
						0,
						"-math.clamp(-math.sin(query.anim_time*90*4+40+180*0)*0.4,0.3,3)+math.clamp(-math.sin(query.anim_time*90*4-30+180)*0.8,0.5,1)+math.clamp(-math.sin(query.anim_time*90*4-35+180*0)*2,1,2)-1.5",
						"-math.clamp(math.sin(query.anim_time*90*4+180*0)*0.4,-0.5,1)-math.clamp(math.sin(query.anim_time*90*4+180*0)*0.4,-0.8,0)-0.1"
					]
				},
				"hair1": {
					"rotation": [0, 0, "-math.sin(query.anim_time*90*4+90-80)*10"]
				},
				"hair2": {
					"rotation": [0, 0, "-math.sin(query.anim_time*90*4+90-40)*10+5"]
				},
				"hair3": {
					"rotation": [0, 0, "-math.sin(query.anim_time*90*4+90-60)*10-5"]
				},
				"tail2": {
					"rotation": [15, "-math.sin(query.anim_time*90*4-90)*1", 0]
				},
				"head": {
					"rotation": [
						"-math.clamp(math.sin(query.anim_time*180*4/2+20)*1,0.2,2)-math.clamp(-math.sin(query.anim_time*180*4/2+20)*1,0.2,2)-1",
						"-math.sin(query.anim_time*90*4+20)*7",
						"math.sin(query.anim_time*90*4+30)*4"
					],
					"position": ["math.sin(query.anim_time*90*4+30)*0.2", 0, 0]
				}
			}
		},
		"animation.psyduck.water_idle": {
			"loop": true,
			"bones": {
				"body": {
					"rotation": ["89.5-math.clamp(math.sin(q.anim_time*90*2+80)*2,0,2)-math.clamp(math.sin(q.anim_time*90*2+80)*2,-2,0)", 0, 0],
					"position": [0, 0, 2]
				},
				"head": {
					"rotation": ["-180+math.clamp(math.sin(q.anim_time*90*2+25)*2,0,2)+math.clamp(math.sin(q.anim_time*90*2+25)*2,-2,0)", 0, 0]
				},
				"head_correction": {
					"rotation": [90, 0, 0]
				},
				"head_angle": {
					"rotation": [0, 0, 0]
				},
				"arm_left": {
					"rotation": [
						-80,
						"30+math.clamp(math.sin(q.anim_time*90*2+25)*4,0,4)+math.clamp(math.sin(q.anim_time*90*2+25)*4,-4,0)",
						"-15-math.clamp(math.sin(q.anim_time*90*2+25)*2,0,2)-math.clamp(math.sin(q.anim_time*90*2+25)*2,-2,0)"
					]
				},
				"forearm_left": {
					"rotation": [0, "30+math.clamp(math.sin(q.anim_time*90*2+25)*2,0,2)+math.clamp(math.sin(q.anim_time*90*2+25)*2,-2,0)", 0]
				},
				"arm_right": {
					"rotation": [
						-80,
						"-30-math.clamp(math.sin(q.anim_time*90*2+25)*4,0,4)-math.clamp(math.sin(q.anim_time*90*2+25)*4,-4,0)",
						"15+math.clamp(math.sin(q.anim_time*90*2+25)*2,0,2)+math.clamp(math.sin(q.anim_time*90*2+25)*2,-2,0)"
					]
				},
				"forearm_right": {
					"rotation": [0, "-30-math.clamp(math.sin(q.anim_time*90*2+25)*2,0,2)-math.clamp(math.sin(q.anim_time*90*2+25)*2,-2,0)", 0]
				},
				"tail": {
					"rotation": [
						"-85+math.clamp(math.sin(q.anim_time*90*2-25)*1,0,2)+math.clamp(math.sin(q.anim_time*90*2-25)*1,-2,0)",
						0,
						"4*(math.sin(q.anim_time*90*2)*1)+2*(math.sin(q.anim_time*90*2/3)*1)"
					]
				},
				"foot_right": {
					"rotation": [
						"15-math.clamp(math.sin(q.anim_time*90*2+70)*3,0,1)-math.clamp(math.sin(q.anim_time*90*2+70)*5,0,6)-math.clamp(math.sin(q.anim_time*90*2+70)*3,-1,0)-math.clamp(math.sin(q.anim_time*90*2+70)*4,-4,-0)",
						0,
						15
					],
					"position": [-0.5, -0.5, 0]
				},
				"foot_left": {
					"rotation": [
						"15-math.clamp(math.sin(q.anim_time*90*2+70)*3,0,1)-math.clamp(math.sin(q.anim_time*90*2+70)*5,0,6)-math.clamp(math.sin(q.anim_time*90*2+70)*3,-1,0)-math.clamp(math.sin(q.anim_time*90*2+70)*4,-4,-0)",
						0,
						-15
					],
					"position": [0.5, -0.5, 0]
				},
				"hair1": {
					"rotation": ["-math.clamp(math.sin(q.anim_time*90*2+25)*8,0,8)-math.clamp(math.sin(q.anim_time*90*2+25)*8,-8,0)", 0, 0]
				},
				"hair2": {
					"rotation": ["-math.clamp(math.sin(q.anim_time*90*2+50)*8,0,8)-math.clamp(math.sin(q.anim_time*90*2+50)*8,-8,0)", 0, 0]
				},
				"hair3": {
					"rotation": ["-math.clamp(math.sin(q.anim_time*90*2+50)*8,0,8)-math.clamp(math.sin(q.anim_time*90*2+50)*8,-8,0)", 0, 0]
				},
				"tail2": {
					"rotation": [5, "(math.sin(q.anim_time*90*2+60)*2.5)+(math.sin(q.anim_time*90*2/3+60)*2.5)", 0]
				}
			}
		},
		"animation.psyduck.water_swim": {
			"loop": true,
			"bones": {
				"body": {
					"rotation": [90, "-math.sin(q.anim_time*90*3*4+90)*1.5", "math.sin(q.anim_time*90*3*4+90)*0.5"],
					"position": [
						0,
						"math.clamp(math.sin(q.anim_time*90*3)*0.2,0,1)+math.clamp(math.sin(q.anim_time*90*4)*0.3,-1,0)",
						"2-math.sin(q.anim_time*90*3*2+90)*0.2"
					]
				},
				"head": {
					"rotation": [-180, 0, "-math.sin(q.anim_time*90*3*4+90)*2"]
				},
				"head_correction": {
					"rotation": [90, 0, 0]
				},
				"arm_left": {
					"rotation": [-45, "15-math.sin(q.anim_time*90*3*4+90)*2", 60]
				},
				"forearm_left": {
					"rotation": [0, "15-math.sin(q.anim_time*90*3*4+90)*1", 0]
				},
				"arm_right": {
					"rotation": [-45, "-15-math.sin(q.anim_time*90*3*4+90)*2", -60]
				},
				"forearm_right": {
					"rotation": [0, "-15-math.sin(q.anim_time*90*3*4+90)*1", 0]
				},
				"tail": {
					"rotation": [
						"-85+math.clamp(math.sin(q.anim_time*90*3*3-25)*1,0,2)+math.clamp(math.sin(q.anim_time*90*3*3-25)*1,-2,0)",
						0,
						"4*(math.sin(q.anim_time*90*3*3)*1)+2*(math.sin(q.anim_time*90*3)*1)"
					]
				},
				"foot_right": {
					"rotation": ["40+(math.sin(q.anim_time*90*3*3+90)*1-1)*20", 0, 15],
					"position": [-0.5, -0.5, 0]
				},
				"foot_left": {
					"rotation": ["-(math.sin(q.anim_time*90*3*3+90)*1-1)*20", 0, -15],
					"position": [0.5, -0.5, 0]
				},
				"hair1": {
					"rotation": ["math.sin(q.anim_time*90*3*4+90-60)*4-15", 0, "-math.sin(q.anim_time*90*3*4+90+90)*6"]
				},
				"hair2": {
					"rotation": ["math.sin(q.anim_time*90*3*4+90-30)*4-5", 0, "-math.sin(q.anim_time*90*3*4+90+90)*4"]
				},
				"hair3": {
					"rotation": ["math.sin(q.anim_time*90*3*4+90-30)*4-5", 0, "-math.sin(q.anim_time*90*3*4+90+90)*4"]
				},
				"tail2": {
					"rotation": [2.5, "6*(math.sin(q.anim_time*90*3*3+60)*1)+3*(math.sin(q.anim_time*90*3+60)*1)", 0]
				}
			}
		}
	}
}