{
	"format_version": "1.12.0",
	"minecraft:geometry": [
		{
			"description": {
				"identifier": "geometry.doduo",
				"texture_width": 32,
				"texture_height": 32,
				"visible_bounds_width": 2,
				"visible_bounds_height": 2.5,
				"visible_bounds_offset": [0, 0.75, 0]
			},
			"bones": [
				{
					"name": "doduo",
					"pivot": [0, 0, 0]
				},
				{
					"name": "body",
					"parent": "doduo",
					"pivot": [0, 10, 0],
					"cubes": [
						{"origin": [-3.5, 7, -3], "size": [7, 6, 6], "uv": [0, 0]}
					]
				},
				{
					"name": "leftneck",
					"parent": "body",
					"pivot": [1.5, 13, -2],
					"rotation": [0, 0, 15],
					"cubes": [
						{"origin": [1, 12, -2.5], "size": [1, 7, 1], "uv": [24, 12]}
					]
				},
				{
					"name": "lefthead",
					"parent": "leftneck",
					"pivot": [1.5, 18, -2],
					"cubes": [
						{"origin": [1, 18.75, -9.25], "size": [1, 1, 5], "uv": [20, 0]},
						{"origin": [-0.5, 18, -4.25], "size": [4, 4, 4], "uv": [12, 16]},
						{"origin": [2.25, 19.5, -4.275], "size": [1, 2, 0], "uv": [30, 30]},
						{"origin": [-0.25, 19.5, -4.275], "size": [1, 2, 0], "uv": [30, 30]}
					]
				},
				{
					"name": "rightneck",
					"parent": "body",
					"pivot": [-1.5, 13, -2],
					"rotation": [0, 0, -15],
					"cubes": [
						{"origin": [-2, 12, -2.5], "size": [1, 7, 1], "uv": [12, 24]}
					]
				},
				{
					"name": "righthead",
					"parent": "rightneck",
					"pivot": [-1.5, 18, -2],
					"cubes": [
						{"origin": [-2, 18.75, -9.25], "size": [1, 1, 5], "uv": [0, 20]},
						{"origin": [-3.5, 18, -4.25], "size": [4, 4, 4], "uv": [0, 12]},
						{"origin": [-0.75, 19.5, -4.275], "size": [1, 2, 0], "uv": [30, 30]},
						{"origin": [-3.25, 19.5, -4.275], "size": [1, 2, 0], "uv": [30, 30]}
					]
				},
				{
					"name": "leftleg",
					"parent": "body",
					"pivot": [2, 7, 0.25],
					"rotation": [0, -12.5, 0],
					"cubes": [
						{"origin": [1.5, 5, -0.25], "size": [1, 3, 1], "uv": [7, 20]}
					]
				},
				{
					"name": "leftknee",
					"parent": "leftleg",
					"pivot": [2, 5, 0.25],
					"cubes": [
						{"origin": [1.5, 1, -0.25], "size": [1, 4, 1], "uv": [20, 0]}
					]
				},
				{
					"name": "leftfoot",
					"parent": "leftknee",
					"pivot": [2, 1, 0.25],
					"cubes": [
						{"origin": [1, 0, -1], "size": [2, 1, 2], "uv": [16, 24]},
						{"origin": [3.75087, 0, -3.04854], "size": [0, 1, 3], "pivot": [3.75087, 0.5, -1.54854], "rotation": [0, -30, 0], "uv": [18, 10]},
						{"origin": [2.88073, 0, -3.99429], "size": [0, 1, 3], "pivot": [2.88073, 0.5, -2.49429], "rotation": [0, -5, 0], "uv": [7, 21]},
						{"origin": [1.11927, 0, -3.99429], "size": [0, 1, 3], "pivot": [1.11927, 0.5, -2.49429], "rotation": [0, 5, 0], "uv": [18, 12]},
						{"origin": [0.24913, 0, -3.04854], "size": [0, 1, 3], "pivot": [0.24913, 0.5, -1.54854], "rotation": [0, 30, 0], "uv": [18, 9]}
					]
				},
				{
					"name": "rightleg",
					"parent": "body",
					"pivot": [-2, 7, 0.25],
					"rotation": [0, 12.5, 0],
					"cubes": [
						{"origin": [-2.5, 5, -0.25], "size": [1, 3, 1], "uv": [0, 12]}
					]
				},
				{
					"name": "rightknee",
					"parent": "rightleg",
					"pivot": [-2, 5, 0.25],
					"cubes": [
						{"origin": [-2.5, 1, -0.25], "size": [1, 4, 1], "uv": [0, 20]}
					]
				},
				{
					"name": "rightfoot",
					"parent": "rightknee",
					"pivot": [-2, 1, 0.25],
					"cubes": [
						{"origin": [-3, 0, -1], "size": [2, 1, 2], "uv": [12, 12]},
						{"origin": [-3.75087, 0, -3.04854], "size": [0, 1, 3], "pivot": [-3.75087, 0.5, -1.54854], "rotation": [0, 30, 0], "uv": [12, 12]},
						{"origin": [-2.88073, 0, -3.99429], "size": [0, 1, 3], "pivot": [-2.88073, 0.5, -2.49429], "rotation": [0, 5, 0], "uv": [0, 2]},
						{"origin": [-1.11927, 0, -3.99429], "size": [0, 1, 3], "pivot": [-1.11927, 0.5, -2.49429], "rotation": [0, -5, 0], "uv": [0, 1]},
						{"origin": [-0.24913, 0, -3.04854], "size": [0, 1, 3], "pivot": [-0.24913, 0.5, -1.54854], "rotation": [0, -30, 0], "uv": [0, 0]}
					]
				}
			]
		}
	]
}