{
  "schemaVersion": 1,
  "id": "cobblemon",
  "version": "${version}",
  "name": "Cobblemon",
  "description": "Adds Pokémon to the world, letting you find, battle, capture, and evolve them.",
  "authors": [
    "The Cobblemon Team"
  ],
  "contact": {
    "homepage": "https://cobblemon.com/",
    "sources": "https://gitlab.com/cable-mc/cobblemon",
    "issues": "https://gitlab.com/cable-mc/cobblemon/-/issues"
  },
  "license": "MPL-2.0",
  "icon": "assets/cobblemon/icon_cobblemon.png",
  "environment": "*",
  "entrypoints": {
    "main": [
      "com.cobblemon.mod.fabric.FabricBootstrap"
    ],
    "client": [
      "com.cobblemon.mod.fabric.client.CobblemonFabricClient"
    ]
  },
  "mixins": [
    "mixins.cobblemon-common.json",
    "mixins.cobblemon-fabric.json"
  ],
  "accessWidener": "cobblemon-common.accesswidener",
  "depends": {
    "fabricloader": ">=0.13.3",
    "fabric": "*",
    "architectury": ">=6.0.37",
    "minecraft": ">=1.19.2",
    "java": ">=17"
  },
  "custom": {
    "modmenu": {
      "links": {
        "modmenu.curseforge": "https://www.curseforge.com/minecraft/mc-mods/cobblemon",
        "modmenu.modrinth": "https://modrinth.com/mod/cobblemon",
        "modmenu.discord": "https://discord.gg/XnZwHjj2yS",
        "modmenu.patreon": "https://www.patreon.com/cablemc"
      }
    }
  }
}