{
	"format_version": "1.12.0",
	"minecraft:geometry": [
		{
			"description": {
				"identifier": "geometry.persian",
				"texture_width": 64,
				"texture_height": 64,
				"visible_bounds_width": 5,
				"visible_bounds_height": 2.5,
				"visible_bounds_offset": [0, 0.75, 0]
			},
			"bones": [
				{
					"name": "persian",
					"pivot": [0, 0, 0]
				},
				{
					"name": "body",
					"parent": "persian",
					"pivot": [0, 10.5, 1],
					"cubes": [
						{"origin": [-3.5, 7, -6], "size": [7, 7, 14], "uv": [0, 0]}
					]
				},
				{
					"name": "head",
					"parent": "body",
					"pivot": [0, 13.25, -0.75],
					"cubes": [
						{"origin": [-3, 13.25, -9.75], "size": [6, 6, 6], "uv": [0, 21]},
						{"origin": [-0.5, 17.75, -9.775], "size": [1, 1, 0], "uv": [0, 0]},
						{"origin": [-2, 13.5, -11.75], "size": [4, 3, 2], "uv": [40, 0]}
					]
				},
				{
					"name": "eyes",
					"parent": "head",
					"pivot": [0, 17.21732, -8.37357],
					"cubes": [
						{"origin": [-3.025, 16.25, -9.5], "size": [0, 2, 3], "inflate": 0.02, "pivot": [-2.525, 17.25, -8], "rotation": [5, 0, 0], "uv": [53, 0], "mirror": true},
						{"origin": [3.025, 16.25, -9.5], "size": [0, 2, 3], "inflate": 0.02, "pivot": [2.525, 17.25, -8], "rotation": [5, 0, 0], "uv": [53, 0]},
						{"origin": [-3.075, 16.25, -9.25], "size": [0, 2, 1], "inflate": 0.02, "pivot": [-2.575, 17.25, -8], "rotation": [5, 0, 0], "uv": [57, 10], "mirror": true},
						{"origin": [3.075, 16.25, -9.25], "size": [0, 2, 1], "inflate": 0.02, "pivot": [2.575, 17.25, -8], "rotation": [5, 0, 0], "uv": [57, 10]}
					]
				},
				{
					"name": "eyelid_right",
					"parent": "head",
					"pivot": [-2.325, 17.25, -8],
					"cubes": [
						{"origin": [-2.825, 16.25, -9.5], "size": [1, 2, 3], "inflate": 0.04, "pivot": [-2.275, 17.25, -8], "rotation": [5, 0, 0], "uv": [55, 14], "mirror": true}
					]
				},
				{
					"name": "eyelid_left",
					"parent": "head",
					"pivot": [2.325, 17.25, -8],
					"cubes": [
						{"origin": [1.825, 16.25, -9.5], "size": [1, 2, 3], "inflate": 0.04, "pivot": [2.775, 17.25, -8], "rotation": [5, 0, 0], "uv": [55, 14]}
					]
				},
				{
					"name": "whisker_top_right",
					"parent": "head",
					"pivot": [-2.75, 15.75, -8.5],
					"rotation": [0, 10, 7.5],
					"cubes": [
						{"origin": [-6.75, 15.25, -8.5], "size": [4, 1, 0], "uv": [28, 12]}
					]
				},
				{
					"name": "whisker_middle_right",
					"parent": "head",
					"pivot": [-3, 14.75, -8.5],
					"rotation": [0, 15, -5],
					"cubes": [
						{"origin": [-8, 14.25, -8.5], "size": [5, 1, 0], "inflate": 0.02, "uv": [36, 31]}
					]
				},
				{
					"name": "whisker_bottom_right",
					"parent": "head",
					"pivot": [-2.75, 13.75, -8.5],
					"rotation": [0, 20, -17.5],
					"cubes": [
						{"origin": [-6.75, 13.25, -8.5], "size": [4, 1, 0], "uv": [28, 11]}
					]
				},
				{
					"name": "whisker_top_left",
					"parent": "head",
					"pivot": [2.75, 15.75, -8.5],
					"rotation": [0, -10, -7.5],
					"cubes": [
						{"origin": [2.75, 15.25, -8.5], "size": [4, 1, 0], "uv": [24, 36]}
					]
				},
				{
					"name": "whisker_middle_left",
					"parent": "head",
					"pivot": [3, 14.75, -8.5],
					"rotation": [0, -15, 5],
					"cubes": [
						{"origin": [3, 14.25, -8.5], "size": [5, 1, 0], "inflate": 0.02, "uv": [36, 32]}
					]
				},
				{
					"name": "whisker_bottom_left",
					"parent": "head",
					"pivot": [2.75, 13.75, -8.5],
					"rotation": [0, -20, 17.5],
					"cubes": [
						{"origin": [2.75, 13.25, -8.5], "size": [4, 1, 0], "uv": [28, 13]}
					]
				},
				{
					"name": "ear_right",
					"parent": "head",
					"pivot": [-2, 18.5, -6.25],
					"rotation": [-5, -20, -25],
					"cubes": [
						{"origin": [-2.08551, 18.47953, -8.98403], "size": [0, 5, 6], "uv": [0, 27], "mirror": true}
					]
				},
				{
					"name": "ear_left",
					"parent": "head",
					"pivot": [2, 18.5, -6.25],
					"rotation": [-5, 20, 25],
					"cubes": [
						{"origin": [2.08551, 18.47953, -8.98403], "size": [0, 5, 6], "uv": [0, 27]}
					]
				},
				{
					"name": "leg_front_right1",
					"parent": "body",
					"pivot": [-2.5, 10.5, -3.75],
					"rotation": [5, 0, 0],
					"cubes": [
						{"origin": [-4, 5.75, -5.25], "size": [3, 6, 3], "inflate": 0.02, "uv": [28, 0]}
					]
				},
				{
					"name": "leg_front_right2",
					"parent": "leg_front_right1",
					"pivot": [-2.5, 5.75, -2.75],
					"rotation": [-20, 0, 0],
					"cubes": [
						{"origin": [-4, 1, -5.25], "size": [3, 5, 3], "uv": [37, 6]}
					]
				},
				{
					"name": "leg_front_right3",
					"parent": "leg_front_right2",
					"pivot": [-2.5, 1, -3.75],
					"rotation": [15, 0, 0],
					"cubes": [
						{"origin": [-4, -0.5, -5.5], "size": [3, 2, 3], "inflate": 0.02, "uv": [33, 41]}
					]
				},
				{
					"name": "leg_front_left1",
					"parent": "body",
					"pivot": [2.5, 10.5, -3.75],
					"rotation": [5, 0, 0],
					"cubes": [
						{"origin": [1, 5.75, -5.25], "size": [3, 6, 3], "inflate": 0.02, "uv": [12, 33]}
					]
				},
				{
					"name": "leg_front_left2",
					"parent": "leg_front_left1",
					"pivot": [2.5, 5.75, -2.75],
					"rotation": [-20, 0, 0],
					"cubes": [
						{"origin": [1, 1, -5.25], "size": [3, 5, 3], "uv": [38, 21]}
					]
				},
				{
					"name": "leg_front_left3",
					"parent": "leg_front_left2",
					"pivot": [2.5, 1, -3.75],
					"rotation": [15, 0, 0],
					"cubes": [
						{"origin": [1, -0.5, -5.5], "size": [3, 2, 3], "inflate": 0.02, "uv": [42, 14]}
					]
				},
				{
					"name": "leg_back_right1",
					"parent": "body",
					"pivot": [-2.5, 10.25, 5.5],
					"rotation": [5, 0, 0],
					"cubes": [
						{"origin": [-4, 5.75, 3.25], "size": [3, 6, 4], "inflate": 0.02, "uv": [0, 0]}
					]
				},
				{
					"name": "leg_back_right2",
					"parent": "leg_back_right1",
					"pivot": [-2.5, 4.75, 6.75],
					"rotation": [-15, 0, 0],
					"cubes": [
						{"origin": [-4, 1, 4.75], "size": [3, 5, 3], "uv": [33, 33]}
					]
				},
				{
					"name": "leg_back_right3",
					"parent": "leg_back_right2",
					"pivot": [-2.5, 1.25, 6.25],
					"rotation": [10, 0, 0],
					"cubes": [
						{"origin": [-4, -0.25, 4.5], "size": [3, 2, 3], "inflate": 0.02, "uv": [24, 38]}
					]
				},
				{
					"name": "leg_back_left1",
					"parent": "body",
					"pivot": [2.5, 10.25, 5.5],
					"rotation": [5, 0, 0],
					"cubes": [
						{"origin": [1, 5.75, 3.25], "size": [3, 6, 4], "inflate": 0.02, "uv": [24, 21]}
					]
				},
				{
					"name": "leg_back_left2",
					"parent": "leg_back_left1",
					"pivot": [2.5, 4.75, 6.75],
					"rotation": [-15, 0, 0],
					"cubes": [
						{"origin": [1, 1, 4.75], "size": [3, 5, 3], "uv": [0, 38]}
					]
				},
				{
					"name": "leg_back_left3",
					"parent": "leg_back_left2",
					"pivot": [2.5, 1.25, 6.25],
					"rotation": [10, 0, 0],
					"cubes": [
						{"origin": [1, -0.25, 4.5], "size": [3, 2, 3], "inflate": 0.02, "uv": [12, 42]}
					]
				},
				{
					"name": "tail1",
					"parent": "body",
					"pivot": [0, 12.75, 8],
					"cubes": [
						{"origin": [0, 11.75, 8], "size": [0, 2, 5], "inflate": 0.02, "uv": [18, 16]}
					]
				},
				{
					"name": "tail2",
					"parent": "tail1",
					"pivot": [0, 13.75, 13],
					"cubes": [
						{"origin": [0, 11.75, 13], "size": [0, 2, 5], "uv": [18, 18]}
					]
				},
				{
					"name": "tail3",
					"parent": "tail2",
					"pivot": [0, 13.75, 18],
					"cubes": [
						{"origin": [0, 11.75, 18], "size": [0, 2, 4], "inflate": 0.02, "uv": [28, 5]}
					]
				},
				{
					"name": "tail4",
					"parent": "tail3",
					"pivot": [0, 13.75, 22],
					"cubes": [
						{"origin": [0, 9.75, 22], "size": [0, 4, 5], "uv": [0, 5]}
					]
				}
			]
		}
	]
}