{
	"format_version": "1.8.0",
	"animations": {
		"animation.litten.ground_idle": {
			"loop": true,
			"bones": {
				"tail1": {
					"rotation": [20, 0, 0]
				},
				"tail2": {
					"rotation": [35, 0, 0]
				},
				"tail3": {
					"rotation": [35, 0, 0]
				},
				"tail4": {
					"rotation": [-35, 0, 0]
				},
				"tail5": {
					"rotation": [-15, 0, 0]
				}
			}
		}
	}
}