{
  "name": "Jangmo-o",
  "nationalPokedexNumber": 782,
  "primaryType": "dragon",
  "abilities": [
    "bulletproof",
    "soundproof",
    "h:overcoat"
  ],
  "baseStats": {
    "hp": 45,
    "attack": 55,
    "defence": 65,
    "special_attack": 45,
    "special_defence": 45,
    "speed": 45
  },
  "catchRate": 45,
  "maleRatio": 0.5,
  "shoulderMountable": false,
  "baseExperienceYield": 60,
  "experienceGroup": "slow",
  "eggCycles": 40,
  "eggGroups": [
    "dragon"
  ],
  "moves": [
    "1:leer",
    "1:tackle",
    "4:protect",
    "8:dragontail",
    "9:bide",
    "12:scaryface",
    "16:headbutt",
    "20:workup",
    "24:screech",
    "28:irondefense",
    "32:dragonclaw",
    "36:nobleroar",
    "40:dragondance",
    "44:outrage",
    "egg:counter",
    "egg:dragonbreath",
    "egg:focuspunch",
    "tm:aerialace",
    "tm:attract",
    "tm:brickbreak",
    "tm:bulkup",
    "tm:bulldoze",
    "tm:confide",
    "tm:doubleteam",
    "tm:dragonclaw",
    "tm:dragondance",
    "tm:dragonpulse",
    "tm:earthquake",
    "tm:echoedvoice",
    "tm:endure",
    "tm:facade",
    "tm:falseswipe",
    "tm:fling",
    "tm:focusblast",
    "tm:frustration",
    "tm:hiddenpower",
    "tm:irondefense",
    "tm:ironhead",
    "tm:irontail",
    "tm:lowkick",
    "tm:outrage",
    "tm:payback",
    "tm:protect",
    "tm:rest",
    "tm:return",
    "tm:reversal",
    "tm:roar",
    "tm:rockslide",
    "tm:rocktomb",
    "tm:round",
    "tm:safeguard",
    "tm:sandstorm",
    "tm:scaryface",
    "tm:screech",
    "tm:shadowclaw",
    "tm:sleeptalk",
    "tm:snore",
    "tm:substitute",
    "tm:swagger",
    "tm:swordsdance",
    "tm:taunt",
    "tm:toxic",
    "tm:uproar",
    "tm:workup",
    "tm:xscissor",
    "tutor:aquatail",
    "tutor:dracometeor",
    "tutor:dualchop",
    "tutor:scaleshot"
  ],
  "labels": [
    "gen7"
  ],
  "pokedex": [
    "cobblemon.species.jangmoo.desc"
  ],
  "evolutions": [
    {
      "id": "jangmoo_hakamoo",
      "variant": "level_up",
      "result": "hakamoo",
      "consumeHeldItem": false,
      "learnableMoves": [],
      "requirements": [
        {
          "variant": "level",
          "minLevel": 35
        }
      ]
    }
  ],
  "baseScale": 1,
  "hitbox": {
    "width": 1,
    "height": 1,
    "fixed": false
  },
  "baseFriendship": 50,
  "evYield": {
    "hp": 0,
    "attack": 0,
    "defence": 1,
    "special_attack": 0,
    "special_defence": 0,
    "speed": 0
  },
  "height": 6,
  "weight": 297,
  "aspects": [],
  "cannotDynamax": false
}