{
  "implemented": true,
  "name": "Mimikyu",
  "nationalPokedexNumber": 778,
  "primaryType": "ghost",
  "secondaryType": "fairy",
  "abilities": [
    "disguise"
  ],
  "baseStats": {
    "hp": 55,
    "attack": 90,
    "defence": 80,
    "special_attack": 50,
    "special_defence": 105,
    "speed": 96
  },
  "catchRate": 45,
  "maleRatio": 0.5,
  "shoulderMountable": false,
  "baseExperienceYield": 167,
  "experienceGroup": "medium_fast",
  "eggCycles": 20,
  "eggGroups": [
    "amorphous"
  ],
  "moves": [
    "1:astonish",
    "1:copycat",
    "1:scratch",
    "1:splash",
    "1:woodhammer",
    "6:shadowsneak",
    "12:doubleteam",
    "18:babydolleyes",
    "23:feintattack",
    "24:mimic",
    "30:honeclaws",
    "36:slash",
    "42:shadowclaw",
    "48:charm",
    "54:playrough",
    "60:painsplit",
    "egg:curse",
    "egg:destinybond",
    "egg:grudge",
    "egg:nightmare",
    "tm:attract",
    "tm:beatup",
    "tm:bulkup",
    "tm:chargebeam",
    "tm:charm",
    "tm:confide",
    "tm:confuseray",
    "tm:darkpulse",
    "tm:dazzlinggleam",
    "tm:drainingkiss",
    "tm:drainpunch",
    "tm:dreameater",
    "tm:embargo",
    "tm:endure",
    "tm:facade",
    "tm:fling",
    "tm:frustration",
    "tm:gigadrain",
    "tm:gigaimpact",
    "tm:hex",
    "tm:hiddenpower",
    "tm:hyperbeam",
    "tm:infestation",
    "tm:leechlife",
    "tm:lightscreen",
    "tm:magicroom",
    "tm:mistyterrain",
    "tm:nightshade",
    "tm:payback",
    "tm:phantomforce",
    "tm:playrough",
    "tm:pounce",
    "tm:protect",
    "tm:psychic",
    "tm:psychup",
    "tm:raindance",
    "tm:rest",
    "tm:return",
    "tm:round",
    "tm:safeguard",
    "tm:screech",
    "tm:shadowball",
    "tm:shadowclaw",
    "tm:sleeptalk",
    "tm:snore",
    "tm:substitute",
    "tm:sunnyday",
    "tm:swagger",
    "tm:swordsdance",
    "tm:takedown",
    "tm:taunt",
    "tm:terablast",
    "tm:thief",
    "tm:thunder",
    "tm:thunderbolt",
    "tm:thunderwave",
    "tm:toxic",
    "tm:trailblaze",
    "tm:trick",
    "tm:trickroom",
    "tm:willowisp",
    "tm:workup",
    "tm:xscissor",
    "tutor:afteryou",
    "tutor:burningjealousy",
    "tutor:covet",
    "tutor:lastresort",
    "tutor:snatch",
    "tutor:snatch",
    "tutor:spite",
    "tutor:telekinesis"
  ],
  "labels": [
    "gen7"
  ],
  "pokedex": [
    "cobblemon.species.mimikyu.desc"
  ],
  "evolutions": [],
  "baseScale": 0.7,
  "hitbox": {
    "width": 0.7,
    "height": 1,
    "fixed": false
  },
  "baseFriendship": 50,
  "evYield": {
    "hp": 0,
    "attack": 0,
    "defence": 0,
    "special_attack": 0,
    "special_defence": 2,
    "speed": 0
  },
  "height": 2,
  "weight": 7,
  "forms": [
    {
      "name": "Busted",
      "primaryType": "ghost",
      "secondaryType": "fairy",
      "abilities": [
        "disguise"
      ],
      "baseStats": {
        "hp": 55,
        "attack": 90,
        "defence": 80,
        "special_attack": 50,
        "special_defence": 105,
        "speed": 96
      },
      "catchRate": 45,
      "maleRatio": 0.5,
      "baseExperienceYield": 167,
      "baseFriendship": 50,
      "evYield": {
        "hp": 0,
        "attack": 0,
        "defence": 0,
        "special_attack": 0,
        "special_defence": 2,
        "speed": 0
      },
      "experienceGroup": "medium_fast",
      "eggCycles": 20,
      "eggGroups": [
        "amorphous"
      ],
      "moves": [],
      "labels": [
        "gen7"
      ],
      "aspects": [
        "busted"
      ],
      "height": 2,
      "weight": 7,
      "evolutions": [],
      "cannotDynamax": false,
      "battleOnly": true
    },
    {
      "name": "Totem",
      "primaryType": "ghost",
      "secondaryType": "fairy",
      "abilities": [
        "disguise"
      ],
      "baseStats": {
        "hp": 55,
        "attack": 90,
        "defence": 80,
        "special_attack": 50,
        "special_defence": 105,
        "speed": 96
      },
      "catchRate": 45,
      "maleRatio": 0.5,
      "baseExperienceYield": 167,
      "baseFriendship": 50,
      "evYield": {
        "hp": 0,
        "attack": 0,
        "defence": 0,
        "special_attack": 0,
        "special_defence": 2,
        "speed": 0
      },
      "experienceGroup": "medium_fast",
      "eggCycles": 20,
      "eggGroups": [
        "amorphous"
      ],
      "moves": [
        "1:astonish",
        "1:copycat",
        "1:scratch",
        "1:splash",
        "1:woodhammer",
        "5:doubleteam",
        "10:babydolleyes",
        "14:shadowsneak",
        "19:mimic",
        "23:feintattack",
        "28:charm",
        "32:slash",
        "37:shadowclaw",
        "41:honeclaws",
        "46:playrough",
        "50:painsplit",
        "tm:attract",
        "tm:bulkup",
        "tm:chargebeam",
        "tm:confide",
        "tm:darkpulse",
        "tm:dazzlinggleam",
        "tm:doubleteam",
        "tm:dreameater",
        "tm:embargo",
        "tm:facade",
        "tm:fling",
        "tm:frustration",
        "tm:hiddenpower",
        "tm:hyperbeam",
        "tm:infestation",
        "tm:leechlife",
        "tm:lightscreen",
        "tm:payback",
        "tm:protect",
        "tm:psychic",
        "tm:psychup",
        "tm:rest",
        "tm:return",
        "tm:round",
        "tm:safeguard",
        "tm:shadowball",
        "tm:shadowclaw",
        "tm:sleeptalk",
        "tm:substitute",
        "tm:swagger",
        "tm:swordsdance",
        "tm:taunt",
        "tm:thief",
        "tm:thunder",
        "tm:thunderbolt",
        "tm:thunderwave",
        "tm:toxic",
        "tm:trickroom",
        "tm:willowisp",
        "tm:workup",
        "tm:xscissor",
        "tutor:afteryou",
        "tutor:charm",
        "tutor:covet",
        "tutor:drainpunch",
        "tutor:feintattack",
        "tutor:gigadrain",
        "tutor:lastresort",
        "tutor:magicroom",
        "tutor:painsplit",
        "tutor:shadowclaw",
        "tutor:slash",
        "tutor:snatch",
        "tutor:snore",
        "tutor:spite",
        "tutor:telekinesis",
        "tutor:trick"
      ],
      "labels": [
        "gen7",
        "totem"
      ],
      "aspects": [
        "totem"
      ],
      "height": 4,
      "weight": 28,
      "evolutions": [],
      "cannotDynamax": false,
      "battleOnly": false
    },
    {
      "name": "Busted-Totem",
      "primaryType": "ghost",
      "secondaryType": "fairy",
      "abilities": [
        "disguise"
      ],
      "baseStats": {
        "hp": 55,
        "attack": 90,
        "defence": 80,
        "special_attack": 50,
        "special_defence": 105,
        "speed": 96
      },
      "catchRate": 45,
      "maleRatio": 0.5,
      "baseExperienceYield": 167,
      "baseFriendship": 50,
      "evYield": {
        "hp": 0,
        "attack": 0,
        "defence": 0,
        "special_attack": 0,
        "special_defence": 2,
        "speed": 0
      },
      "experienceGroup": "medium_fast",
      "eggCycles": 20,
      "eggGroups": [
        "amorphous"
      ],
      "moves": [],
      "labels": [
        "gen7",
        "totem"
      ],
      "aspects": [
        "busted-totem"
      ],
      "height": 4,
      "weight": 28,
      "evolutions": [],
      "cannotDynamax": false,
      "battleOnly": true
    }
  ],
  "aspects": [],
  "cannotDynamax": false
}