{
  "name": "Mudsdale",
  "nationalPokedexNumber": 750,
  "primaryType": "ground",
  "abilities": [
    "owntempo",
    "stamina",
    "h:innerfocus"
  ],
  "baseStats": {
    "hp": 100,
    "attack": 125,
    "defence": 100,
    "special_attack": 55,
    "special_defence": 85,
    "speed": 35
  },
  "catchRate": 60,
  "maleRatio": 0.5,
  "shoulderMountable": false,
  "baseExperienceYield": 175,
  "experienceGroup": "medium_fast",
  "eggCycles": 20,
  "eggGroups": [
    "field"
  ],
  "moves": [
    "1:doublekick",
    "1:irondefense",
    "1:mudslap",
    "1:mudsport",
    "1:rocksmash",
    "1:rototiller",
    "12:bulldoze",
    "16:stomp",
    "20:strength",
    "22:bide",
    "24:counter",
    "28:highhorsepower",
    "34:heavyslam",
    "40:earthquake",
    "46:megakick",
    "52:superpower",
    "tm:attract",
    "tm:bodypress",
    "tm:bodyslam",
    "tm:bulldoze",
    "tm:closecombat",
    "tm:confide",
    "tm:doubleteam",
    "tm:earthpower",
    "tm:earthquake",
    "tm:endure",
    "tm:facade",
    "tm:focusblast",
    "tm:frustration",
    "tm:gigaimpact",
    "tm:heavyslam",
    "tm:hiddenpower",
    "tm:hyperbeam",
    "tm:irondefense",
    "tm:ironhead",
    "tm:lowkick",
    "tm:lowsweep",
    "tm:mudshot",
    "tm:mudslap",
    "tm:payback",
    "tm:protect",
    "tm:rest",
    "tm:return",
    "tm:revenge",
    "tm:roar",
    "tm:rockslide",
    "tm:rocktomb",
    "tm:round",
    "tm:sandstorm",
    "tm:sandtomb",
    "tm:scaryface",
    "tm:sleeptalk",
    "tm:snore",
    "tm:stealthrock",
    "tm:stompingtantrum",
    "tm:stoneedge",
    "tm:substitute",
    "tm:sunnyday",
    "tm:swagger",
    "tm:takedown",
    "tm:terablast",
    "tm:toxic",
    "tutor:endeavor",
    "tutor:lashout"
  ],
  "labels": [
    "gen7"
  ],
  "pokedex": [
    "cobblemon.species.mudsdale.desc"
  ],
  "preEvolution": "mudbray",
  "evolutions": [],
  "baseScale": 1,
  "hitbox": {
    "width": 1,
    "height": 1,
    "fixed": false
  },
  "baseFriendship": 50,
  "evYield": {
    "hp": 0,
    "attack": 2,
    "defence": 0,
    "special_attack": 0,
    "special_defence": 0,
    "speed": 0
  },
  "height": 25,
  "weight": 9200,
  "aspects": [],
  "cannotDynamax": false
}