{
  "name": "Popplio",
  "nationalPokedexNumber": 728,
  "primaryType": "water",
  "abilities": [
    "torrent",
    "h:liquidvoice"
  ],
  "baseStats": {
    "hp": 50,
    "attack": 54,
    "defence": 54,
    "special_attack": 66,
    "special_defence": 56,
    "speed": 40
  },
  "catchRate": 45,
  "maleRatio": 0.875,
  "shoulderMountable": false,
  "baseExperienceYield": 64,
  "experienceGroup": "medium_slow",
  "eggCycles": 15,
  "eggGroups": [
    "water_1",
    "field"
  ],
  "moves": [
    "1:growl",
    "1:pound",
    "3:watergun",
    "6:disarmingvoice",
    "9:aquajet",
    "12:babydolleyes",
    "15:icywind",
    "18:sing",
    "21:bubblebeam",
    "24:encore",
    "27:mistyterrain",
    "29:doubleslap",
    "30:hypervoice",
    "33:moonblast",
    "36:hydropump",
    "39:captivate",
    "egg:aquaring",
    "egg:aromaticmist",
    "egg:lifedew",
    "egg:perishsong",
    "tm:acrobatics",
    "tm:amnesia",
    "tm:attract",
    "tm:blizzard",
    "tm:brine",
    "tm:charm",
    "tm:confide",
    "tm:dive",
    "tm:doubleteam",
    "tm:drainingkiss",
    "tm:echoedvoice",
    "tm:encore",
    "tm:endure",
    "tm:facade",
    "tm:frustration",
    "tm:hail",
    "tm:helpinghand",
    "tm:hiddenpower",
    "tm:hydropump",
    "tm:hypervoice",
    "tm:icebeam",
    "tm:icywind",
    "tm:irontail",
    "tm:mistyterrain",
    "tm:playrough",
    "tm:protect",
    "tm:raindance",
    "tm:rest",
    "tm:return",
    "tm:round",
    "tm:scald",
    "tm:sleeptalk",
    "tm:snore",
    "tm:substitute",
    "tm:surf",
    "tm:swagger",
    "tm:toxic",
    "tm:uproar",
    "tm:waterfall",
    "tm:whirlpool",
    "tm:wonderroom",
    "tm:workup",
    "tutor:aquatail",
    "tutor:covet",
    "tutor:flipturn",
    "tutor:tripleaxel",
    "tutor:waterpledge",
    "tutor:waterpulse"
  ],
  "labels": [
    "gen7"
  ],
  "pokedex": [
    "cobblemon.species.popplio.desc"
  ],
  "evolutions": [
    {
      "id": "popplio_brionne",
      "variant": "level_up",
      "result": "brionne",
      "consumeHeldItem": false,
      "learnableMoves": [],
      "requirements": [
        {
          "variant": "level",
          "minLevel": 17
        }
      ]
    }
  ],
  "baseScale": 1,
  "hitbox": {
    "width": 1,
    "height": 1,
    "fixed": false
  },
  "baseFriendship": 50,
  "evYield": {
    "hp": 0,
    "attack": 0,
    "defence": 0,
    "special_attack": 1,
    "special_defence": 0,
    "speed": 0
  },
  "height": 4,
  "weight": 75,
  "aspects": [],
  "cannotDynamax": false
}