{
  "name": "Tapu Koko",
  "nationalPokedexNumber": 785,
  "primaryType": "electric",
  "secondaryType": "fairy",
  "abilities": [
    "electricsurge",
    "h:telepathy"
  ],
  "baseStats": {
    "hp": 70,
    "attack": 115,
    "defence": 85,
    "special_attack": 95,
    "special_defence": 75,
    "speed": 130
  },
  "catchRate": 3,
  "maleRatio": -1,
  "shoulderMountable": false,
  "baseExperienceYield": 285,
  "experienceGroup": "slow",
  "eggCycles": 15,
  "eggGroups": [
    "undiscovered"
  ],
  "moves": [
    "1:quickattack",
    "1:thundershock",
    "5:withdraw",
    "10:fairywind",
    "15:falseswipe",
    "20:spark",
    "25:shockwave",
    "30:charge",
    "35:agility",
    "38:mirrormove",
    "40:screech",
    "45:discharge",
    "50:meanlook",
    "55:naturesmadness",
    "60:wildcharge",
    "65:bravebird",
    "70:powerswap",
    "75:electricterrain",
    "tm:acrobatics",
    "tm:aerialace",
    "tm:agility",
    "tm:assurance",
    "tm:bravebird",
    "tm:calmmind",
    "tm:confide",
    "tm:dazzlinggleam",
    "tm:doubleteam",
    "tm:echoedvoice",
    "tm:eerieimpulse",
    "tm:electricterrain",
    "tm:electroball",
    "tm:electroweb",
    "tm:endure",
    "tm:facade",
    "tm:falseswipe",
    "tm:fly",
    "tm:frustration",
    "tm:gigaimpact",
    "tm:grassknot",
    "tm:hiddenpower",
    "tm:hyperbeam",
    "tm:hypervoice",
    "tm:irondefense",
    "tm:ironhead",
    "tm:lightscreen",
    "tm:naturepower",
    "tm:powerswap",
    "tm:protect",
    "tm:psychup",
    "tm:raindance",
    "tm:reflect",
    "tm:rest",
    "tm:return",
    "tm:roar",
    "tm:roost",
    "tm:round",
    "tm:safeguard",
    "tm:screech",
    "tm:skydrop",
    "tm:sleeptalk",
    "tm:snore",
    "tm:steelwing",
    "tm:storedpower",
    "tm:substitute",
    "tm:swagger",
    "tm:swift",
    "tm:taunt",
    "tm:thief",
    "tm:thunder",
    "tm:thunderbolt",
    "tm:thunderpunch",
    "tm:thunderwave",
    "tm:torment",
    "tm:toxic",
    "tm:uturn",
    "tm:voltswitch",
    "tm:wildcharge",
    "tm:workup",
    "tutor:bravebird",
    "tutor:defog",
    "tutor:quickattack",
    "tutor:skyattack",
    "tutor:taunt",
    "tutor:telekinesis",
    "tutor:thunderbolt"
  ],
  "labels": [
    "gen7",
    "legendary"
  ],
  "pokedex": [
    "cobblemon.species.tapukoko.desc"
  ],
  "evolutions": [],
  "baseScale": 1,
  "hitbox": {
    "width": 1,
    "height": 1,
    "fixed": false
  },
  "baseFriendship": 50,
  "evYield": {
    "hp": 0,
    "attack": 0,
    "defence": 0,
    "special_attack": 0,
    "special_defence": 0,
    "speed": 3
  },
  "height": 18,
  "weight": 205,
  "aspects": [],
  "cannotDynamax": false
}