{
	"format_version": "1.8.0",
	"animations": {
		"animation.zubat.ground_idle": {
			"loop": true,
			"bones": {
				"body": {
					"rotation": ["36-25*(math.sin(q.anim_time*90*8*1)*0.2+1)", 0, 0],
					"position": [
						"math.clamp(math.sin(q.anim_time*90*4)*0.5,-0.1,0)+math.clamp(math.sin(q.anim_time*90*4)*0.5,0,0.1)+math.sin(q.anim_time*90*4)*0.5",
						"math.clamp(math.sin(q.anim_time*90*2)*1.2,-1,0)+math.clamp(math.sin(q.anim_time*90*2)*1.2,0,1)+math.sin(q.anim_time*90*2)*1",
						"math.sin(q.anim_time*90*2)*1"
					]
				},
				"mouth_closed": {
					"rotation": [0, 0, 0]
				},
				"rightear": {
					"rotation": ["36-40*(math.sin(q.anim_time*90*8*1)*0.2+1)", 0, 0]
				},
				"leftear": {
					"rotation": ["36-40*(math.sin(q.anim_time*90*8*1)*0.2+1)", 0, 0]
				},
				"rightwing": {
					"rotation": [0, "45-25*(math.sin(q.anim_time*90*8*3)*1.5+1)", 0]
				},
				"leftwing": {
					"rotation": [0, "-45+25*(math.sin(q.anim_time*90*8*3)*1.5+1)", 0]
				},
				"legs": {
					"rotation": ["36-40*(math.sin(q.anim_time*80*8*1)*0.2+1)", 0, 0]
				}
			}
		},
		"animation.zubat.ground_walk": {
			"loop": true,
			"bones": {
				"body": {
					"rotation": ["75-25*(math.sin(q.anim_time*90*8*1)*0.2+1)", 0, 0],
					"position": [
						"math.clamp(math.sin(q.anim_time*90*2)*0.5,-0.1,0)+math.clamp(math.sin(q.anim_time*90*2)*0.5,0,0.1)+math.sin(q.anim_time*90*3)*0.5",
						"math.clamp(math.sin(q.anim_time*90*2)*1.2,-1,0)+math.clamp(math.sin(q.anim_time*90*2)*1.2,0,1)+math.sin(q.anim_time*90*3)*1",
						"math.sin(q.anim_time*90*3)*1"
					]
				},
				"mouth_closed": {
					"rotation": [0, 0, 0]
				},
				"rightear": {
					"rotation": ["30-40*(math.sin(q.anim_time*90*8*1)*0.2+1)", 0, 0]
				},
				"leftear": {
					"rotation": ["30-40*(math.sin(q.anim_time*90*8*1)*0.2+1)", 0, 0]
				},
				"rightwing": {
					"rotation": [0, "45-25*(math.sin(q.anim_time*90*8*3)*1.5+1)", 0]
				},
				"leftwing": {
					"rotation": [0, "-45+25*(math.sin(q.anim_time*90*8*3)*1.5+1)", 0]
				},
				"legs": {
					"rotation": ["36-40*(math.sin(q.anim_time*80*8*1)*0.2+1)", 0, 0]
				}
			}
		}
	}
}