{
	"format_version": "1.12.0",
	"minecraft:geometry": [
		{
			"description": {
				"identifier": "geometry.porygonz",
				"texture_width": 64,
				"texture_height": 64,
				"visible_bounds_width": 3,
				"visible_bounds_height": 3.5,
				"visible_bounds_offset": [0, 1.25, 0]
			},
			"bones": [
				{
					"name": "porygon_z",
					"pivot": [0, 0, 0]
				},
				{
					"name": "body",
					"parent": "porygon_z",
					"pivot": [0, 13.5, 0],
					"cubes": [
						{"origin": [-3.5, 9, -3], "size": [7, 9, 6], "uv": [0, 14]}
					]
				},
				{
					"name": "head",
					"parent": "body",
					"pivot": [0, 23, 0],
					"cubes": [
						{"origin": [-3.5, 20, -4], "size": [7, 6, 8], "uv": [0, 0]},
						{"origin": [3.6, 20.75, -3.25], "size": [0, 4, 3], "pivot": [3.6, 22.25, -1.25], "rotation": [-2.5, 0, 0], "uv": [49, -3]},
						{"origin": [-3.6, 20.75, -3.25], "size": [0, 4, 3], "pivot": [-3.6, 22.25, -1.25], "rotation": [-2.5, 0, 0], "uv": [49, -3], "mirror": true},
						{"origin": [-0.5, 25.25, 0.5], "size": [1, 5, 2], "pivot": [0, 27.75, 1.5], "rotation": [-5, 0, 0], "uv": [0, 0]},
						{"origin": [-2, 21, -9], "size": [4, 2, 5], "uv": [21, 24]}
					]
				},
				{
					"name": "tail",
					"parent": "body",
					"pivot": [0, 9, 1],
					"cubes": [
						{"origin": [-1.5, 6, 0.5], "size": [3, 4, 1], "uv": [26, 19]},
						{"origin": [-2, 0, 0.5], "size": [4, 6, 1], "uv": [0, 29]}
					]
				},
				{
					"name": "leftarm",
					"parent": "body",
					"pivot": [3.5, 16, -0.5],
					"cubes": [
						{"origin": [3, 13.5, -0.5], "size": [11, 5, 0], "uv": [20, 14]}
					]
				},
				{
					"name": "rightarm",
					"parent": "body",
					"pivot": [-3.5, 16, -0.5],
					"cubes": [
						{"origin": [-14, 13.5, -0.5], "size": [11, 5, 0], "uv": [22, 0]}
					]
				}
			]
		}
	]
}