{
  "species": "cobblemon:deerling",
  "order": 0,
  "variations": [
    {
      "aspects": [],
      "poser": "cobblemon:deerling",
      "model": "cobblemon:deerling.geo",
      "texture": "cobblemon:textures/pokemon/0585_deerling/deerling_spring.png",
      "layers": []
    },
    {
      "aspects": [
        "autumn"
      ],
      "texture": "cobblemon:textures/pokemon/0585_deerling/deerling_autumn.png"
    },
    {
      "aspects": [
        "summer"
      ],
      "texture": "cobblemon:textures/pokemon/0585_deerling/deerling_summer.png"
    },
    {
      "aspects": [
        "winter"
      ],
      "texture": "cobblemon:textures/pokemon/0585_deerling/deerling_winter.png"
    }
  ]
}