{
	"format_version": "1.12.0",
	"minecraft:geometry": [
		{
			"description": {
				"identifier": "geometry.hitmonchan",
				"texture_width": 64,
				"texture_height": 64,
				"visible_bounds_width": 4,
				"visible_bounds_height": 4.5,
				"visible_bounds_offset": [0, 1.75, 0]
			},
			"bones": [
				{
					"name": "hitmonchan",
					"pivot": [0, 0, 0],
					"rotation": [0, 180, 0]
				},
				{
					"name": "body",
					"parent": "hitmonchan",
					"pivot": [0, 17, 0],
					"cubes": [
						{"origin": [-4, 14, -3], "size": [8, 6, 6], "uv": [0, 0]},
						{"origin": [-4.43314, 9.03781, -3.5], "size": [0, 5, 7], "inflate": 0.02, "pivot": [-4.43314, 11.53781, 0], "rotation": [0, 0, 10], "uv": [0, 25]},
						{"origin": [-4.5, 9.03781, 3.43314], "size": [9, 5, 0], "inflate": 0.02, "pivot": [-0.5, 11.53781, 3.43314], "rotation": [10, 0, 0], "uv": [38, 7]},
						{"origin": [4.43314, 9.03781, -3.5], "size": [0, 5, 7], "inflate": 0.02, "pivot": [4.43314, 11.53781, 0], "rotation": [0, 0, -10], "uv": [20, 20]},
						{"origin": [-4.5, 9.03798, -3.43412], "size": [9, 5, 0], "inflate": 0.02, "pivot": [-0.5, 11.53798, -3.43412], "rotation": [-10, 0, 0], "uv": [36, 16]},
						{"origin": [3.81618, 16.21028, -2.75], "size": [5, 4, 5], "pivot": [6.31618, 18.21028, -0.25], "rotation": [0, 0, -5], "uv": [0, 23]},
						{"origin": [-8.81618, 16.21028, -2.75], "size": [5, 4, 5], "pivot": [-6.31618, 18.21028, -0.25], "rotation": [0, 0, 5], "uv": [23, 7]}
					]
				},
				{
					"name": "head",
					"parent": "body",
					"pivot": [0, 19.5, 1],
					"cubes": [
						{"origin": [-3, 19, -2], "size": [6, 5, 6], "inflate": 0.02, "uv": [0, 12]},
						{"origin": [-1.5, 19.5, 4.125], "size": [3, 1, 0], "inflate": 0.02, "uv": [0, 63], "mirror": true},
						{"origin": [-3, 23.44867, -2.30172], "size": [6, 4, 6], "pivot": [0, 25.44867, 0.69828], "rotation": [10, 0, 0], "uv": [18, 17]}
					]
				},
				{
					"name": "eyes",
					"parent": "head",
					"pivot": [0, 22, 4.1],
					"cubes": [
						{"origin": [-2.75, 21, 4.1], "size": [2, 2, 0], "inflate": 0.02, "pivot": [-1.75, 22, 4.1], "rotation": [0, 0, 10], "uv": [0, 12], "mirror": true},
						{"origin": [0.75, 21, 4.1], "size": [2, 2, 0], "inflate": 0.02, "pivot": [1.75, 22, 4.1], "rotation": [0, 0, -10], "uv": [0, 12]}
					]
				},
				{
					"name": "leftarm",
					"parent": "body",
					"pivot": [-4, 18.25, 0],
					"cubes": [
						{"origin": [-9, 17.25, -1], "size": [6, 2, 2], "uv": [42, 0]}
					]
				},
				{
					"name": "leftforearm",
					"parent": "leftarm",
					"pivot": [-9, 18.25, -1],
					"cubes": [
						{"origin": [-14, 17.25, -1], "size": [5, 2, 2], "uv": [43, 12]}
					]
				},
				{
					"name": "lefthand",
					"parent": "leftforearm",
					"pivot": [-14, 18.25, 0],
					"cubes": [
						{"origin": [-19, 17, -1.75], "size": [5, 3, 4], "uv": [26, 35]}
					]
				},
				{
					"name": "rightarm",
					"parent": "body",
					"pivot": [4, 18.25, 0],
					"cubes": [
						{"origin": [3, 17.25, -1], "size": [6, 2, 2], "uv": [40, 35]}
					]
				},
				{
					"name": "rightforearm",
					"parent": "rightarm",
					"pivot": [9, 18.25, -1],
					"cubes": [
						{"origin": [9, 17.25, -1], "size": [5, 2, 2], "uv": [24, 42]}
					]
				},
				{
					"name": "righthand",
					"parent": "rightforearm",
					"pivot": [14, 18.25, 0],
					"cubes": [
						{"origin": [14, 17, -1.75], "size": [5, 3, 4], "uv": [28, 0]}
					]
				},
				{
					"name": "leftleg",
					"parent": "body",
					"pivot": [-2.25, 14, 0],
					"cubes": [
						{"origin": [-3.75, 8, -1.5], "size": [3, 7, 3], "uv": [12, 40]}
					]
				},
				{
					"name": "leftknee",
					"parent": "leftleg",
					"pivot": [-2.25, 8, 0],
					"cubes": [
						{"origin": [-3.75, 2, -1.5], "size": [3, 6, 3], "uv": [41, 39]}
					]
				},
				{
					"name": "leftfoot",
					"parent": "leftknee",
					"pivot": [-2.25, 2, 0],
					"cubes": [
						{"origin": [-3.75, 0, -1.75], "size": [3, 2, 6], "uv": [8, 32]}
					]
				},
				{
					"name": "rightleg",
					"parent": "body",
					"pivot": [2.25, 14, 0],
					"cubes": [
						{"origin": [0.75, 8, -1.5], "size": [3, 7, 3], "uv": [0, 40]}
					]
				},
				{
					"name": "rightknee",
					"parent": "rightleg",
					"pivot": [2.25, 8, 0],
					"cubes": [
						{"origin": [0.75, 2, -1.5], "size": [3, 6, 3], "uv": [40, 24]}
					]
				},
				{
					"name": "rightfoot",
					"parent": "rightknee",
					"pivot": [2.25, 2, 0],
					"cubes": [
						{"origin": [0.75, 0, -1.75], "size": [3, 2, 6], "uv": [28, 27]}
					]
				}
			]
		}
	]
}