{
  "name": "Morgrem",
  "nationalPokedexNumber": 860,
  "primaryType": "dark",
  "secondaryType": "fairy",
  "abilities": [
    "prankster",
    "frisk",
    "h:pickpocket"
  ],
  "baseStats": {
    "hp": 65,
    "attack": 60,
    "defence": 45,
    "special_attack": 75,
    "special_defence": 55,
    "speed": 70
  },
  "catchRate": 120,
  "maleRatio": 1,
  "shoulderMountable": false,
  "baseExperienceYield": 130,
  "experienceGroup": "medium_fast",
  "eggCycles": 20,
  "eggGroups": [
    "fairy",
    "human_like"
  ],
  "moves": [
    "1:bite",
    "1:confide",
    "1:fakeout",
    "1:flatter",
    "12:faketears",
    "16:assurance",
    "20:swagger",
    "24:suckerpunch",
    "28:torment",
    "35:darkpulse",
    "40:nastyplot",
    "46:playrough",
    "52:foulplay",
    "tm:attract",
    "tm:chillingwater",
    "tm:darkpulse",
    "tm:dazzlinggleam",
    "tm:drainingkiss",
    "tm:drainpunch",
    "tm:endure",
    "tm:facade",
    "tm:faketears",
    "tm:fling",
    "tm:foulplay",
    "tm:imprison",
    "tm:leechlife",
    "tm:lightscreen",
    "tm:lowkick",
    "tm:megakick",
    "tm:megapunch",
    "tm:metronome",
    "tm:mistyterrain",
    "tm:nastyplot",
    "tm:playrough",
    "tm:protect",
    "tm:reflect",
    "tm:rest",
    "tm:retaliate",
    "tm:revenge",
    "tm:round",
    "tm:scaryface",
    "tm:shadowclaw",
    "tm:sleeptalk",
    "tm:snore",
    "tm:substitute",
    "tm:takedown",
    "tm:taunt",
    "tm:terablast",
    "tm:thief",
    "tm:throatchop",
    "tm:thunderwave",
    "tm:trailblaze",
    "tm:trick",
    "tm:uproar",
    "tutor:burningjealousy",
    "tutor:lashout"
  ],
  "labels": [
    "gen8"
  ],
  "pokedex": [
    "cobblemon.species.morgrem.desc"
  ],
  "preEvolution": "impidimp",
  "evolutions": [
    {
      "id": "morgrem_grimmsnarl",
      "variant": "level_up",
      "result": "grimmsnarl",
      "consumeHeldItem": false,
      "learnableMoves": [
        "spiritbreak"
      ],
      "requirements": [
        {
          "variant": "level",
          "minLevel": 42
        }
      ]
    }
  ],
  "baseScale": 1,
  "hitbox": {
    "width": 1,
    "height": 1,
    "fixed": false
  },
  "baseFriendship": 50,
  "evYield": {
    "hp": 0,
    "attack": 0,
    "defence": 0,
    "special_attack": 2,
    "special_defence": 0,
    "speed": 0
  },
  "height": 8,
  "weight": 125,
  "aspects": [],
  "cannotDynamax": false
}