{
  "name": "Regieleki",
  "nationalPokedexNumber": 894,
  "primaryType": "electric",
  "abilities": [
    "transistor"
  ],
  "baseStats": {
    "hp": 80,
    "attack": 100,
    "defence": 50,
    "special_attack": 100,
    "special_defence": 50,
    "speed": 200
  },
  "catchRate": 3,
  "maleRatio": -1,
  "shoulderMountable": false,
  "baseExperienceYield": 290,
  "experienceGroup": "slow",
  "eggCycles": 120,
  "eggGroups": [
    "undiscovered"
  ],
  "moves": [
    "1:rapidspin",
    "1:thundershock",
    "6:electroweb",
    "12:ancientpower",
    "18:shockwave",
    "24:thunderwave",
    "30:extremespeed",
    "36:thundercage",
    "42:thunderbolt",
    "48:magnetrise",
    "54:thrash",
    "60:lockon",
    "66:zapcannon",
    "72:hyperbeam",
    "78:explosion",
    "tm:acrobatics",
    "tm:agility",
    "tm:assurance",
    "tm:bodyslam",
    "tm:bounce",
    "tm:chargebeam",
    "tm:eerieimpulse",
    "tm:electricterrain",
    "tm:electroball",
    "tm:endure",
    "tm:facade",
    "tm:gigaimpact",
    "tm:hyperbeam",
    "tm:lightscreen",
    "tm:protect",
    "tm:raindance",
    "tm:reflect",
    "tm:rest",
    "tm:round",
    "tm:screech",
    "tm:selfdestruct",
    "tm:sleeptalk",
    "tm:snore",
    "tm:substitute",
    "tm:swift",
    "tm:takedown",
    "tm:terablast",
    "tm:thunder",
    "tm:thunderbolt",
    "tm:thunderwave",
    "tm:voltswitch",
    "tm:wildcharge",
    "tutor:risingvoltage"
  ],
  "labels": [
    "gen8",
    "legendary"
  ],
  "pokedex": [
    "cobblemon.species.regieleki.desc"
  ],
  "evolutions": [],
  "baseScale": 1,
  "hitbox": {
    "width": 1,
    "height": 1,
    "fixed": false
  },
  "baseFriendship": 35,
  "evYield": {
    "hp": 0,
    "attack": 0,
    "defence": 0,
    "special_attack": 0,
    "special_defence": 0,
    "speed": 3
  },
  "height": 12,
  "weight": 1450,
  "aspects": [],
  "cannotDynamax": false
}