{
	"format_version": "1.12.0",
	"minecraft:geometry": [
		{
			"description": {
				"identifier": "geometry.ponyta",
				"texture_width": 64,
				"texture_height": 64,
				"visible_bounds_width": 4,
				"visible_bounds_height": 2.5,
				"visible_bounds_offset": [0, 0.75, 0]
			},
			"bones": [
				{
					"name": "ponyta",
					"pivot": [0, 0, 0]
				},
				{
					"name": "body",
					"parent": "ponyta",
					"pivot": [0, 9, 0],
					"cubes": [
						{"origin": [-3, 6, -6], "size": [6, 6, 12], "uv": [0, 0]},
						{"origin": [0, 12, -1], "size": [0, 2, 7], "inflate": 0.02, "uv": [0, 18]}
					]
				},
				{
					"name": "tail",
					"parent": "body",
					"pivot": [0, 11.25, 6],
					"cubes": [
						{"origin": [0, 7.75, 6], "size": [0, 7, 10], "inflate": 0.02, "uv": [0, 8]}
					]
				},
				{
					"name": "neck",
					"parent": "body",
					"pivot": [0, 9, -4.25],
					"rotation": [10, 0, 0],
					"cubes": [
						{"origin": [0, 11, -2.25], "size": [0, 3, 2], "inflate": 0.02, "uv": [8, 4]},
						{"origin": [-2, 8, -6.25], "size": [4, 7, 4], "uv": [24, 0]}
					]
				},
				{
					"name": "head",
					"parent": "neck",
					"pivot": [0, 13.975, -4.26039],
					"cubes": [
						{"origin": [0, 14, -2], "size": [0, 4, 2], "inflate": 0.02, "uv": [8, 0]},
						{"origin": [2.05, 15, -6.75], "size": [0, 2, 3], "inflate": 0.02, "pivot": [2.05, 16, -5.25], "rotation": [10, 0, 0], "uv": [57, -1]},
						{"origin": [-2.05, 15, -6.75], "size": [0, 2, 3], "inflate": 0.02, "pivot": [-2.05, 16, -5.25], "rotation": [10, 0, 0], "uv": [57, -1], "mirror": true},
						{"origin": [-2, 14, -7], "size": [4, 4, 5], "inflate": 0.02, "uv": [15, 20]},
						{"origin": [-1.5, 13.75, -9.75], "size": [3, 3, 3], "pivot": [-0.5, 15.75, -8.75], "rotation": [10, 0, 0], "uv": [24, 29]}
					]
				},
				{
					"name": "headfluff",
					"parent": "head",
					"pivot": [0, 18.88334, -1.78394],
					"rotation": [5, 0, 0],
					"cubes": [
						{"origin": [-1.5, 19.01667, -1.56789], "size": [3, 0, 4], "inflate": 0.02, "pivot": [0, 19.01667, 0.43211], "rotation": [15, 0, 0], "uv": [24, 18]},
						{"origin": [-1.5, 17.75, -6.5], "size": [3, 2, 5], "uv": [0, 27]},
						{"origin": [-1.25, 18.90704, -8.61435], "size": [2, 0, 2], "inflate": 0.02, "pivot": [-0.5, 19.40704, -7.43935], "rotation": [20, 0, 0], "uv": [4, 0]}
					]
				},
				{
					"name": "leftear",
					"parent": "head",
					"pivot": [1.769, 17.02, -3.77],
					"rotation": [0, 10, 40],
					"cubes": [
						{"origin": [1.769, 17.02, -5.27], "size": [0, 4, 3], "inflate": 0.02, "uv": [6, 37]}
					]
				},
				{
					"name": "rightear",
					"parent": "head",
					"pivot": [-1.769, 17.02, -3.77],
					"rotation": [0, -10, -40],
					"cubes": [
						{"origin": [-1.769, 17.02, -5.27], "size": [0, 4, 3], "inflate": 0.02, "uv": [32, 37]}
					]
				},
				{
					"name": "rightfrontleg",
					"parent": "body",
					"pivot": [-2.5, 9, -4],
					"cubes": [
						{"origin": [-3.5, 0, -5], "size": [2, 10, 2], "uv": [0, 0]}
					]
				},
				{
					"name": "rightfrontfire",
					"parent": "rightfrontleg",
					"pivot": [-3.5, 6.5, -3.75],
					"cubes": [
						{"origin": [-3.8473, 4, -3.78038], "size": [0, 5, 3], "inflate": 0.02, "pivot": [-3.8473, 3.5, -1.78038], "rotation": [0, -10, 0], "uv": [0, 37], "mirror": true}
					]
				},
				{
					"name": "leftfrontleg",
					"parent": "body",
					"pivot": [2.5, 9, -4],
					"cubes": [
						{"origin": [1.5, 0, -5], "size": [2, 10, 2], "uv": [16, 29]}
					]
				},
				{
					"name": "leftfrontfire",
					"parent": "leftfrontleg",
					"pivot": [3.5, 6.5, -3.75],
					"cubes": [
						{"origin": [3.8473, 4, -3.78038], "size": [0, 5, 3], "inflate": 0.02, "pivot": [3.8473, 3.5, -1.78038], "rotation": [0, 10, 0], "uv": [0, 37]}
					]
				},
				{
					"name": "rightbackleg",
					"parent": "body",
					"pivot": [-2.5, 9, 4.25],
					"cubes": [
						{"origin": [-3.5, 5, 2.75], "size": [2, 5, 3], "uv": [33, 19]},
						{"origin": [-3.5, 0, 3.75], "size": [2, 5, 2], "uv": [24, 35]}
					]
				},
				{
					"name": "rightbackfire",
					"parent": "rightbackleg",
					"pivot": [-3.5, 7, 4.5],
					"cubes": [
						{"origin": [-3.8473, 4.5, 4.46962], "size": [0, 6, 4], "inflate": 0.02, "pivot": [-3.8473, 4, 6.46962], "rotation": [0, -10, 0], "uv": [8, 30]}
					]
				},
				{
					"name": "leftbackfire",
					"parent": "rightbackleg",
					"pivot": [3.5, 7, 4.5],
					"cubes": [
						{"origin": [3.8473, 4.5, 4.46962], "size": [0, 6, 4], "inflate": 0.02, "pivot": [3.8473, 4, 6.46962], "rotation": [0, 10, 0], "uv": [8, 30], "mirror": true}
					]
				},
				{
					"name": "leftbackleg",
					"parent": "body",
					"pivot": [2.5, 9, 4.25],
					"cubes": [
						{"origin": [1.5, 5, 2.75], "size": [2, 5, 3], "uv": [33, 32]},
						{"origin": [1.5, 0, 3.75], "size": [2, 5, 2], "uv": [36, 11]}
					]
				}
			]
		}
	]
}