{
	"format_version": "1.8.0",
	"animations": {
		"animation.kleavor.ground_idle": {
			"loop": true,
			"bones": {
				"neck": {
					"rotation": [-10, 0, 0]
				},
				"leftarm": {
					"rotation": [20, 0, 0]
				},
				"leftforearm": {
					"rotation": [0, 20, 0]
				},
				"lefthand": {
					"rotation": [0, 60, 0]
				},
				"rightarm": {
					"rotation": [20, 0, 0]
				},
				"rightforearm": {
					"rotation": [0, -20, 0]
				},
				"righthand": {
					"rotation": [0, -60, 0]
				}
			}
		}
	}
}