{
    "enabled": true,
    "neededInstalledMods": [],
    "neededUninstalledMods": [],
    "spawns": [
        {
            "id": "spearow-1",
            "pokemon": "spearow",
            "type": "pokemon",
            "context": "grounded",
            "bucket": "common",
            "level": "4-26",
            "weight": 9.0,
            "condition": {
                "canSeeSky": true,
                "biomes": [
                    "#cobblemon:is_badlands",
                    "#cobblemon:is_savanna",
                    "#cobblemon:is_sky"
                ],
                "timeRange": "day",
                "isRaining": false
            }
        }
    ]
}