{
    "enabled": true,
    "neededInstalledMods": [],
    "neededUninstalledMods": [],
    "spawns": [
        {
            "id": "ninetales-1",
            "pokemon": "ninetales",
            "type": "pokemon",
            "context": "grounded",
            "bucket": "uncommon",
            "level": "31-50",
            "weight": 0.06,
            "condition": {
                "canSeeSky": true,
                "biomes": [
                    "#cobblemon:is_forest"
                ],
                "timeRange": "twilight"
            },
            "anticondition": {
                "biomes": [
                    "#cobblemon:is_freezing"
                ]
            }
        },
        {
            "id": "ninetales-alolan-1",
            "pokemon": "ninetales alolan",
            "type": "pokemon",
            "context": "grounded",
            "bucket": "uncommon",
            "level": "31-50",
            "weight": 0.06,
            "condition": {
                "canSeeSky": true,
                "biomes": [
                    "#cobblemon:is_snowy"
                ],
                "timeRange": "twilight"
            }
        }
    ]
}