{
    "enabled": true,
    "neededInstalledMods": [],
    "neededUninstalledMods": [],
    "spawns": [
        {
            "id": "golduck-1",
            "pokemon": "golduck",
            "presets": [
                "freshwater"
            ],
            "type": "pokemon",
            "context": "grounded",
            "bucket": "common",
            "level": "33-50",
            "weight": 0.6,
            "condition": {
                "canSeeSky": true
            }
        },
        {
            "id": "golduck-2",
            "pokemon": "golduck",
            "presets": [
                "freshwater",
                "underwater"
            ],
            "type": "pokemon",
            "context": "submerged",
            "bucket": "common",
            "level": "33-50",
            "weight": 0.6,
            "condition": {
                "canSeeSky": true
            }
        }
    ]
}