{
    "enabled": true,
    "neededInstalledMods": [],
    "neededUninstalledMods": [],
    "spawns": [
        {
            "id": "machoke-1",
            "pokemon": "machoke",
            "type": "pokemon",
            "context": "grounded",
            "bucket": "common",
            "level": "28-40",
            "weight": 0.54,
            "condition": {
                "canSeeSky": true,
                "biomes": [
                    "#cobblemon:is_hills"
                ],
                "timeRange": "day"
            }
        }
    ]
}