{
    "enabled": true,
    "neededInstalledMods": [],
    "neededUninstalledMods": [],
    "spawns": [
        {
            "id": "rapidash-1",
            "pokemon": "rapidash",
            "type": "pokemon",
            "context": "grounded",
            "bucket": "uncommon",
            "level": "40-50",
            "weight": 0.6,
            "condition": {
                "canSeeSky": true,
                "biomes": [
                    "#cobblemon:is_grassland"
                ],
                "timeRange": "day",
                "isRaining": false
            }
        },
        {
            "id": "rapidash-2",
            "pokemon": "rapidash",
            "type": "pokemon",
            "context": "grounded",
            "bucket": "uncommon",
            "level": "40-50",
            "weight": 0.6,
            "condition": {
                "biomes": [
                    "minecraft:nether_wastes"
                ]
            }
        }
    ]
}