{
    "enabled": true,
    "neededInstalledMods": [],
    "neededUninstalledMods": [],
    "spawns": [
        {
            "id": "krabby-1",
            "pokemon": "krabby",
            "type": "pokemon",
            "context": "grounded",
            "bucket": "common",
            "level": "4-32",
            "weight": 9.0,
            "condition": {
                "canSeeSky": true,
                "biomes": [
                    "#cobblemon:is_coast"
                ]
            }
        }
    ]
}