{
    "enabled": true,
    "neededInstalledMods": [],
    "neededUninstalledMods": [],
    "spawns": [
        {
            "id": "rhydon-1",
            "pokemon": "rhydon",
            "type": "pokemon",
            "context": "grounded",
            "bucket": "common",
            "level": "42-48",
            "weight": 0.18,
            "condition": {
                "canSeeSky": true,
                "biomes": [
                    "#cobblemon:is_savanna"
                ],
                "timeRange": "day"
            }
        }
    ]
}