{
    "enabled": true,
    "neededInstalledMods": [],
    "neededUninstalledMods": [],
    "spawns": [
        {
            "id": "pinsir-1",
            "pokemon": "pinsir",
            "type": "pokemon",
            "context": "grounded",
            "bucket": "rare",
            "level": "20-50",
            "weight": 10.0,
            "condition": {
                "canSeeSky": true,
                "biomes": [
                    "#cobblemon:is_jungle"
                ],
                "timeRange": "day"
            }
        }
    ]
}