{
    "enabled": true,
    "neededInstalledMods": [],
    "neededUninstalledMods": [],
    "spawns": [
        {
            "id": "natu-1",
            "pokemon": "natu",
            "type": "pokemon",
            "context": "grounded",
            "bucket": "uncommon",
            "level": "10-32",
            "weight": 9.0,
            "condition": {
                "canSeeSky": true,
                "biomes": [
                    "#cobblemon:is_badlands",
                    "#cobblemon:is_plateau"
                ],
                "timeRange": "day"
			}
        }
    ]
}