{
    "enabled": true,
    "neededInstalledMods": [],
    "neededUninstalledMods": [],
    "spawns": [
        {
            "id": "buneary-1",
            "pokemon": "buneary",
            "type": "pokemon",
            "context": "grounded",
            "bucket": "common",
            "level": "8-35",
            "weight": 9.9,
            "condition": {
                "canSeeSky": true,
                "biomes": [
                    "#cobblemon:is_forest",
                    "#cobblemon:is_hills"
                ]
            }
        }
    ]
}