{
    "enabled": true,
    "neededInstalledMods": [],
    "neededUninstalledMods": [],
    "spawns": [
        {
            "id": "munchlax-1",
            "pokemon": "munchlax",
            "type": "pokemon",
            "context": "grounded",
            "bucket": "rare",
            "level": "12-39",
            "weight": 1.0,
            "condition": {
                "canSeeSky": true,
                "biomes": [
                    "#cobblemon:is_forest",
                    "#cobblemon:is_hills"
                ]
            }
        }
    ]
}