{
    "enabled": true,
    "neededInstalledMods": [],
    "neededUninstalledMods": [],
    "spawns": [
        {
            "id": "torracat-1",
            "pokemon": "torracat",
            "type": "pokemon",
            "context": "grounded",
            "bucket": "ultra-rare",
            "level": "17-33",
            "weight": 0.9,
            "condition": {
                "canSeeSky": true,
                "biomes": [
                    "#cobblemon:is_jungle"
                ],
                "isRaining": false
            }
        }
    ]
}