{
	"format_version": "1.8.0",
	"animations": {
		"animation.kadabra.ground_idle": {
			"loop": true,
			"bones": {
				"mustache_right2": {
					"rotation": [0, 0, 0]
				},
				"mustache_left2": {
					"rotation": [0, 0, 0]
				},
				"arm_right": {
					"rotation": [-22.5, 0, 22.5]
				},
				"arm_right2": {
					"rotation": [-65.5, 0, 0]
				},
				"finger_index_right": {
					"rotation": [0, 0, -23.5]
				},
				"finger_index_right2": {
					"rotation": [10, 0, -79.5]
				},
				"finger_pinky_right": {
					"rotation": [0, 0, -24.5]
				},
				"finger_pinky_right2": {
					"rotation": [-5, 0, -82]
				},
				"thumb_right": {
					"rotation": [-71, 0, 0]
				},
				"thumb_right2": {
					"rotation": [-10, 0, 0]
				},
				"arm_left": {
					"rotation": [-22.5, 0, 0]
				},
				"arm_left2": {
					"rotation": [-43, 0, 0]
				},
				"hand_left": {
					"rotation": [0, 45, 0]
				},
				"finger_index_left": {
					"rotation": [0, 0, -67.5]
				},
				"finger_index_left2": {
					"rotation": [0, 0, 45]
				},
				"finger_pinky_left": {
					"rotation": [31.7091, -23.78348, -50.2998]
				},
				"finger_pinky_left2": {
					"rotation": [0, 0, 45]
				},
				"thumb_left": {
					"rotation": [-67.5, 0, 0]
				},
				"thumb_left2": {
					"rotation": [45, 0, 0]
				},
				"leg_right": {
					"rotation": [0, 0, 0]
				}
			}
		}
	}
}