{
	"format_version": "1.12.0",
	"minecraft:geometry": [
		{
			"description": {
				"identifier": "geometry.hitmontop",
				"texture_width": 64,
				"texture_height": 64,
				"visible_bounds_width": 4,
				"visible_bounds_height": 3.5,
				"visible_bounds_offset": [0, 1.25, 0]
			},
			"bones": [
				{
					"name": "hitmontop",
					"pivot": [0, 0, 0]
				},
				{
					"name": "body",
					"parent": "hitmontop",
					"pivot": [0, 11.5, 0],
					"cubes": [
						{"origin": [-3.5, 8, -3.5], "size": [7, 7, 7], "uv": [0, 15]}
					]
				},
				{
					"name": "head",
					"parent": "body",
					"pivot": [0, 15, 0],
					"cubes": [
						{"origin": [-5, 15, -4], "size": [10, 7, 8], "uv": [0, 0]},
						{"origin": [-5, 21.66147, -4.86796], "size": [10, 0, 1], "pivot": [0, 21.66147, -4.36796], "rotation": [42.5, 0, 0], "uv": [-1, 63]},
						{"origin": [-5, 21.66147, 3.86796], "size": [10, 0, 1], "pivot": [0, 21.66147, 4.36796], "rotation": [-42.5, 0, 0], "uv": [-1, 62]},
						{"origin": [6.74913, 14.46841, -4.5], "size": [0, 8, 9], "pivot": [6.74913, 18.96841, 0.5], "rotation": [0, 0, -30], "uv": [0, 20]},
						{"origin": [-1, 22, -1], "size": [2, 2, 2], "uv": [34, 39]},
						{"origin": [-0.5, 23.5, -0.5], "size": [1, 2, 1], "uv": [28, 0]},
						{"origin": [-6.74913, 14.46841, -4.5], "size": [0, 8, 9], "pivot": [-6.74913, 18.96841, 0.5], "rotation": [0, 0, 30], "uv": [18, 20]},
						{"origin": [-2, 15.75, -4], "size": [4, 1, 0], "inflate": 0.02, "uv": [54, 4], "mirror": true}
					]
				},
				{
					"name": "eyes",
					"parent": "head",
					"pivot": [0, 18.75, -4],
					"cubes": [
						{"origin": [1.25, 17.5, -4], "size": [2, 2, 0], "inflate": 0.02, "uv": [58, 0], "mirror": true},
						{"origin": [-3.25, 17.5, -4], "size": [2, 2, 0], "inflate": 0.02, "uv": [58, 0]}
					]
				},
				{
					"name": "pupils",
					"parent": "eyes",
					"pivot": [0, 18.5, -4],
					"cubes": [
						{"origin": [1.25, 17.75, -4], "size": [1, 1, 0], "inflate": 0.04, "uv": [62, 3], "mirror": true},
						{"origin": [-2.25, 17.75, -4], "size": [1, 1, 0], "inflate": 0.04, "uv": [62, 3]}
					]
				},
				{
					"name": "tail",
					"parent": "body",
					"pivot": [0, 9, 3.5],
					"cubes": [
						{"origin": [-0.5, 8.5, 2.5], "size": [1, 1, 4], "uv": [36, 23]}
					]
				},
				{
					"name": "tail2",
					"parent": "tail",
					"pivot": [0, 9, 6.5],
					"cubes": [
						{"origin": [-0.5, 8.5, 6.5], "size": [1, 1, 3], "uv": [38, 0]}
					]
				},
				{
					"name": "tail3",
					"parent": "tail2",
					"pivot": [0, 9, 9.5],
					"cubes": [
						{"origin": [-1, 8, 9.5], "size": [2, 2, 2], "uv": [28, 37]},
						{"origin": [0, 8.5, 11.25], "size": [0, 1, 2], "uv": [0, 19]}
					]
				},
				{
					"name": "leftarm",
					"parent": "body",
					"pivot": [3.5, 14.5, 0],
					"cubes": [
						{"origin": [3.5, 12.5, -1], "size": [4, 2, 2], "inflate": 0.01, "uv": [34, 35]}
					]
				},
				{
					"name": "leftforearm",
					"parent": "leftarm",
					"pivot": [7.5, 13.5, 1],
					"cubes": [
						{"origin": [7.5, 12.5, -1], "size": [3, 2, 2], "uv": [0, 37]}
					]
				},
				{
					"name": "lefthand",
					"parent": "leftforearm",
					"pivot": [10.5, 13.5, 0],
					"cubes": [
						{"origin": [10.5, 12, -1.5], "size": [3, 3, 3], "uv": [28, 21]}
					]
				},
				{
					"name": "rightarm",
					"parent": "body",
					"pivot": [-3.5, 14.5, 0],
					"cubes": [
						{"origin": [-7.5, 12.5, -1], "size": [4, 2, 2], "inflate": 0.01, "uv": [36, 6]}
					]
				},
				{
					"name": "rightforearm",
					"parent": "rightarm",
					"pivot": [-7.5, 13.5, 1],
					"cubes": [
						{"origin": [-10.5, 12.5, -1], "size": [3, 2, 2], "uv": [10, 37]}
					]
				},
				{
					"name": "righthand",
					"parent": "rightforearm",
					"pivot": [-10.5, 13.5, 0],
					"cubes": [
						{"origin": [-13.5, 12, -1.5], "size": [3, 3, 3], "uv": [33, 12]}
					]
				},
				{
					"name": "leftleg",
					"parent": "body",
					"pivot": [2.25, 8.5, 0],
					"cubes": [
						{"origin": [1.25, 5, -1], "size": [2, 4, 2], "uv": [0, 0]}
					]
				},
				{
					"name": "leftknee",
					"parent": "leftleg",
					"pivot": [2.25, 5, -1],
					"cubes": [
						{"origin": [1.25, 2, -1], "size": [2, 3, 2], "uv": [37, 18]}
					]
				},
				{
					"name": "leftfoot",
					"parent": "leftknee",
					"pivot": [2.25, 2, 0],
					"cubes": [
						{"origin": [0.75, 0, -2.25], "size": [3, 2, 4], "uv": [21, 15]},
						{"origin": [3.17266, 0, -4.23498], "size": [0, 2, 2], "pivot": [3.17266, 1, -3.23498], "rotation": [0, -10, 0], "uv": [0, 13]},
						{"origin": [1.32734, 0, -4.23498], "size": [0, 2, 2], "pivot": [1.32734, 1, -3.23498], "rotation": [0, 10, 0], "uv": [4, 4]},
						{"origin": [2.25, 0, 1.75], "size": [0, 2, 2], "uv": [0, 4]}
					]
				},
				{
					"name": "rightleg",
					"parent": "body",
					"pivot": [-2.25, 8.5, 0],
					"cubes": [
						{"origin": [-3.25, 5, -1], "size": [2, 4, 2], "uv": [36, 28]}
					]
				},
				{
					"name": "rightknee",
					"parent": "rightleg",
					"pivot": [-2.25, 5, -1],
					"cubes": [
						{"origin": [-3.25, 2, -1], "size": [2, 3, 2], "uv": [20, 37]}
					]
				},
				{
					"name": "rightfoot",
					"parent": "rightknee",
					"pivot": [-2.25, 2, 0],
					"cubes": [
						{"origin": [-3.75, 0, -2.25], "size": [3, 2, 4], "uv": [28, 0]},
						{"origin": [-3.17266, 0, -4.23498], "size": [0, 2, 2], "pivot": [-3.17266, 1, -3.23498], "rotation": [0, 10, 0], "uv": [0, 17]},
						{"origin": [-1.32734, 0, -4.23498], "size": [0, 2, 2], "pivot": [-1.32734, 1, -3.23498], "rotation": [0, -10, 0], "uv": [0, 15]},
						{"origin": [-2.25, 0, 1.75], "size": [0, 2, 2], "uv": [21, 13]}
					]
				}
			]
		}
	]
}