{
	"format_version": "1.8.0",
	"animations": {
		"animation.aerodactyl.ground_idle": {
			"loop": true,
			"bones": {
				"torso": {
					"rotation": [-30, 0, 0]
				},
				"neck": {
					"rotation": [15, 0, 0]
				},
				"head": {
					"rotation": [20, 0, 0]
				},
				"jaw": {
					"rotation": [2.5, 0, 0]
				},
				"tail": {
					"rotation": [15, 0, 0]
				},
				"tail2": {
					"rotation": [15, 0, 0]
				},
				"tail3": {
					"rotation": [15, 0, 0]
				},
				"tail4": {
					"rotation": [15, 0, 0]
				},
				"tail5": {
					"rotation": [15, 0, 0]
				},
				"leftleg": {
					"rotation": [-15, 0, 0]
				},
				"leftankle": {
					"rotation": [35, 0, 0]
				},
				"leftfoot": {
					"rotation": [-20, 0, 0]
				},
				"rightleg": {
					"rotation": [-15, 0, 0]
				},
				"rightankle": {
					"rotation": [35, 0, 0]
				},
				"rightfoot": {
					"rotation": [-20, 0, 0]
				},
				"leftarm": {
					"rotation": [15, -45, 65]
				},
				"leftforearm": {
					"rotation": [0, 15, -145]
				},
				"handleft": {
					"rotation": [-75, 75, 0]
				},
				"finger4": {
					"rotation": [0, 0, 60]
				},
				"finger5": {
					"rotation": [0, 0, 45]
				},
				"finger6": {
					"rotation": [0, 0, 60]
				},
				"rightarm": {
					"rotation": [15, 45, -65]
				},
				"rightforearm": {
					"rotation": [0, -15, 145]
				},
				"handright": {
					"rotation": [-75, -75, 0]
				},
				"finger": {
					"rotation": [0, 0, -60]
				},
				"finger2": {
					"rotation": [0, 0, -45]
				},
				"finger3": {
					"rotation": [0, 0, -60]
				},
				"body": {
					"position": [0, -0.25, 0]
				}
			}
		},
		"animation.aerodactyl.air_idle": {
			"loop": true,
			"bones": {
				"torso": {
					"rotation": [-15, 0, 0]
				},
				"neck": {
					"rotation": [7.5, 0, 0]
				},
				"head": {
					"rotation": [15, 0, 0]
				},
				"jaw": {
					"rotation": [15, 0, 0]
				},
				"tail": {
					"rotation": [5, 0, 0]
				},
				"tail2": {
					"rotation": [5, 0, 0]
				},
				"tail3": {
					"rotation": [5, 0, 0]
				},
				"tail4": {
					"rotation": [5, 0, 0]
				},
				"tail5": {
					"rotation": [5, 0, 0]
				},
				"leftleg": {
					"rotation": [15, 0, 0]
				},
				"leftankle": {
					"rotation": [75, 0, 0]
				},
				"leftfoot": {
					"rotation": [30, 0, 0]
				},
				"rightleg": {
					"rotation": [15, 0, 0]
				},
				"rightankle": {
					"rotation": [75, 0, 0]
				},
				"rightfoot": {
					"rotation": [30, 0, 0]
				},
				"leftarm": {
					"rotation": [-15, -15, -30]
				},
				"leftforearm": {
					"rotation": [0, 30, 30]
				},
				"rightarm": {
					"rotation": [-15, 15, 30]
				},
				"rightforearm": {
					"rotation": [0, -30, -30]
				}
			}
		},
		"animation.aerodactyl.air_fly": {
			"loop": true,
			"bones": {
				"torso": {
					"rotation": [-5, 0, 0]
				},
				"neck": {
					"rotation": [5, 0, 0]
				},
				"head": {
					"rotation": [5, 0, 0]
				},
				"jaw": {
					"rotation": [2.5, 0, 0]
				},
				"tail": {
					"rotation": [2.5, 0, 0]
				},
				"tail2": {
					"rotation": [2.5, 0, 0]
				},
				"tail3": {
					"rotation": [2.5, 0, 0]
				},
				"tail4": {
					"rotation": [2.5, 0, 0]
				},
				"tail5": {
					"rotation": [2.5, 0, 0]
				},
				"leftleg": {
					"rotation": [30, 0, 0]
				},
				"leftankle": {
					"rotation": [75, 0, 0]
				},
				"leftfoot": {
					"rotation": [30, 0, 0]
				},
				"rightleg": {
					"rotation": [30, 0, 0]
				},
				"rightankle": {
					"rotation": [75, 0, 0]
				},
				"rightfoot": {
					"rotation": [30, 0, 0]
				},
				"leftarm": {
					"rotation": [0, -7.5, -15]
				},
				"leftforearm": {
					"rotation": [0, 15, 15]
				},
				"rightarm": {
					"rotation": [0, 7.5, 15]
				},
				"rightforearm": {
					"rotation": [0, -15, -15]
				}
			}
		}
	}
}