{
  "required": true,
  "package": "com.cobblemon.mod.common.mixin",
  "compatibilityLevel": "JAVA_16",
  "minVersion": "0.8",
  "client": [
    "BuiltinModelItemRendererMixin",
    "EntityRenderDispatcherMixin",
    "GameRendererMixin",
    "accessor.KeyBindingAccessor",
    "pokeball.ItemRendererMixin"
  ],
  "mixins": [
    "ArgumentTypesMixin",
    "MinecraftDedicatedServerMixin",
    "PlayerMixin",
    "PointedDripstoneBlockMixin",
    "ServerChunkManagerMixin",
    "ShearsDispenserBehaviorMixin",
    "accessor.AccessorEntity",
    "entity.TameableEntityMixin"
  ],
  "injectors": {
    "defaultRequire": 1
  }
}