{
	"format_version": "1.8.0",
	"animations": {
		"animation.pikachu.ground_idle": {
			"loop": true,
			"bones": {
				"arm_right": {
					"rotation": [-180, -45, -135]
				},
				"arm_left": {
					"rotation": [-540, 45, -585]
				}
			}
		}
	}
}