{
  "species": "cobblemon:golduck",
  "order": 0,
  "variations": [
    {
      "aspects": [],
      "poser": "cobblemon:golduck",
      "model": "cobblemon:golduck.geo",
      "texture": "cobblemon:textures/pokemon/0055_golduck/golduck.png",
      "layers": []
    },
    {
      "aspects": [
        "shiny"
      ],
      "texture": "cobblemon:textures/pokemon/0055_golduck/golduck_shiny.png"
    }
  ]
}