{
  "implemented": true,
  "name": "Drowzee",
  "nationalPokedexNumber": 96,
  "primaryType": "psychic",
  "abilities": [
    "insomnia",
    "forewarn",
    "h:innerfocus"
  ],
  "baseStats": {
    "hp": 60,
    "attack": 48,
    "defence": 45,
    "special_attack": 43,
    "special_defence": 90,
    "speed": 42
  },
  "catchRate": 190,
  "maleRatio": 0.5,
  "shoulderMountable": false,
  "baseExperienceYield": 66,
  "experienceGroup": "medium_fast",
  "eggCycles": 20,
  "eggGroups": [
    "human_like"
  ],
  "moves": [
    "1:hypnosis",
    "1:pound",
    "5:disable",
    "9:confusion",
    "13:headbutt",
    "17:poisongas",
    "21:psybeam",
    "25:psychup",
    "29:wakeupslap",
    "29:zenheadbutt",
    "33:swagger",
    "37:psychic",
    "37:synchronoise",
    "41:nastyplot",
    "45:psyshock",
    "49:futuresight",
    "egg:assist",
    "egg:barrier",
    "egg:firepunch",
    "egg:flatter",
    "egg:guardswap",
    "egg:icepunch",
    "egg:powersplit",
    "egg:psychocut",
    "egg:roleplay",
    "egg:secretpower",
    "egg:thunderpunch",
    "tm:attract",
    "tm:bodyslam",
    "tm:brickbreak",
    "tm:calmmind",
    "tm:captivate",
    "tm:confide",
    "tm:dazzlinggleam",
    "tm:doubleteam",
    "tm:drainingkiss",
    "tm:drainpunch",
    "tm:encore",
    "tm:endure",
    "tm:facade",
    "tm:firepunch",
    "tm:fling",
    "tm:focusblast",
    "tm:foulplay",
    "tm:frustration",
    "tm:grassknot",
    "tm:helpinghand",
    "tm:hiddenpower",
    "tm:icepunch",
    "tm:imprison",
    "tm:lightscreen",
    "tm:lowkick",
    "tm:lowsweep",
    "tm:metronome",
    "tm:nastyplot",
    "tm:naturalgift",
    "tm:nightshade",
    "tm:poweruppunch",
    "tm:protect",
    "tm:psybeam",
    "tm:psychic",
    "tm:psychicterrain",
    "tm:psyshock",
    "tm:raindance",
    "tm:reflect",
    "tm:rest",
    "tm:return",
    "tm:round",
    "tm:safeguard",
    "tm:shadowball",
    "tm:skillswap",
    "tm:sleeptalk",
    "tm:storedpower",
    "tm:substitute",
    "tm:sunnyday",
    "tm:swift",
    "tm:takedown",
    "tm:taunt",
    "tm:terablast",
    "tm:thief",
    "tm:thunderpunch",
    "tm:thunderwave",
    "tm:torment",
    "tm:trailblaze",
    "tm:trick",
    "tm:trickroom",
    "tm:zenheadbutt",
    "tutor:allyswitch",
    "tutor:attract",
    "tutor:barrier",
    "tutor:bellydrum",
    "tutor:bide",
    "tutor:counter",
    "tutor:curse",
    "tutor:doubleedge",
    "tutor:doubleteam",
    "tutor:dreameater",
    "tutor:dynamicpunch",
    "tutor:flash",
    "tutor:focuspunch",
    "tutor:frustration",
    "tutor:hiddenpower",
    "tutor:magiccoat",
    "tutor:magicroom",
    "tutor:meditate",
    "tutor:megakick",
    "tutor:megapunch",
    "tutor:mimic",
    "tutor:nightmare",
    "tutor:psywave",
    "tutor:rage",
    "tutor:recycle",
    "tutor:return",
    "tutor:seismictoss",
    "tutor:signalbeam",
    "tutor:skullbash",
    "tutor:snatch",
    "tutor:snore",
    "tutor:snore",
    "tutor:submission",
    "tutor:telekinesis",
    "tutor:teleport",
    "tutor:toxic",
    "tutor:triattack",
    "tutor:wish",
    "tutor:zapcannon"
  ],
  "labels": [
    "gen1"
  ],
  "pokedex": [
    "cobblemon.species.drowzee.desc"
  ],
  "evolutions": [
    {
      "id": "drowzee_hypno",
      "variant": "level_up",
      "result": "hypno",
      "consumeHeldItem": false,
      "learnableMoves": [],
      "requirements": [
        {
          "variant": "level",
          "minLevel": 26
        }
      ]
    }
  ],
  "baseScale": 1,
  "hitbox": {
    "width": 0.7,
    "height": 1.1,
    "fixed": false
  },
  "baseFriendship": 70,
  "evYield": {
    "hp": 0,
    "attack": 0,
    "defence": 0,
    "special_attack": 0,
    "special_defence": 1,
    "speed": 0
  },
  "height": 10,
  "weight": 324,
  "aspects": [],
  "cannotDynamax": false
}