{
  "implemented": true,
  "name": "Graveler",
  "nationalPokedexNumber": 75,
  "primaryType": "rock",
  "secondaryType": "ground",
  "abilities": [
    "rockhead",
    "sturdy",
    "h:sandveil"
  ],
  "baseStats": {
    "hp": 55,
    "attack": 95,
    "defence": 115,
    "special_attack": 45,
    "special_defence": 45,
    "speed": 35
  },
  "catchRate": 120,
  "maleRatio": 0.5,
  "shoulderMountable": false,
  "forms": [
    {
      "name": "Alola",
      "primaryType": "rock",
      "secondaryType": "electric",
      "abilities": [
        "magnetpull",
        "sturdy",
        "h:galvanize"
      ],
      "baseStats": {
        "hp": 55,
        "attack": 95,
        "defence": 115,
        "special_attack": 45,
        "special_defence": 45,
        "speed": 35
      },
      "catchRate": 120,
      "maleRatio": 0.5,
      "baseExperienceYield": 137,
      "baseFriendship": 70,
      "evYield": {
        "hp": 0,
        "attack": 0,
        "defence": 2,
        "special_attack": 0,
        "special_defence": 0,
        "speed": 0
      },
      "experienceGroup": "medium_slow",
      "eggCycles": 15,
      "eggGroups": [
        "mineral"
      ],
      "moves": [
        "1:charge",
        "1:rockpolish",
        "10:rollout",
        "12:spark",
        "18:smackdown",
        "34:rockblast",
        "40:discharge",
        "54:stoneedge",
        "tm:attract",
        "tm:brutalswing",
        "tm:bulldoze",
        "tm:chargebeam",
        "tm:confide",
        "tm:doubleteam",
        "tm:fling",
        "tm:frustration",
        "tm:gyroball",
        "tm:hiddenpower",
        "tm:naturepower",
        "tm:return",
        "tm:rockpolish",
        "tm:rocktomb",
        "tm:round",
        "tm:sandstorm",
        "tm:sleeptalk",
        "tm:smackdown",
        "tm:stoneedge",
        "tm:sunnyday",
        "tm:swagger",
        "tm:voltswitch",
        "tutor:allyswitch",
        "tutor:bide",
        "tutor:block",
        "tutor:brickbreak",
        "tutor:defensecurl",
        "tutor:dig",
        "tutor:doubleedge",
        "tutor:earthpower",
        "tutor:earthquake",
        "tutor:electroweb",
        "tutor:explosion",
        "tutor:facade",
        "tutor:fireblast",
        "tutor:firepunch",
        "tutor:flamethrower",
        "tutor:focuspunch",
        "tutor:headbutt",
        "tutor:irondefense",
        "tutor:magnetrise",
        "tutor:protect",
        "tutor:rest",
        "tutor:rockslide",
        "tutor:rockthrow",
        "tutor:seismictoss",
        "tutor:selfdestruct",
        "tutor:shockwave",
        "tutor:snore",
        "tutor:stealthrock",
        "tutor:stompingtantrum",
        "tutor:substitute",
        "tutor:superpower",
        "tutor:tackle",
        "tutor:takedown",
        "tutor:thunder",
        "tutor:thunderbolt",
        "tutor:thunderpunch",
        "tutor:thundershock",
        "tutor:thunderwave",
        "tutor:toxic"
      ],
      "labels": [
        "gen7",
        "alola_regional"
      ],
      "aspects": [
        "alolan"
      ],
      "height": 10,
      "weight": 1100,
      "preEvolution": "geodude form=alola",
      "evolutions": [
        {
          "id": "graveler_golem",
          "variant": "trade",
          "result": "golem form=alola",
          "consumeHeldItem": false,
          "learnableMoves": [],
          "requirements": []
        }
      ],
      "cannotDynamax": false,
      "battleOnly": false
    }
  ],
  "baseExperienceYield": 137,
  "experienceGroup": "medium_slow",
  "eggCycles": 15,
  "eggGroups": [
    "mineral"
  ],
  "drops": {
    "amount": "2",
    "entries": [
      {
        "item": "minecraft:coal",
        "quantityRange": "1-2",
        "percentage": 66
      },
      {
        "item": "cobblemon:link_cable",
        "percentage": 5
      }
    ]
  },
  "moves": [
    "1:mudsport",
    "1:rockpolish",
    "10:rollout",
    "12:magnitude",
    "18:smackdown",
    "22:bulldoze",
    "34:rockblast",
    "54:stoneedge",
    "tm:attract",
    "tm:bulldoze",
    "tm:captivate",
    "tm:confide",
    "tm:doubleteam",
    "tm:fling",
    "tm:frustration",
    "tm:gyroball",
    "tm:hiddenpower",
    "tm:incinerate",
    "tm:naturalgift",
    "tm:naturepower",
    "tm:poweruppunch",
    "tm:return",
    "tm:rockclimb",
    "tm:rockpolish",
    "tm:rocktomb",
    "tm:round",
    "tm:sandstorm",
    "tm:secretpower",
    "tm:sleeptalk",
    "tm:smackdown",
    "tm:stoneedge",
    "tm:sunnyday",
    "tm:swagger",
    "tutor:ancientpower",
    "tutor:attract",
    "tutor:bide",
    "tutor:block",
    "tutor:bodyslam",
    "tutor:brickbreak",
    "tutor:counter",
    "tutor:curse",
    "tutor:defensecurl",
    "tutor:dig",
    "tutor:doubleedge",
    "tutor:doubleteam",
    "tutor:dynamicpunch",
    "tutor:earthpower",
    "tutor:earthquake",
    "tutor:endure",
    "tutor:explosion",
    "tutor:facade",
    "tutor:fireblast",
    "tutor:firepunch",
    "tutor:fissure",
    "tutor:flamethrower",
    "tutor:focuspunch",
    "tutor:frustration",
    "tutor:harden",
    "tutor:headbutt",
    "tutor:hiddenpower",
    "tutor:irondefense",
    "tutor:magnitude",
    "tutor:megapunch",
    "tutor:metronome",
    "tutor:mimic",
    "tutor:mudslap",
    "tutor:protect",
    "tutor:rage",
    "tutor:rest",
    "tutor:return",
    "tutor:rockslide",
    "tutor:rocksmash",
    "tutor:rockthrow",
    "tutor:rollout",
    "tutor:sandattack",
    "tutor:sandstorm",
    "tutor:seismictoss",
    "tutor:selfdestruct",
    "tutor:sleeptalk",
    "tutor:snore",
    "tutor:snore",
    "tutor:stealthrock",
    "tutor:stompingtantrum",
    "tutor:strength",
    "tutor:submission",
    "tutor:substitute",
    "tutor:suckerpunch",
    "tutor:sunnyday",
    "tutor:superpower",
    "tutor:swagger",
    "tutor:tackle",
    "tutor:takedown",
    "tutor:thunderpunch",
    "tutor:toxic"
  ],
  "labels": [
    "gen1",
    "kanto_regional"
  ],
  "pokedex": [
    "cobblemon.species.graveler.desc"
  ],
  "preEvolution": "geodude",
  "evolutions": [
    {
      "id": "graveler_golem",
      "variant": "trade",
      "result": "golem",
      "consumeHeldItem": false,
      "learnableMoves": [],
      "requirements": []
    }
  ],
  "baseScale": 1.1,
  "hitbox": {
    "width": 0.9,
    "height": 1,
    "fixed": false
  },
  "baseFriendship": 70,
  "evYield": {
    "hp": 0,
    "attack": 0,
    "defence": 2,
    "special_attack": 0,
    "special_defence": 0,
    "speed": 0
  },
  "height": 10,
  "weight": 1050,
  "aspects": [],
  "cannotDynamax": false
}