{
  "implemented": true,
  "name": "Nidorino",
  "nationalPokedexNumber": 33,
  "primaryType": "poison",
  "abilities": [
    "poisonpoint",
    "rivalry",
    "h:hustle"
  ],
  "baseStats": {
    "hp": 61,
    "attack": 72,
    "defence": 57,
    "special_attack": 55,
    "special_defence": 55,
    "speed": 65
  },
  "catchRate": 120,
  "maleRatio": 1,
  "shoulderMountable": false,
  "baseExperienceYield": 128,
  "experienceGroup": "medium_slow",
  "eggCycles": 20,
  "eggGroups": [
    "monster",
    "field"
  ],
  "moves": [
    "1:focusenergy",
    "1:leer",
    "1:peck",
    "1:poisonsting",
    "15:furyattack",
    "22:toxicspikes",
    "29:doublekick",
    "36:hornattack",
    "43:helpinghand",
    "50:captivate",
    "50:toxic",
    "57:flatter",
    "64:poisonjab",
    "71:earthpower",
    "tm:amnesia",
    "tm:attract",
    "tm:beatup",
    "tm:blizzard",
    "tm:bodyslam",
    "tm:confide",
    "tm:cut",
    "tm:dig",
    "tm:doubleteam",
    "tm:drillrun",
    "tm:earthpower",
    "tm:echoedvoice",
    "tm:endure",
    "tm:facade",
    "tm:focusenergy",
    "tm:frustration",
    "tm:helpinghand",
    "tm:hiddenpower",
    "tm:honeclaws",
    "tm:icebeam",
    "tm:irontail",
    "tm:naturalgift",
    "tm:poisonjab",
    "tm:protect",
    "tm:raindance",
    "tm:rest",
    "tm:return",
    "tm:round",
    "tm:secretpower",
    "tm:shadowclaw",
    "tm:sleeptalk",
    "tm:sludgebomb",
    "tm:smartstrike",
    "tm:snore",
    "tm:stompingtantrum",
    "tm:substitute",
    "tm:sunnyday",
    "tm:swagger",
    "tm:thief",
    "tm:thunder",
    "tm:thunderbolt",
    "tm:toxicspikes",
    "tm:venomdrench",
    "tm:venoshock",
    "tutor:bide",
    "tutor:blizzard",
    "tutor:bubblebeam",
    "tutor:counter",
    "tutor:curse",
    "tutor:defensecurl",
    "tutor:detect",
    "tutor:dig",
    "tutor:doubleedge",
    "tutor:doublekick",
    "tutor:doubleteam",
    "tutor:drillrun",
    "tutor:facade",
    "tutor:focusenergy",
    "tutor:frustration",
    "tutor:furyattack",
    "tutor:headbutt",
    "tutor:helpinghand",
    "tutor:hiddenpower",
    "tutor:hornattack",
    "tutor:horndrill",
    "tutor:icebeam",
    "tutor:irontail",
    "tutor:leer",
    "tutor:mimic",
    "tutor:mudslap",
    "tutor:peck",
    "tutor:poisonjab",
    "tutor:poisonsting",
    "tutor:protect",
    "tutor:rage",
    "tutor:reflect",
    "tutor:rest",
    "tutor:return",
    "tutor:rocksmash",
    "tutor:shockwave",
    "tutor:skullbash",
    "tutor:sludgebomb",
    "tutor:strength",
    "tutor:substitute",
    "tutor:suckerpunch",
    "tutor:superfang",
    "tutor:swagger",
    "tutor:tackle",
    "tutor:takedown",
    "tutor:thunder",
    "tutor:thunderbolt",
    "tutor:toxic",
    "tutor:watergun",
    "tutor:waterpulse"
  ],
  "labels": [
    "gen1"
  ],
  "pokedex": [
    "cobblemon.species.nidorino.desc"
  ],
  "preEvolution": "nidoranm",
  "evolutions": [
    {
      "id": "nidorino_nidoking",
      "variant": "item_interact",
      "result": "nidoking",
      "consumeHeldItem": false,
      "learnableMoves": [
        "megahorn"
      ],
      "requirements": [],
      "requiredContext": "cobblemon:moon_stone"
    }
  ],
  "baseScale": 1,
  "hitbox": {
    "width": 1,
    "height": 0.9,
    "fixed": false
  },
  "baseFriendship": 50,
  "evYield": {
    "hp": 0,
    "attack": 2,
    "defence": 0,
    "special_attack": 0,
    "special_defence": 0,
    "speed": 0
  },
  "height": 9,
  "weight": 195,
  "aspects": [],
  "cannotDynamax": false
}