{
  "implemented": true,
  "name": "Pidgeot",
  "nationalPokedexNumber": 18,
  "primaryType": "normal",
  "secondaryType": "flying",
  "abilities": [
    "keeneye",
    "tangledfeet",
    "h:bigpecks"
  ],
  "baseStats": {
    "hp": 83,
    "attack": 80,
    "defence": 75,
    "special_attack": 70,
    "special_defence": 70,
    "speed": 101
  },
  "catchRate": 45,
  "maleRatio": 0.5,
  "shoulderMountable": false,
  "forms": [
    {
      "name": "Mega",
      "primaryType": "normal",
      "secondaryType": "flying",
      "abilities": [
        "noguard"
      ],
      "baseStats": {
        "hp": 83,
        "attack": 80,
        "defence": 80,
        "special_attack": 135,
        "special_defence": 80,
        "speed": 121
      },
      "catchRate": 45,
      "maleRatio": 0.5,
      "baseExperienceYield": 261,
      "baseFriendship": 70,
      "evYield": {
        "hp": 0,
        "attack": 0,
        "defence": 0,
        "special_attack": 0,
        "special_defence": 0,
        "speed": 3
      },
      "experienceGroup": "medium_slow",
      "eggCycles": 15,
      "eggGroups": [
        "flying"
      ],
      "moves": [],
      "labels": [
        "gen6",
        "mega"
      ],
      "aspects": [
        "mega"
      ],
      "height": 22,
      "weight": 505,
      "evolutions": [],
      "cannotDynamax": false,
      "battleOnly": true
    }
  ],
  "baseExperienceYield": 216,
  "experienceGroup": "medium_slow",
  "eggCycles": 15,
  "eggGroups": [
    "flying"
  ],
  "behaviour": {
    "moving": {
      "fly": {
        "canFly": true
      }
    }
  },
  "drops": {
    "amount": "2",
    "entries": [
      {
        "item": "minecraft:feather",
        "quantityRange": "1-3",
        "percentage": 75
      },
      {
        "item": "minecraft:chicken"
      }
    ]
  },
  "moves": [
    "1:hurricane",
    "22:twister",
    "27:featherdance",
    "50:tailwind",
    "tm:aerialace",
    "tm:attract",
    "tm:captivate",
    "tm:confide",
    "tm:doubleteam",
    "tm:frustration",
    "tm:gigaimpact",
    "tm:hiddenpower",
    "tm:naturalgift",
    "tm:pluck",
    "tm:raindance",
    "tm:return",
    "tm:round",
    "tm:secretpower",
    "tm:sleeptalk",
    "tm:steelwing",
    "tm:sunnyday",
    "tm:swagger",
    "tm:thief",
    "tm:workup",
    "tutor:agility",
    "tutor:aircutter",
    "tutor:airslash",
    "tutor:attract",
    "tutor:bide",
    "tutor:curse",
    "tutor:defog",
    "tutor:detect",
    "tutor:doubleedge",
    "tutor:doubleteam",
    "tutor:endure",
    "tutor:facade",
    "tutor:fly",
    "tutor:frustration",
    "tutor:gust",
    "tutor:headbutt",
    "tutor:heatwave",
    "tutor:hiddenpower",
    "tutor:hyperbeam",
    "tutor:laserfocus",
    "tutor:mimic",
    "tutor:mirrormove",
    "tutor:mudslap",
    "tutor:ominouswind",
    "tutor:protect",
    "tutor:quickattack",
    "tutor:rage",
    "tutor:razorwind",
    "tutor:reflect",
    "tutor:rest",
    "tutor:return",
    "tutor:roost",
    "tutor:sandattack",
    "tutor:skyattack",
    "tutor:sleeptalk",
    "tutor:snore",
    "tutor:snore",
    "tutor:steelwing",
    "tutor:substitute",
    "tutor:sunnyday",
    "tutor:swagger",
    "tutor:swift",
    "tutor:tackle",
    "tutor:tailwind",
    "tutor:takedown",
    "tutor:thief",
    "tutor:toxic",
    "tutor:uproar",
    "tutor:uturn",
    "tutor:whirlwind",
    "tutor:wingattack"
  ],
  "labels": [
    "gen1"
  ],
  "pokedex": [
    "cobblemon.species.pidgeot.desc"
  ],
  "preEvolution": "pidgeotto",
  "evolutions": [],
  "baseScale": 1.7,
  "hitbox": {
    "width": 0.8,
    "height": 1,
    "fixed": false
  },
  "baseFriendship": 70,
  "evYield": {
    "hp": 0,
    "attack": 0,
    "defence": 0,
    "special_attack": 0,
    "special_defence": 0,
    "speed": 3
  },
  "height": 15,
  "weight": 395,
  "aspects": [],
  "cannotDynamax": false
}