{
	"format_version": "1.8.0",
	"animations": {
		"animation.koffing.ground_idle": {
			"loop": true,
			"bones": {
				"body": {
					"rotation": [
						"math.sin(q.anim_time*90*5)*1+math.sin(q.anim_time*90*3)*2",
						"math.sin(q.anim_time*90*1)*2",
						"math.sin(q.anim_time*90*5+180)*1+math.sin(q.anim_time*90*3)*2"
					],
					"position": [0, "math.sin(q.anim_time*90*1)*0.5+math.sin(q.anim_time*90*2)*1", 0]
				}
			}
		},
		"animation.koffing.ground_walk": {
			"loop": true,
			"bones": {
				"body": {
					"rotation": ["15+math.sin(q.anim_time*90*3*2)*2", "math.sin(q.anim_time*90*1)*2", "math.sin(q.anim_time*90*5+180)*1+math.sin(q.anim_time*90*3)*2"],
					"position": [
						0,
						"math.sin(q.anim_time*90*1*1.5)*0.5/2+math.sin(q.anim_time*90*2*1.5)*1/2+math.sin(q.anim_time*90*4*1.5+90)*2/2",
						"math.sin(q.anim_time*90*4*1.5)*1/2"
					]
				}
			}
		}
	}
}