{
  "species": "cobblemon:starmie",
  "order": 0,
  "variations": [
    {
      "aspects": [],
      "poser": "cobblemon:starmie",
      "model": "cobblemon:starmie.geo",
      "texture": "cobblemon:textures/pokemon/0121_starmie/starmie.png",
      "layers": []
    },
    {
      "aspects": [
        "shiny"
      ],
      "texture": "cobblemon:textures/pokemon/0121_starmie/starmie_shiny.png"
    }
  ]
}