{
	"format_version": "1.12.0",
	"minecraft:geometry": [
		{
			"description": {
				"identifier": "geometry.tentacool",
				"texture_width": 32,
				"texture_height": 32,
				"visible_bounds_width": 3,
				"visible_bounds_height": 2.5,
				"visible_bounds_offset": [0, 0.75, 0]
			},
			"bones": [
				{
					"name": "tentacool",
					"pivot": [0, 0, 0]
				},
				{
					"name": "body",
					"parent": "tentacool",
					"pivot": [0, 14, 0.5]
				},
				{
					"name": "torso",
					"parent": "body",
					"pivot": [0, 10.5, 0],
					"cubes": [
						{"origin": [-2, 10, -2], "size": [4, 1, 4], "uv": [13, 13]},
						{"origin": [-3, 11, -2.5], "size": [6, 7, 6], "uv": [0, 0]},
						{"origin": [-3.5, 11, 3.5], "size": [7, 0, 3], "inflate": 0.01, "pivot": [0, 11, 3.5], "rotation": [-55, 0, 0], "uv": [0, 13]},
						{"origin": [-6, 11, -1], "size": [3, 0, 5], "inflate": 0.01, "pivot": [-3, 11, 1.5], "rotation": [0, 0, -55], "uv": [13, 0]},
						{"origin": [3, 11, -1], "size": [3, 0, 5], "inflate": 0.01, "pivot": [3, 11, 1.5], "rotation": [0, 0, 55], "uv": [0, 16]},
						{"origin": [-1, 13.25, -2.75], "size": [2, 2, 1], "pivot": [0, 14.25, -2.25], "rotation": [-2.5, 0, 0], "uv": [0, 0]},
						{"origin": [-3.6, 13.75, -1.5], "size": [1, 4, 4], "pivot": [-3.1, 15.75, 1], "rotation": [0, 0, 2.5], "uv": [10, 23]},
						{"origin": [2.6, 13.75, -1.5], "size": [1, 4, 4], "pivot": [3.1, 15.75, 1], "rotation": [0, 0, -2.5], "uv": [0, 21]}
					]
				},
				{
					"name": "head_front",
					"parent": "torso",
					"pivot": [0, 11.75, -2.5],
					"rotation": [-5, 0, 0],
					"cubes": [
						{"origin": [-3, 8.75, -2.75], "size": [6, 3, 2], "inflate": 0.01, "uv": [11, 18]}
					]
				},
				{
					"name": "eyes",
					"parent": "head_front",
					"pivot": [0, 11.25, -2.25]
				},
				{
					"name": "eye_right",
					"parent": "eyes",
					"pivot": [-2.025, 11.25, -2.275],
					"cubes": [
						{"origin": [-3.025, 10.75, -2.775], "size": [2, 1, 1], "inflate": 0.01, "uv": [0, 30], "mirror": true},
						{"origin": [-2.525, 10.74782, -2.7999], "size": [1, 1, 0], "inflate": 0.01, "uv": [0, 29], "mirror": true}
					]
				},
				{
					"name": "eye_left",
					"parent": "eyes",
					"pivot": [2.025, 11.25, -2.275],
					"cubes": [
						{"origin": [1.025, 10.75, -2.775], "size": [2, 1, 1], "inflate": 0.01, "uv": [0, 30]},
						{"origin": [1.525, 10.74782, -2.7999], "size": [1, 1, 0], "inflate": 0.01, "uv": [0, 29]}
					]
				},
				{
					"name": "eyelids",
					"parent": "eyes",
					"pivot": [0, 11.25, -2.25]
				},
				{
					"name": "eyelid_right",
					"parent": "eyelids",
					"pivot": [-1.925, 11.25, -2.2],
					"cubes": [
						{"origin": [-2.925, 10.75, -2.7], "size": [2, 1, 1], "inflate": 0.02, "uv": [22, 30], "mirror": true}
					]
				},
				{
					"name": "eyelid_left",
					"parent": "eyelids",
					"pivot": [1.925, 11.25, -2.2],
					"cubes": [
						{"origin": [0.925, 10.75, -2.7], "size": [2, 1, 1], "inflate": 0.02, "uv": [22, 30]}
					]
				},
				{
					"name": "tentacle_right1",
					"parent": "body",
					"pivot": [-1.25, 10, 0],
					"cubes": [
						{"origin": [-1.75, 7.5, 0], "size": [1, 3, 0], "inflate": 0.01, "uv": [0, 19]}
					]
				},
				{
					"name": "tentacle_right2",
					"parent": "tentacle_right1",
					"pivot": [-1.25, 7.5, 0],
					"cubes": [
						{"origin": [-1.75, 4.5, 0], "size": [1, 3, 0], "inflate": 0.02, "uv": [11, 16]}
					]
				},
				{
					"name": "tentacle_right3",
					"parent": "tentacle_right2",
					"pivot": [-1.25, 4.5, 0],
					"cubes": [
						{"origin": [-1.75, 2.5, 0], "size": [1, 2, 0], "inflate": 0.01, "uv": [2, 21]}
					]
				},
				{
					"name": "tentacle_right4",
					"parent": "tentacle_right3",
					"pivot": [-1.25, 2.5, 0],
					"cubes": [
						{"origin": [-2.25, -0.5, 0], "size": [2, 3, 0], "inflate": 0.02, "uv": [0, 16]}
					]
				},
				{
					"name": "tentacle_left1",
					"parent": "body",
					"pivot": [1.25, 10, 0],
					"cubes": [
						{"origin": [0.75, 7.5, 0], "size": [1, 3, 0], "inflate": 0.01, "uv": [0, 13]}
					]
				},
				{
					"name": "tentacle_left2",
					"parent": "tentacle_left1",
					"pivot": [1.25, 7.5, 0],
					"cubes": [
						{"origin": [0.75, 4.5, 0], "size": [1, 3, 0], "inflate": 0.02, "uv": [4, 3]}
					]
				},
				{
					"name": "tentacle_left3",
					"parent": "tentacle_left2",
					"pivot": [1.25, 4.5, 0],
					"cubes": [
						{"origin": [0.75, 2.5, 0], "size": [1, 2, 0], "inflate": 0.01, "uv": [2, 19]}
					]
				},
				{
					"name": "tentacle_left4",
					"parent": "tentacle_left3",
					"pivot": [1.25, 2.5, 0],
					"cubes": [
						{"origin": [0.25, -0.5, 0], "size": [2, 3, 0], "inflate": 0.02, "uv": [0, 3]}
					]
				}
			]
		}
	]
}