{
  "name": "Altaria",
  "nationalPokedexNumber": 334,
  "primaryType": "dragon",
  "secondaryType": "flying",
  "abilities": [
    "naturalcure",
    "h:cloudnine"
  ],
  "baseStats": {
    "hp": 75,
    "attack": 70,
    "defence": 90,
    "special_attack": 70,
    "special_defence": 105,
    "speed": 80
  },
  "catchRate": 45,
  "maleRatio": 0.5,
  "shoulderMountable": false,
  "forms": [
    {
      "name": "Mega",
      "primaryType": "dragon",
      "secondaryType": "fairy",
      "abilities": [
        "pixilate"
      ],
      "baseStats": {
        "hp": 75,
        "attack": 110,
        "defence": 110,
        "special_attack": 110,
        "special_defence": 105,
        "speed": 80
      },
      "catchRate": 45,
      "maleRatio": 0.5,
      "baseExperienceYield": 207,
      "baseFriendship": 50,
      "evYield": {
        "hp": 0,
        "attack": 0,
        "defence": 0,
        "special_attack": 0,
        "special_defence": 2,
        "speed": 0
      },
      "experienceGroup": "erratic",
      "eggCycles": 20,
      "eggGroups": [
        "flying",
        "dragon"
      ],
      "moves": [],
      "labels": [
        "gen6",
        "mega"
      ],
      "aspects": [
        "mega"
      ],
      "height": 15,
      "weight": 206,
      "evolutions": [],
      "cannotDynamax": false,
      "battleOnly": true
    }
  ],
  "baseExperienceYield": 172,
  "experienceGroup": "erratic",
  "eggCycles": 20,
  "eggGroups": [
    "flying",
    "dragon"
  ],
  "moves": [
    "1:astonish",
    "1:disarmingvoice",
    "1:growl",
    "1:mist",
    "1:peck",
    "1:pluck",
    "12:furyattack",
    "16:round",
    "20:dragonbreath",
    "20:naturalgift",
    "24:safeguard",
    "26:refresh",
    "28:sing",
    "32:cottonguard",
    "38:takedown",
    "44:moonblast",
    "50:perishsong",
    "56:skyattack",
    "tm:acrobatics",
    "tm:aerialace",
    "tm:agility",
    "tm:attract",
    "tm:bodyslam",
    "tm:bravebird",
    "tm:breakingswipe",
    "tm:bulldoze",
    "tm:captivate",
    "tm:confide",
    "tm:dazzlinggleam",
    "tm:disarmingvoice",
    "tm:doubleteam",
    "tm:dracometeor",
    "tm:dragonclaw",
    "tm:dragondance",
    "tm:dragonpulse",
    "tm:dreameater",
    "tm:earthquake",
    "tm:echoedvoice",
    "tm:endure",
    "tm:facade",
    "tm:falseswipe",
    "tm:fireblast",
    "tm:firespin",
    "tm:flamethrower",
    "tm:fly",
    "tm:frustration",
    "tm:gigaimpact",
    "tm:heatwave",
    "tm:helpinghand",
    "tm:hiddenpower",
    "tm:honeclaws",
    "tm:hurricane",
    "tm:hyperbeam",
    "tm:hypervoice",
    "tm:icebeam",
    "tm:incinerate",
    "tm:irontail",
    "tm:outrage",
    "tm:playrough",
    "tm:powerswap",
    "tm:protect",
    "tm:psychup",
    "tm:raindance",
    "tm:rest",
    "tm:return",
    "tm:roar",
    "tm:rocksmash",
    "tm:roost",
    "tm:secretpower",
    "tm:sleeptalk",
    "tm:snore",
    "tm:snowscape",
    "tm:solarbeam",
    "tm:steelwing",
    "tm:substitute",
    "tm:sunnyday",
    "tm:swagger",
    "tm:swift",
    "tm:tailwind",
    "tm:takedown",
    "tm:terablast",
    "tm:thief",
    "tm:toxic",
    "tm:trailblaze",
    "tm:uproar",
    "tm:willowisp",
    "tm:wonderroom",
    "tutor:aircutter",
    "tutor:defog",
    "tutor:doubleedge",
    "tutor:dualwingbeat",
    "tutor:healbell",
    "tutor:mimic",
    "tutor:mudslap",
    "tutor:ominouswind",
    "tutor:twister"
  ],
  "labels": [
    "gen3"
  ],
  "pokedex": [
    "cobblemon.species.altaria.desc"
  ],
  "preEvolution": "swablu",
  "evolutions": [],
  "baseScale": 1,
  "hitbox": {
    "width": 1,
    "height": 1,
    "fixed": false
  },
  "baseFriendship": 50,
  "evYield": {
    "hp": 0,
    "attack": 0,
    "defence": 0,
    "special_attack": 0,
    "special_defence": 2,
    "speed": 0
  },
  "height": 11,
  "weight": 206,
  "aspects": [],
  "cannotDynamax": false
}