{
  "name": "Gorebyss",
  "nationalPokedexNumber": 368,
  "primaryType": "water",
  "abilities": [
    "swiftswim",
    "h:hydration"
  ],
  "baseStats": {
    "hp": 55,
    "attack": 84,
    "defence": 105,
    "special_attack": 114,
    "special_defence": 75,
    "speed": 52
  },
  "catchRate": 60,
  "maleRatio": 0.5,
  "shoulderMountable": false,
  "baseExperienceYield": 170,
  "experienceGroup": "erratic",
  "eggCycles": 20,
  "eggGroups": [
    "water_1"
  ],
  "moves": [
    "1:confusion",
    "1:whirlpool",
    "5:watersport",
    "9:agility",
    "11:drainingkiss",
    "14:waterpulse",
    "16:amnesia",
    "19:aquaring",
    "23:captivate",
    "26:dive",
    "29:batonpass",
    "34:psychic",
    "39:aquatail",
    "45:coil",
    "50:hydropump",
    "tm:attract",
    "tm:blizzard",
    "tm:brine",
    "tm:confide",
    "tm:doubleteam",
    "tm:endure",
    "tm:facade",
    "tm:frustration",
    "tm:gigaimpact",
    "tm:hail",
    "tm:hiddenpower",
    "tm:hyperbeam",
    "tm:icebeam",
    "tm:infestation",
    "tm:naturalgift",
    "tm:protect",
    "tm:psychic",
    "tm:psychup",
    "tm:raindance",
    "tm:rest",
    "tm:return",
    "tm:round",
    "tm:safeguard",
    "tm:scald",
    "tm:secretpower",
    "tm:shadowball",
    "tm:sleeptalk",
    "tm:substitute",
    "tm:surf",
    "tm:swagger",
    "tm:toxic",
    "tm:waterfall",
    "tutor:aquatail",
    "tutor:bind",
    "tutor:bodyslam",
    "tutor:bounce",
    "tutor:doubleedge",
    "tutor:icywind",
    "tutor:mimic",
    "tutor:mudslap",
    "tutor:signalbeam",
    "tutor:snore",
    "tutor:swift",
    "tutor:waterpulse"
  ],
  "labels": [
    "gen3"
  ],
  "pokedex": [
    "cobblemon.species.gorebyss.desc"
  ],
  "preEvolution": "clamperl",
  "evolutions": [],
  "baseScale": 1,
  "hitbox": {
    "width": 1,
    "height": 1,
    "fixed": false
  },
  "baseFriendship": 70,
  "evYield": {
    "hp": 0,
    "attack": 0,
    "defence": 0,
    "special_attack": 2,
    "special_defence": 0,
    "speed": 0
  },
  "height": 18,
  "weight": 226,
  "aspects": [],
  "cannotDynamax": false
}