{
  "name": "Grovyle",
  "nationalPokedexNumber": 253,
  "primaryType": "grass",
  "abilities": [
    "overgrow",
    "h:unburden"
  ],
  "baseStats": {
    "hp": 50,
    "attack": 65,
    "defence": 45,
    "special_attack": 85,
    "special_defence": 65,
    "speed": 95
  },
  "catchRate": 45,
  "maleRatio": 0.875,
  "shoulderMountable": false,
  "baseExperienceYield": 142,
  "experienceGroup": "medium_slow",
  "eggCycles": 20,
  "eggGroups": [
    "monster",
    "dragon"
  ],
  "moves": [
    "1:absorb",
    "1:energyball",
    "1:falseswipe",
    "1:furycutter",
    "1:leafage",
    "1:leer",
    "1:pound",
    "1:quickattack",
    "1:xscissor",
    "9:megadrain",
    "12:detect",
    "15:quickguard",
    "18:pursuit",
    "20:assurance",
    "25:gigadrain",
    "30:slam",
    "35:doubleteam",
    "40:leafblade",
    "45:screech",
    "50:endeavor",
    "55:leafstorm",
    "tm:acrobatics",
    "tm:aerialace",
    "tm:agility",
    "tm:assurance",
    "tm:attract",
    "tm:bodyslam",
    "tm:brickbreak",
    "tm:bulletseed",
    "tm:captivate",
    "tm:confide",
    "tm:crunch",
    "tm:cut",
    "tm:dig",
    "tm:drainpunch",
    "tm:endure",
    "tm:energyball",
    "tm:facade",
    "tm:falseswipe",
    "tm:flash",
    "tm:fling",
    "tm:frustration",
    "tm:gigadrain",
    "tm:grassknot",
    "tm:grassyterrain",
    "tm:hiddenpower",
    "tm:irontail",
    "tm:leafblade",
    "tm:leafstorm",
    "tm:lowkick",
    "tm:lowsweep",
    "tm:magicalleaf",
    "tm:megakick",
    "tm:megapunch",
    "tm:naturalgift",
    "tm:naturepower",
    "tm:poweruppunch",
    "tm:protect",
    "tm:rest",
    "tm:return",
    "tm:rockslide",
    "tm:rocksmash",
    "tm:rocktomb",
    "tm:round",
    "tm:safeguard",
    "tm:screech",
    "tm:secretpower",
    "tm:seedbomb",
    "tm:sleeptalk",
    "tm:snore",
    "tm:solarbeam",
    "tm:solarblade",
    "tm:strength",
    "tm:substitute",
    "tm:sunnyday",
    "tm:swagger",
    "tm:swift",
    "tm:swordsdance",
    "tm:thunderpunch",
    "tm:toxic",
    "tm:workup",
    "tm:xscissor",
    "tutor:counter",
    "tutor:doubleedge",
    "tutor:dynamicpunch",
    "tutor:focuspunch",
    "tutor:grasspledge",
    "tutor:grassyglide",
    "tutor:headbutt",
    "tutor:mimic",
    "tutor:mudslap",
    "tutor:seismictoss",
    "tutor:synthesis",
    "tutor:worryseed"
  ],
  "labels": [
    "gen3"
  ],
  "pokedex": [
    "cobblemon.species.grovyle.desc"
  ],
  "preEvolution": "treecko",
  "evolutions": [
    {
      "id": "grovyle_sceptile",
      "variant": "level_up",
      "result": "sceptile",
      "consumeHeldItem": false,
      "learnableMoves": [
        "dualchop"
      ],
      "requirements": [
        {
          "variant": "level",
          "minLevel": 36
        }
      ]
    }
  ],
  "baseScale": 1,
  "hitbox": {
    "width": 1,
    "height": 1,
    "fixed": false
  },
  "baseFriendship": 50,
  "evYield": {
    "hp": 0,
    "attack": 0,
    "defence": 0,
    "special_attack": 0,
    "special_defence": 0,
    "speed": 2
  },
  "height": 9,
  "weight": 216,
  "aspects": [],
  "cannotDynamax": false
}