{
  "name": "Gulpin",
  "nationalPokedexNumber": 316,
  "primaryType": "poison",
  "abilities": [
    "liquidooze",
    "stickyhold",
    "h:gluttony"
  ],
  "baseStats": {
    "hp": 70,
    "attack": 43,
    "defence": 53,
    "special_attack": 43,
    "special_defence": 53,
    "speed": 40
  },
  "catchRate": 225,
  "maleRatio": 0.5,
  "shoulderMountable": false,
  "baseExperienceYield": 60,
  "experienceGroup": "fluctuating",
  "eggCycles": 20,
  "eggGroups": [
    "amorphous"
  ],
  "moves": [
    "1:pound",
    "5:yawn",
    "8:poisongas",
    "10:sludge",
    "12:amnesia",
    "17:acidspray",
    "20:encore",
    "25:toxic",
    "28:spitup",
    "28:stockpile",
    "28:swallow",
    "33:sludgebomb",
    "36:gastroacid",
    "41:belch",
    "44:painsplit",
    "44:wringout",
    "49:gunkshot",
    "egg:acidarmor",
    "egg:clearsmog",
    "egg:curse",
    "egg:destinybond",
    "egg:mudslap",
    "egg:smog",
    "egg:stuffcheeks",
    "egg:venomdrench",
    "tm:acidspray",
    "tm:amnesia",
    "tm:attract",
    "tm:bodyslam",
    "tm:bulletseed",
    "tm:captivate",
    "tm:confide",
    "tm:doubleteam",
    "tm:dreameater",
    "tm:encore",
    "tm:endure",
    "tm:explosion",
    "tm:facade",
    "tm:firepunch",
    "tm:fling",
    "tm:frustration",
    "tm:gigadrain",
    "tm:gunkshot",
    "tm:helpinghand",
    "tm:hiddenpower",
    "tm:icebeam",
    "tm:icepunch",
    "tm:infestation",
    "tm:mudshot",
    "tm:mudslap",
    "tm:naturalgift",
    "tm:poisonjab",
    "tm:poweruppunch",
    "tm:protect",
    "tm:raindance",
    "tm:rest",
    "tm:return",
    "tm:rocksmash",
    "tm:round",
    "tm:secretpower",
    "tm:seedbomb",
    "tm:shadowball",
    "tm:sleeptalk",
    "tm:sludgebomb",
    "tm:sludgewave",
    "tm:solarbeam",
    "tm:strength",
    "tm:substitute",
    "tm:sunnyday",
    "tm:swagger",
    "tm:swordsdance",
    "tm:takedown",
    "tm:terablast",
    "tm:thief",
    "tm:thunderpunch",
    "tm:thunderwave",
    "tm:toxicspikes",
    "tm:venoshock",
    "tm:waterpulse",
    "tutor:counter",
    "tutor:defensecurl",
    "tutor:doubleedge",
    "tutor:dynamicpunch",
    "tutor:headbutt",
    "tutor:mimic",
    "tutor:nightmare",
    "tutor:rollout",
    "tutor:selfdestruct",
    "tutor:shockwave",
    "tutor:sing",
    "tutor:snatch",
    "tutor:snore"
  ],
  "labels": [
    "gen3"
  ],
  "pokedex": [
    "cobblemon.species.gulpin.desc"
  ],
  "evolutions": [
    {
      "id": "gulpin_swalot",
      "variant": "level_up",
      "result": "swalot",
      "consumeHeldItem": false,
      "learnableMoves": [
        "bodyslam"
      ],
      "requirements": [
        {
          "variant": "level",
          "minLevel": 26
        }
      ]
    }
  ],
  "baseScale": 1,
  "hitbox": {
    "width": 1,
    "height": 1,
    "fixed": false
  },
  "baseFriendship": 70,
  "evYield": {
    "hp": 1,
    "attack": 0,
    "defence": 0,
    "special_attack": 0,
    "special_defence": 0,
    "speed": 0
  },
  "height": 4,
  "weight": 103,
  "aspects": [],
  "cannotDynamax": false
}