{
  "name": "Mawile",
  "nationalPokedexNumber": 303,
  "primaryType": "steel",
  "secondaryType": "fairy",
  "abilities": [
    "hypercutter",
    "intimidate",
    "h:sheerforce"
  ],
  "baseStats": {
    "hp": 50,
    "attack": 85,
    "defence": 85,
    "special_attack": 55,
    "special_defence": 55,
    "speed": 50
  },
  "catchRate": 45,
  "maleRatio": 0.5,
  "shoulderMountable": false,
  "forms": [
    {
      "name": "Mega",
      "primaryType": "steel",
      "secondaryType": "fairy",
      "abilities": [
        "hugepower"
      ],
      "baseStats": {
        "hp": 50,
        "attack": 105,
        "defence": 125,
        "special_attack": 55,
        "special_defence": 95,
        "speed": 50
      },
      "catchRate": 45,
      "maleRatio": 0.5,
      "baseExperienceYield": 168,
      "baseFriendship": 50,
      "evYield": {
        "hp": 0,
        "attack": 1,
        "defence": 1,
        "special_attack": 0,
        "special_defence": 0,
        "speed": 0
      },
      "experienceGroup": "fast",
      "eggCycles": 20,
      "eggGroups": [
        "field",
        "fairy"
      ],
      "moves": [],
      "labels": [
        "gen6",
        "mega"
      ],
      "aspects": [
        "mega"
      ],
      "height": 10,
      "weight": 235,
      "evolutions": [],
      "cannotDynamax": false,
      "battleOnly": true
    }
  ],
  "baseExperienceYield": 133,
  "experienceGroup": "fast",
  "eggCycles": 20,
  "eggGroups": [
    "field",
    "fairy"
  ],
  "moves": [
    "1:astonish",
    "1:growl",
    "4:fairywind",
    "8:batonpass",
    "12:bite",
    "16:spitup",
    "16:stockpile",
    "16:swallow",
    "17:visegrip",
    "20:suckerpunch",
    "21:feintattack",
    "24:irondefense",
    "28:crunch",
    "32:sweetscent",
    "36:ironhead",
    "40:taunt",
    "44:faketears",
    "48:playrough",
    "egg:ancientpower",
    "egg:captivate",
    "egg:metalburst",
    "egg:poisonfang",
    "egg:poweruppunch",
    "egg:punishment",
    "egg:seismictoss",
    "egg:slam",
    "egg:tickle",
    "tm:assurance",
    "tm:attract",
    "tm:batonpass",
    "tm:bodyslam",
    "tm:brickbreak",
    "tm:brutalswing",
    "tm:chargebeam",
    "tm:confide",
    "tm:crunch",
    "tm:darkpulse",
    "tm:doubleteam",
    "tm:drainingkiss",
    "tm:embargo",
    "tm:endure",
    "tm:facade",
    "tm:faketears",
    "tm:falseswipe",
    "tm:fireblast",
    "tm:firefang",
    "tm:flamethrower",
    "tm:flashcannon",
    "tm:fling",
    "tm:focusblast",
    "tm:foulplay",
    "tm:frustration",
    "tm:gigaimpact",
    "tm:grassknot",
    "tm:guardswap",
    "tm:helpinghand",
    "tm:hiddenpower",
    "tm:hyperbeam",
    "tm:icebeam",
    "tm:icefang",
    "tm:icepunch",
    "tm:icywind",
    "tm:incinerate",
    "tm:irondefense",
    "tm:ironhead",
    "tm:megakick",
    "tm:megapunch",
    "tm:mistyterrain",
    "tm:naturalgift",
    "tm:payback",
    "tm:playrough",
    "tm:protect",
    "tm:psychicfangs",
    "tm:psychup",
    "tm:raindance",
    "tm:rest",
    "tm:return",
    "tm:rockslide",
    "tm:rocksmash",
    "tm:rocktomb",
    "tm:round",
    "tm:sandstorm",
    "tm:secretpower",
    "tm:shadowball",
    "tm:sleeptalk",
    "tm:sludgebomb",
    "tm:snore",
    "tm:solarbeam",
    "tm:stealthrock",
    "tm:stoneedge",
    "tm:strength",
    "tm:substitute",
    "tm:sunnyday",
    "tm:swagger",
    "tm:swordsdance",
    "tm:taunt",
    "tm:thunderfang",
    "tm:thunderpunch",
    "tm:torment",
    "tm:toxic",
    "tutor:counter",
    "tutor:doubleedge",
    "tutor:dynamicpunch",
    "tutor:focuspunch",
    "tutor:headbutt",
    "tutor:knockoff",
    "tutor:laserfocus",
    "tutor:lastresort",
    "tutor:magnetrise",
    "tutor:mimic",
    "tutor:mudslap",
    "tutor:painsplit",
    "tutor:sing",
    "tutor:snatch",
    "tutor:steelbeam",
    "tutor:superfang"
  ],
  "labels": [
    "gen3"
  ],
  "pokedex": [
    "cobblemon.species.mawile.desc"
  ],
  "evolutions": [],
  "baseScale": 1,
  "hitbox": {
    "width": 1,
    "height": 1,
    "fixed": false
  },
  "baseFriendship": 50,
  "evYield": {
    "hp": 0,
    "attack": 1,
    "defence": 1,
    "special_attack": 0,
    "special_defence": 0,
    "speed": 0
  },
  "height": 6,
  "weight": 115,
  "aspects": [],
  "cannotDynamax": false
}