{
  "name": "Treecko",
  "nationalPokedexNumber": 252,
  "primaryType": "grass",
  "abilities": [
    "overgrow",
    "h:unburden"
  ],
  "baseStats": {
    "hp": 40,
    "attack": 45,
    "defence": 35,
    "special_attack": 65,
    "special_defence": 55,
    "speed": 70
  },
  "catchRate": 45,
  "maleRatio": 0.875,
  "shoulderMountable": false,
  "baseExperienceYield": 62,
  "experienceGroup": "medium_slow",
  "eggCycles": 20,
  "eggGroups": [
    "monster",
    "dragon"
  ],
  "moves": [
    "1:leer",
    "1:pound",
    "3:leafage",
    "6:quickattack",
    "9:megadrain",
    "12:detect",
    "15:quickguard",
    "17:pursuit",
    "18:assurance",
    "21:gigadrain",
    "24:slam",
    "27:doubleteam",
    "30:energyball",
    "33:screech",
    "36:endeavor",
    "39:leafstorm",
    "egg:absorb",
    "egg:crushclaw",
    "egg:doublekick",
    "egg:dragonbreath",
    "egg:grasswhistle",
    "egg:leechseed",
    "egg:mudsport",
    "egg:naturalgift",
    "egg:nightslash",
    "egg:razorwind",
    "egg:slash",
    "egg:synthesis",
    "egg:worryseed",
    "tm:acrobatics",
    "tm:aerialace",
    "tm:agility",
    "tm:assurance",
    "tm:attract",
    "tm:bodyslam",
    "tm:brickbreak",
    "tm:bulletseed",
    "tm:captivate",
    "tm:confide",
    "tm:crunch",
    "tm:cut",
    "tm:dig",
    "tm:drainpunch",
    "tm:endure",
    "tm:energyball",
    "tm:facade",
    "tm:flash",
    "tm:fling",
    "tm:frustration",
    "tm:gigadrain",
    "tm:grassknot",
    "tm:grassyterrain",
    "tm:hiddenpower",
    "tm:irontail",
    "tm:leafstorm",
    "tm:lowkick",
    "tm:magicalleaf",
    "tm:megakick",
    "tm:megapunch",
    "tm:naturepower",
    "tm:poweruppunch",
    "tm:protect",
    "tm:rest",
    "tm:return",
    "tm:rockslide",
    "tm:rocksmash",
    "tm:rocktomb",
    "tm:round",
    "tm:safeguard",
    "tm:screech",
    "tm:secretpower",
    "tm:seedbomb",
    "tm:sleeptalk",
    "tm:snore",
    "tm:solarbeam",
    "tm:strength",
    "tm:substitute",
    "tm:sunnyday",
    "tm:swagger",
    "tm:swift",
    "tm:swordsdance",
    "tm:thunderpunch",
    "tm:toxic",
    "tm:workup",
    "tutor:counter",
    "tutor:doubleedge",
    "tutor:dynamicpunch",
    "tutor:focuspunch",
    "tutor:furycutter",
    "tutor:grasspledge",
    "tutor:grassyglide",
    "tutor:headbutt",
    "tutor:mimic",
    "tutor:mudslap",
    "tutor:seismictoss"
  ],
  "labels": [
    "gen3"
  ],
  "pokedex": [
    "cobblemon.species.treecko.desc"
  ],
  "evolutions": [
    {
      "id": "treecko_grovyle",
      "variant": "level_up",
      "result": "grovyle",
      "consumeHeldItem": false,
      "learnableMoves": [],
      "requirements": [
        {
          "variant": "level",
          "minLevel": 16
        }
      ]
    }
  ],
  "baseScale": 1,
  "hitbox": {
    "width": 1,
    "height": 1,
    "fixed": false
  },
  "baseFriendship": 50,
  "evYield": {
    "hp": 0,
    "attack": 0,
    "defence": 0,
    "special_attack": 0,
    "special_defence": 0,
    "speed": 1
  },
  "height": 5,
  "weight": 50,
  "aspects": [],
  "cannotDynamax": false
}