{
  "name": "Whiscash",
  "nationalPokedexNumber": 340,
  "primaryType": "water",
  "secondaryType": "ground",
  "abilities": [
    "oblivious",
    "anticipation",
    "h:hydration"
  ],
  "baseStats": {
    "hp": 110,
    "attack": 78,
    "defence": 73,
    "special_attack": 76,
    "special_defence": 71,
    "speed": 60
  },
  "catchRate": 75,
  "maleRatio": 0.5,
  "shoulderMountable": false,
  "baseExperienceYield": 164,
  "experienceGroup": "medium_fast",
  "eggCycles": 20,
  "eggGroups": [
    "water_2"
  ],
  "moves": [
    "1:belch",
    "1:mudslap",
    "1:mudsport",
    "1:rest",
    "1:snore",
    "1:tickle",
    "1:watergun",
    "1:watersport",
    "1:zenheadbutt",
    "12:waterpulse",
    "13:mudbomb",
    "18:amnesia",
    "20:magnitude",
    "24:aquatail",
    "33:muddywater",
    "40:earthquake",
    "48:futuresight",
    "56:fissure",
    "tm:amnesia",
    "tm:attract",
    "tm:blizzard",
    "tm:bodyslam",
    "tm:bounce",
    "tm:bulldoze",
    "tm:captivate",
    "tm:chillingwater",
    "tm:confide",
    "tm:dive",
    "tm:doubleteam",
    "tm:dragondance",
    "tm:earthpower",
    "tm:earthquake",
    "tm:endure",
    "tm:facade",
    "tm:frustration",
    "tm:gigaimpact",
    "tm:hail",
    "tm:helpinghand",
    "tm:hiddenpower",
    "tm:hydropump",
    "tm:hyperbeam",
    "tm:icebeam",
    "tm:icywind",
    "tm:liquidation",
    "tm:mudshot",
    "tm:mudslap",
    "tm:naturalgift",
    "tm:outrage",
    "tm:protect",
    "tm:raindance",
    "tm:rest",
    "tm:return",
    "tm:rockslide",
    "tm:rocksmash",
    "tm:rocktomb",
    "tm:round",
    "tm:sandstorm",
    "tm:sandtomb",
    "tm:scald",
    "tm:scaryface",
    "tm:secretpower",
    "tm:sleeptalk",
    "tm:spikes",
    "tm:stealthrock",
    "tm:stompingtantrum",
    "tm:stoneedge",
    "tm:strength",
    "tm:substitute",
    "tm:sunnyday",
    "tm:surf",
    "tm:swagger",
    "tm:swift",
    "tm:takedown",
    "tm:terablast",
    "tm:toxic",
    "tm:uproar",
    "tm:waterfall",
    "tm:waterpulse",
    "tm:weatherball",
    "tm:whirlpool",
    "tm:zenheadbutt",
    "tutor:doubleedge",
    "tutor:headbutt",
    "tutor:mimic"
  ],
  "labels": [
    "gen3"
  ],
  "pokedex": [
    "cobblemon.species.whiscash.desc"
  ],
  "preEvolution": "barboach",
  "evolutions": [],
  "baseScale": 1,
  "hitbox": {
    "width": 1,
    "height": 1,
    "fixed": false
  },
  "baseFriendship": 50,
  "evYield": {
    "hp": 2,
    "attack": 0,
    "defence": 0,
    "special_attack": 0,
    "special_defence": 0,
    "speed": 0
  },
  "height": 9,
  "weight": 236,
  "aspects": [],
  "cannotDynamax": false
}