{
	"format_version": "1.8.0",
	"animations": {
		"animation.torracat.ground_idle": {
			"loop": true,
			"bones": {
				"tail1": {
					"rotation": [15, 0, 0]
				},
				"tail2": {
					"rotation": [15, 0, 0]
				}
			}
		}
	}
}