{
	"format_version": "1.8.0",
	"animations": {
		"animation.mewtwo.ground_idle": {
			"loop": true,
			"bones": {
				"tail": {
					"rotation": [10, 0, 0]
				},
				"tail2": {
					"rotation": [15, 0, 0]
				},
				"tail3": {
					"rotation": [45, 0, 0]
				},
				"tail4": {
					"rotation": [30, 0, 0]
				},
				"tail5": {
					"rotation": [-45, 0, 0]
				},
				"tail6": {
					"rotation": [-45, 0, 0]
				},
				"leftarm": {
					"rotation": [15, -10, 50]
				},
				"leftforearm": {
					"rotation": [0, 45, 0]
				},
				"lefthand": {
					"rotation": [0, 0, 15]
				},
				"finger4": {
					"rotation": [0, 0, 27.5]
				},
				"finger5": {
					"rotation": [0, 0, 30]
				},
				"finger6": {
					"rotation": [0, 0, 25]
				},
				"rightarm": {
					"rotation": [15, 10, -50]
				},
				"rightforearm": {
					"rotation": [0, -45, 0]
				},
				"righthand": {
					"rotation": [0, 0, -15]
				},
				"finger": {
					"rotation": [0, 0, -27.5]
				},
				"finger2": {
					"rotation": [0, 0, -30]
				},
				"finger3": {
					"rotation": [0, 0, -25]
				}
			}
		},
		"animation.mewtwo.air_idle": {
			"loop": true,
			"bones": {
				"tail": {
					"rotation": [5, 0, 0]
				},
				"tail2": {
					"rotation": [15, 0, 0]
				},
				"tail3": {
					"rotation": [30, 0, 0]
				},
				"tail4": {
					"rotation": [15, 0, 0]
				},
				"tail5": {
					"rotation": [-30, 0, 0]
				},
				"tail6": {
					"rotation": [-30, 0, 0]
				},
				"leftarm": {
					"rotation": [30, -5, 47.5]
				},
				"leftforearm": {
					"rotation": [0, 30, 0]
				},
				"lefthand": {
					"rotation": [0, 0, 15]
				},
				"finger4": {
					"rotation": [0, 0, 27.5]
				},
				"finger5": {
					"rotation": [0, 0, 30]
				},
				"finger6": {
					"rotation": [0, 0, 25]
				},
				"rightarm": {
					"rotation": [30, 5, -47.5]
				},
				"rightforearm": {
					"rotation": [0, -30, 0]
				},
				"righthand": {
					"rotation": [0, 0, -15]
				},
				"finger": {
					"rotation": [0, 0, -27.5]
				},
				"finger2": {
					"rotation": [0, 0, -30]
				},
				"finger3": {
					"rotation": [0, 0, -25]
				},
				"body": {
					"rotation": [5, 0, 0],
					"position": [0, 2, 0]
				},
				"rightleg": {
					"rotation": [5, 0, 0]
				},
				"rightknee": {
					"rotation": [5, 0, 0]
				},
				"rightfoot": {
					"rotation": [25, 0, 0]
				},
				"neck": {
					"rotation": [-2.5, 0, 0]
				},
				"head": {
					"rotation": [-2.5, 0, 0]
				},
				"leftleg": {
					"rotation": [5, 0, 0]
				},
				"leftknee": {
					"rotation": [5, 0, 0]
				},
				"leftfoot": {
					"rotation": [25, 0, 0]
				}
			}
		},
		"animation.mewtwo.air_fly": {
			"loop": true,
			"bones": {
				"tail": {
					"rotation": [-10, 0, 0]
				},
				"tail2": {
					"rotation": [-7.5, 0, 0]
				},
				"tail3": {
					"rotation": [-7.5, 0, 0]
				},
				"tail4": {
					"rotation": [-7.5, 0, 0]
				},
				"tail5": {
					"rotation": [7.5, 0, 0]
				},
				"tail6": {
					"rotation": [7.5, 0, 0]
				},
				"leftarm": {
					"rotation": [45, -15, 47.5]
				},
				"leftforearm": {
					"rotation": [0, 30, 0]
				},
				"lefthand": {
					"rotation": [0, 0, 15]
				},
				"finger4": {
					"rotation": [0, 0, 27.5]
				},
				"finger5": {
					"rotation": [0, 0, 30]
				},
				"finger6": {
					"rotation": [0, 0, 25]
				},
				"rightarm": {
					"rotation": [45, 15, -47.5]
				},
				"rightforearm": {
					"rotation": [0, -30, 0]
				},
				"righthand": {
					"rotation": [0, 0, -15]
				},
				"finger": {
					"rotation": [0, 0, -27.5]
				},
				"finger2": {
					"rotation": [0, 0, -30]
				},
				"finger3": {
					"rotation": [0, 0, -25]
				},
				"body": {
					"rotation": [30, 0, 0],
					"position": [0, 2, 0]
				},
				"rightleg": {
					"rotation": [10, 0, 0]
				},
				"rightknee": {
					"rotation": [10, 0, 0]
				},
				"rightfoot": {
					"rotation": [25, 0, 0]
				},
				"neck": {
					"rotation": [-12.5, 0, 0]
				},
				"head": {
					"rotation": [-12.5, 0, 0]
				},
				"leftleg": {
					"rotation": [10, 0, 0]
				},
				"leftknee": {
					"rotation": [10, 0, 0]
				},
				"leftfoot": {
					"rotation": [25, 0, 0]
				}
			}
		}
	}
}