{
	"format_version": "1.8.0",
	"animations": {
		"animation.tsareena.ground_idle": {
			"loop": true,
			"bones": {
				"hair_middle3": {
					"rotation": [-7.5, 0, 0]
				},
				"hair_middle4": {
					"rotation": [-7.5, 0, 0]
				},
				"hair_middle5": {
					"rotation": [7.5, 0, 0]
				},
				"hair_middle6": {
					"rotation": [15, 0, 0]
				},
				"hair_right3": {
					"rotation": [-7.5, 0, 0]
				},
				"hair_right4": {
					"rotation": [-7.5, 0, 0]
				},
				"hair_right5": {
					"rotation": [7.5, 0, 0]
				},
				"hair_right6": {
					"rotation": [15, 0, 0]
				},
				"hair_left3": {
					"rotation": [-7.5, 0, 0]
				},
				"hair_left4": {
					"rotation": [-7.5, 0, 0]
				},
				"hair_left5": {
					"rotation": [7.5, 0, 0]
				},
				"hair_left6": {
					"rotation": [15, 0, 0]
				},
				"arm_right": {
					"rotation": [30, -35, -35]
				},
				"arm_right2": {
					"rotation": [0, -80, 0]
				},
				"hand_right": {
					"rotation": [0, 0, -40]
				},
				"arm_left": {
					"rotation": [20, 35, 45]
				},
				"arm_left2": {
					"rotation": [0, 75, 0]
				},
				"hand_left": {
					"rotation": [0, 0, 40]
				}
			}
		}
	}
}